%YAML 1.1
%TAG !u! tag:unity3d.com,2011:
--- !u!21 &2100000
Material:
  serializedVersion: 6
  m_ObjectHideFlags: 0
  m_PrefabParentObject: {fileID: 0}
  m_PrefabInternal: {fileID: 0}
  m_Name: WaterPlusMaterial-Pond
  m_Shader: {fileID: 4800000, guid: fb4cacee0cbe8ea4298176d2059ffeca, type: 3}
  m_ShaderKeywords: 
  m_LightmapFlags: 5
  m_CustomRenderQueue: 2800
  stringTagMap: {}
  m_SavedProperties:
    serializedVersion: 2
    m_TexEnvs:
      data:
        first:
          name: _MainTex
        second:
          m_Texture: {fileID: 2800000, guid: de527d256fa4d99418decabbb2c956a5, type: 3}
          m_Scale: {x: 10, y: 10}
          m_Offset: {x: 0, y: 0}
      data:
        first:
          name: _BumpMap
        second:
          m_Texture: {fileID: -1577246934, guid: 09a8c200bd0c4425eb150bc08a1c22b1,
            type: 3}
          m_Scale: {x: 1, y: 1}
          m_Offset: {x: 0, y: 0}
      data:
        first:
          name: _NormalMap
        second:
          m_Texture: {fileID: 2800000, guid: 7a4853d07939e9c4891e5663dfc43df2, type: 3}
          m_Scale: {x: 1, y: 1}
          m_Offset: {x: 0, y: 0}
      data:
        first:
          name: _ParallaxMap
        second:
          m_Texture: {fileID: 0}
          m_Scale: {x: 1, y: 1}
          m_Offset: {x: 0, y: 0}
      data:
        first:
          name: _Cube
        second:
          m_Texture: {fileID: 8900000, guid: d7ccd465d7dd47d4783dd690b0e6dbd3, type: 2}
          m_Scale: {x: 1, y: 1}
          m_Offset: {x: 0, y: 0}
      data:
        first:
          name: _DUDVFoamMap
        second:
          m_Texture: {fileID: 2800000, guid: 334a899430b391e45a72dad5c9e1dade, type: 3}
          m_Scale: {x: 1, y: 1}
          m_Offset: {x: 0, y: 0}
      data:
        first:
          name: _WaterMap
        second:
          m_Texture: {fileID: 0}
          m_Scale: {x: 1, y: 1}
          m_Offset: {x: 0, y: 0}
      data:
        first:
          name: _SecondaryRefractionTex
        second:
          m_Texture: {fileID: 2800000, guid: c4d1021fe531944c1a71c96b89f2ea8a, type: 3}
          m_Scale: {x: 100, y: 100}
          m_Offset: {x: 0, y: 0}
      data:
        first:
          name: _FlowMap
        second:
          m_Texture: {fileID: 2800000, guid: a2dc3634c8c67694a8cd4a4b49ca019f, type: 3}
          m_Scale: {x: 1, y: 1}
          m_Offset: {x: 0, y: 0}
      data:
        first:
          name: _AnisoMap
        second:
          m_Texture: {fileID: 2800000, guid: 365983497b9051e4d888fd5673383358, type: 3}
          m_Scale: {x: 1, y: 1}
          m_Offset: {x: 0, y: 0}
      data:
        first:
          name: _CausticsAnimationTexture
        second:
          m_Texture: {fileID: 2800000, guid: 284f70b5e464d234e9ac59334d6e64ef, type: 3}
          m_Scale: {x: 1, y: 1}
          m_Offset: {x: 0, y: 0}
      data:
        first:
          name: _Normalmap
        second:
          m_Texture: {fileID: 2800000, guid: 471915e5084ab7d46a38fa6740bdcbec, type: 3}
          m_Scale: {x: 1, y: 1}
          m_Offset: {x: -605.61536, y: -985.1767}
      data:
        first:
          name: _Depthmap
        second:
          m_Texture: {fileID: 2800000, guid: 59738541cb29b9545984ffdb2aa848de, type: 3}
          m_Scale: {x: 1, y: 1}
          m_Offset: {x: 0, y: 0}
      data:
        first:
          name: _Flowmap
        second:
          m_Texture: {fileID: 0}
          m_Scale: {x: 1, y: 1}
          m_Offset: {x: 0, y: 0}
      data:
        first:
          name: _RefractionMap
        second:
          m_Texture: {fileID: 2800000, guid: 405702d91797f394f9495029d3eeea85, type: 3}
          m_Scale: {x: 2, y: 2}
          m_Offset: {x: -0.5, y: -0.5}
      data:
        first:
          name: _HeightGlossMap
        second:
          m_Texture: {fileID: 0}
          m_Scale: {x: 1, y: 1}
          m_Offset: {x: 0, y: 0}
      data:
        first:
          name: _RefractionTileTexture
        second:
          m_Texture: {fileID: 0}
          m_Scale: {x: 1, y: 1}
          m_Offset: {x: 0, y: 0}
      data:
        first:
          name: _DepthNoiseMap
        second:
          m_Texture: {fileID: 2800000, guid: 6c6f100fc057949429602e03c1395cc2, type: 3}
          m_Scale: {x: 1, y: 1}
          m_Offset: {x: 0, y: 0}
    m_Floats:
      data:
        first:
          name: _Shininess
        second: 5.4
      data:
        first:
          name: _Parallax
        second: 0.02
      data:
        first:
          name: _Reflectivity
        second: 0.371
      data:
        first:
          name: _Refractivity
        second: 1.38
      data:
        first:
          name: _WaterAttenuation
        second: 1.0384616
      data:
        first:
          name: _Gloss
        second: 11.7
      data:
        first:
          name: _Fresnel0
        second: 0.05
      data:
        first:
          name: _EdgeFoamStrength
        second: 1.02
      data:
        first:
          name: _CausticsStrength
        second: 0.21538462
      data:
        first:
          name: _CausticsScale
        second: 469.23077
      data:
        first:
          name: _normalStrength
        second: 5
      data:
        first:
          name: _refractionsWetness
        second: 0.327
      data:
        first:
          name: flowMapOffset0
        second: 0
      data:
        first:
          name: flowMapOffset1
        second: 0.5
      data:
        first:
          name: halfCycle
        second: 1
      data:
        first:
          name: _DeepWaterCoefficient
        second: 5.5
      data:
        first:
          name: _EdgeBlendStrength
        second: 50
      data:
        first:
          name: _yOffset
        second: 0
      data:
        first:
          name: flowTide
        second: 0
    m_Colors:
      data:
        first:
          name: _Color
        second: {r: 1, g: 1, b: 1, a: 1}
      data:
        first:
          name: _ShallowWaterTint
        second: {r: 0, g: 0.62597203, b: 1, a: 1}
      data:
        first:
          name: _DeepWaterTint
        second: {r: 0.01184041, g: 0.33921263, b: 0.53676474, a: 1}
      data:
        first:
          name: causticsOffsetAndScale
        second: {r: 0.5, g: 0.75, b: 0.25, a: 0.25}
      data:
        first:
          name: causticsAnimationColorChannel
        second: {r: 1, g: 0, b: 0, a: 0}
      data:
        first:
          name: anisoDirAnimationOffset
        second: {r: -0.0000000027035694, g: -0.008297196, b: 0, a: 0}
