%YAML 1.1
%TAG !u! tag:unity3d.com,2011:
--- !u!1 &119766
GameObject:
  m_ObjectHideFlags: 0
  m_PrefabParentObject: {fileID: 0}
  m_PrefabInternal: {fileID: 100100000}
  serializedVersion: 4
  m_Component:
  - 4: {fileID: 432732}
  - 114: {fileID: 11469578}
  - 33: {fileID: 3352622}
  - 23: {fileID: 2347390}
  - 64: {fileID: 6479764}
  m_Layer: 0
  m_Name: custom t crossing prefab
  m_TagString: Untagged
  m_Icon: {fileID: 0}
  m_NavMeshLayer: 0
  m_StaticEditorFlags: 0
  m_IsActive: 1
--- !u!4 &432732
Transform:
  m_ObjectHideFlags: 1
  m_PrefabParentObject: {fileID: 0}
  m_PrefabInternal: {fileID: 100100000}
  m_GameObject: {fileID: 119766}
  m_LocalRotation: {x: 0, y: 0, z: 0, w: 1}
  m_LocalPosition: {x: 0, y: 0, z: 0}
  m_LocalScale: {x: 1, y: 1, z: 1}
  m_Children: []
  m_Father: {fileID: 0}
  m_RootOrder: 0
--- !u!23 &2347390
MeshRenderer:
  m_ObjectHideFlags: 1
  m_PrefabParentObject: {fileID: 0}
  m_PrefabInternal: {fileID: 100100000}
  m_GameObject: {fileID: 119766}
  m_Enabled: 1
  m_CastShadows: 1
  m_ReceiveShadows: 1
  m_Materials:
  - {fileID: 2100000, guid: d392afb3410862747948811d4b70ba4e, type: 2}
  - {fileID: 2100000, guid: 717ced331304e2f4691bac3d9ba72fea, type: 2}
  - {fileID: 2100000, guid: 833ab6c156a752045b2b023689aa3056, type: 2}
  - {fileID: 2100000, guid: bcd4f45a5d5507440af1b82e9257cdcf, type: 2}
  - {fileID: 2100000, guid: c6a03ff679a561c46a80405576b314c7, type: 2}
  m_SubsetIndices: 
  m_StaticBatchRoot: {fileID: 0}
  m_UseLightProbes: 0
  m_ReflectionProbeUsage: 1
  m_ProbeAnchor: {fileID: 0}
  m_ScaleInLightmap: 1
  m_PreserveUVs: 0
  m_IgnoreNormalsForChartDetection: 0
  m_ImportantGI: 0
  m_MinimumChartSize: 4
  m_AutoUVMaxDistance: 0.5
  m_AutoUVMaxAngle: 89
  m_LightmapParameters: {fileID: 0}
  m_SortingLayerID: 0
  m_SortingOrder: 0
--- !u!33 &3352622
MeshFilter:
  m_ObjectHideFlags: 1
  m_PrefabParentObject: {fileID: 0}
  m_PrefabInternal: {fileID: 100100000}
  m_GameObject: {fileID: 119766}
  m_Mesh: {fileID: 4300000, guid: b3c418a764702314e94a669d87fad6a6, type: 2}
--- !u!64 &6479764
MeshCollider:
  m_ObjectHideFlags: 1
  m_PrefabParentObject: {fileID: 0}
  m_PrefabInternal: {fileID: 100100000}
  m_GameObject: {fileID: 119766}
  m_Material: {fileID: 0}
  m_IsTrigger: 0
  m_Enabled: 1
  serializedVersion: 2
  m_Convex: 0
  m_Mesh: {fileID: 4300000, guid: b3c418a764702314e94a669d87fad6a6, type: 2}
--- !u!114 &11469578
MonoBehaviour:
  m_ObjectHideFlags: 1
  m_PrefabParentObject: {fileID: 0}
  m_PrefabInternal: {fileID: 100100000}
  m_GameObject: {fileID: 119766}
  m_Enabled: 1
  m_EditorHideFlags: 0
  m_Script: {fileID: -2039104457, guid: f56d46228aee4734f9114056c53bb57e, type: 3}
  m_Name: 
  m_EditorClassIdentifier: 
  crossingElements:
  - centerPoint: {x: 4.4843, y: 0, z: -9.7057495}
    tmpCenterPoint: {x: 4.4843, y: 0, z: -9.7057495}
    stageCenterPoint: {x: 4.4843, y: 0, z: 0}
    tmpStageCenterPoint: {x: 4.4843, y: 0, z: 0}
    blendData: []
    controlPointV3: {x: 4.500467, y: 0, z: -1.7057657}
    controlPoint: {x: 4.500467, y: -1.7057657}
    blendDistance: 0
    extendBounds: 0
    blendCornerPoints:
    - {x: -3.8537, y: -9.6889, z: 0}
    - {x: -3.8537, y: -9.6889, z: 0}
    - {x: 12.8223, y: -9.7226, z: 0}
    - {x: 12.8223, y: -9.7226, z: 0}
    blendCornerPointInts: 1c0100001b0100001f010000440000002101000046000000960000009500000093000000900000004e000000910000004f0000006e01000069010000680100006b010000
    blendCornerPointWeights:
    - 0
    - 0
    - 0
    - 0
    - 0
    - 0
    - 0
    - 0
    - 0
    - 0
    - 0
    - 0
    - 0
    - 0
    - 0
    - 0
    - 0
    blendCornerPointsTransformed:
    - {x: 143.01556, y: 507.20938, z: 0}
    - {x: 143.01556, y: 507.20938, z: 0}
    - {x: 461.525, y: 507.85306, z: 0}
    - {x: 461.525, y: 507.85306, z: 0}
    blendRatio: 1
    curveStrength: 0
    roadShapeVecs:
    - {x: -8.338017, y: 0.0832}
    - {x: -5.438734, y: 0.0832}
    - {x: -5.2012215, y: 0.0832}
    - {x: -4.9408026, y: 0.0082}
    - {x: -1.5295525, y: 0.0082}
    - {x: -1.4719548, y: 0.0629}
    - {x: -1.3972611, y: 0.0749}
    - {x: -1.3184686, y: 0.063}
    - {x: -1.2565703, y: 0.0082}
    - {x: 4.936392, y: 0.0082}
    - {x: 5.2024736, y: 0.0832}
    - {x: 5.44007, y: 0.0832}
    - {x: 8.338223, y: 0.0832}
    roadShapeVecsString: 2d382e332c20302e313b2d352e342c20302e313b2d352e322c20302e313b2d342e392c20303b2d312e352c20303b2d312e352c20302e313b2d312e342c20302e313b2d312e332c20302e313b2d312e332c20303b342e392c20303b352e322c20302e313b352e342c20302e313b382e332c20302e313b
    roadShapeMatchCount: 13
    roadShapeUVY:
    - 0
    - 0.17317784
    - 0.18736477
    - 0.20355216
    - 0.40731043
    - 0.41205505
    - 0.41657382
    - 0.42133358
    - 0.4262716
    - 0.796185
    - 0.8126977
    - 0.82688963
    - 1
    hardEdge: []
    roadShapeMaterialInts: 00000000000000000000000000000000000000000000000000000000000000000000000000000000000000000000000000000000
    sidewalkLeftVecs: []
    sidewalkLeftUVY: []
    sidewalkLeftMaterialInts: 
    sidewalkRightVecs: []
    sidewalkRightUVY: []
    sidewalkRightMaterialInts: 
    connectionVecs: []
    connectionVecInts: b0000000af000000b300000035000000370000006d0000006b000000690000003f00000040000000e7000000e6000000e8000000
    fullConnectionVecInts: 1c0100001b0100001f010000440000002101000046000000960000009500000093000000900000004e000000910000004f0000006e01000069010000680100006b010000
    sidewalkLeftConnectionVecInts: 
    sidewalkRightConnectionVecInts: 
    doConnectionTri: []
    outerVecInts: 
    rotationPriority: 0
    centerPointAngle: 1000
    connectedRoad: {fileID: 0}
    connectedMarker: -1
    connectedRoadGO: {fileID: 0}
    includeLeftSidewalk: 1
    includeRightSidewalk: 1
    roadMaterial: {fileID: 2100000, guid: 833ab6c156a752045b2b023689aa3056, type: 2}
    roadMaterials:
    - {fileID: 2100000, guid: 833ab6c156a752045b2b023689aa3056, type: 2}
    centerPointPercentage: 0.5
    leftIndent: -1
    rightIndent: -1
    leftSurrounding: -1
    rightSurrounding: -1
    leftIndentV3: {x: 0, y: 0, z: 0}
    leftSurroundingV3: {x: 0, y: 0, z: 0}
    rightIndentV3: {x: 0, y: 0, z: 0}
    rightSurroundingV3: {x: 0, y: 0, z: 0}
    leftCornerInt: -1
    rightCornerInt: -1
    leftIndentInt: 13
    rightIndentInt: 12
    leftInt: 0
    rightInt: 0
    leftIntFull: 0
    rightIntFull: 0
    alignmentHandleVec: {x: 4.4903626, y: 0, z: -6.7057557}
    additionalIndentDistance: 0
    connectionAngle: 0
    alignmentHandleVecRotationGizmo: {x: 0, y: 0, z: 0}
    roadType: 0
  - centerPoint: {x: 1.7533498, y: 0, z: 12.1458}
    tmpCenterPoint: {x: 1.7533498, y: 0, z: 12.1458}
    stageCenterPoint: {x: 1.7533498, y: 0, z: 0}
    tmpStageCenterPoint: {x: 1.7533498, y: 0, z: 0}
    blendData: []
    controlPointV3: {x: 1.758048, y: 0, z: 4.1458006}
    controlPoint: {x: 1.758048, y: 4.1458006}
    blendDistance: 0
    extendBounds: 0
    blendCornerPoints:
    - {x: 10.0967, y: 12.1507, z: 0}
    - {x: 10.0967, y: 12.1507, z: 0}
    - {x: -6.59, y: 12.1409, z: 0}
    - {x: -6.59, y: 12.1409, z: 0}
    blendCornerPointInts: 180000001500000014000000190000001d0000002c0000002b000000290000002600000022000000270000000f0000000a0000000c0000000e000000
    blendCornerPointWeights:
    - 0
    - 0
    - 0
    - 0
    - 0
    - 0
    - 0
    - 0
    - 0
    - 0
    - 0
    - 0
    - 0
    - 0
    - 0
    blendCornerPointsTransformed:
    - {x: 409.4664, y: 90.07586, z: 0}
    - {x: 409.4664, y: 90.07586, z: 0}
    - {x: 90.75258, y: 90.26304, z: 0}
    - {x: 90.75258, y: 90.26304, z: 0}
    blendRatio: 1
    curveStrength: 0
    roadShapeVecs:
    - {x: -8.34335, y: 0.0832}
    - {x: -5.4441557, y: 0.0832}
    - {x: -5.2064457, y: 0.0832}
    - {x: -4.9451323, y: 0.0082}
    - {x: -1.5111451, y: 0.0082}
    - {x: -1.4534497, y: 0.0629}
    - {x: -1.3789544, y: 0.0749}
    - {x: -1.3001599, y: 0.063}
    - {x: -1.2380648, y: 0.0082}
    - {x: 4.948413, y: 0.0082}
    - {x: 5.2078085, y: 0.0832}
    - {x: 5.445404, y: 0.0832}
    - {x: 8.343558, y: 0.0832}
    roadShapeVecsString: 2d382e332c20302e313b2d352e342c20302e313b2d352e322c20302e313b2d342e392c20303b2d312e352c20303b2d312e352c20302e313b2d312e342c20302e313b2d312e332c20302e313b2d312e322c20303b342e392c20303b352e322c20302e313b352e342c20302e313b382e332c20302e313b
    roadShapeMatchCount: 13
    roadShapeUVY:
    - 0
    - 0.17306075
    - 0.1872503
    - 0.20347856
    - 0.40846252
    - 0.4132083
    - 0.41771245
    - 0.42246926
    - 0.42741287
    - 0.7967004
    - 0.8128187
    - 0.8270014
    - 1
    hardEdge: []
    roadShapeMaterialInts: 00000000000000000000000000000000000000000000000000000000000000000000000000000000000000000000000000000000
    sidewalkLeftVecs: []
    sidewalkLeftUVY: []
    sidewalkLeftMaterialInts: 
    sidewalkRightVecs: []
    sidewalkRightUVY: []
    sidewalkRightMaterialInts: 
    connectionVecs: []
    connectionVecInts: 15000000120000001100000016000000190000002500000023000000210000001e0000000d000000080000000a0000000c000000
    fullConnectionVecInts: 180000001500000014000000190000001d0000002c0000002b000000290000002600000022000000270000000f0000000a0000000c0000000e000000
    sidewalkLeftConnectionVecInts: 
    sidewalkRightConnectionVecInts: 
    doConnectionTri: []
    outerVecInts: 
    rotationPriority: 0
    centerPointAngle: 1000
    connectedRoad: {fileID: 0}
    connectedMarker: -1
    connectedRoadGO: {fileID: 0}
    includeLeftSidewalk: 1
    includeRightSidewalk: 1
    roadMaterial: {fileID: 2100000, guid: 833ab6c156a752045b2b023689aa3056, type: 2}
    roadMaterials:
    - {fileID: 2100000, guid: 833ab6c156a752045b2b023689aa3056, type: 2}
    centerPointPercentage: 0.5
    leftIndent: -1
    rightIndent: -1
    leftSurrounding: -1
    rightSurrounding: -1
    leftIndentV3: {x: 0, y: 0, z: 0}
    leftSurroundingV3: {x: 0, y: 0, z: 0}
    rightIndentV3: {x: 0, y: 0, z: 0}
    rightSurroundingV3: {x: 0, y: 0, z: 0}
    leftCornerInt: -1
    rightCornerInt: -1
    leftIndentInt: 2
    rightIndentInt: 1
    leftInt: 0
    rightInt: 0
    leftIntFull: 0
    rightIntFull: 0
    alignmentHandleVec: {x: 0, y: 0, z: 0}
    additionalIndentDistance: 0
    connectionAngle: 0
    alignmentHandleVecRotationGizmo: {x: 0, y: 0, z: 0}
    roadType: 0
  - centerPoint: {x: 18.17205, y: 0, z: 1.0599499}
    tmpCenterPoint: {x: 18.17205, y: 0, z: 1.0599499}
    stageCenterPoint: {x: 18.17205, y: 0, z: 0}
    tmpStageCenterPoint: {x: 18.17205, y: 0, z: 0}
    blendData: []
    controlPointV3: {x: 10.17206, y: 0, z: 1.0719112}
    controlPoint: {x: 10.17206, y: 1.0719112}
    blendDistance: 0
    extendBounds: 0
    blendCornerPoints:
    - {x: 18.1642, y: -4.1901, z: 0}
    - {x: 18.1642, y: -4.1901, z: 0}
    - {x: 18.1799, y: 6.31, z: 0}
    - {x: 18.1799, y: 6.31, z: 0}
    blendCornerPointInts: c0010000be010000bc0100008d000000ba0100008a000000b8010000b3010000b6010000b1010000b4010000
    blendCornerPointWeights:
    - 0
    - 0
    - 0
    - 0
    - 0
    - 0
    - 0
    - 0
    - 0
    - 0
    - 0
    blendCornerPointsTransformed:
    - {x: 563.55457, y: 402.183, z: 0}
    - {x: 563.55457, y: 402.183, z: 0}
    - {x: 563.85443, y: 201.63246, z: 0}
    - {x: 563.85443, y: 201.63246, z: 0}
    blendRatio: 1
    curveStrength: 0
    roadShapeVecs:
    - {x: -5.250056, y: 0.0766}
    - {x: -2.3752408, y: 0.0857}
    - {x: -2.1250231, y: 0.0745}
    - {x: -1.8615923, y: 0.0047}
    - {x: 1.8790803, y: 0.005}
    - {x: 2.1276646, y: 0.0938}
    - {x: 2.340456, y: 0.0938}
    - {x: 5.250335, y: 0.0938}
    roadShapeVecsString: 2d352e332c20302e313b2d322e342c20302e313b2d322e312c20302e313b2d312e392c20303b312e392c20303b322e312c20302e313b322e332c20302e313b352e332c20302e313b
    roadShapeMatchCount: 8
    roadShapeUVY:
    - 0
    - 0.2731395
    - 0.2969367
    - 0.32282913
    - 0.678233
    - 0.7033129
    - 0.72353035
    - 1
    hardEdge: []
    roadShapeMaterialInts: 0000000000000000000000000000000000000000000000000000000000000000
    sidewalkLeftVecs: []
    sidewalkLeftUVY: []
    sidewalkLeftMaterialInts: 
    sidewalkRightVecs: []
    sidewalkRightUVY: []
    sidewalkRightMaterialInts: 
    connectionVecs: []
    connectionVecInts: 0601000005010000040100006700000064000000020100000101000003010000
    fullConnectionVecInts: c0010000be010000bc0100008d000000ba0100008a000000b8010000b3010000b6010000b1010000b4010000
    sidewalkLeftConnectionVecInts: 
    sidewalkRightConnectionVecInts: 
    doConnectionTri: []
    outerVecInts: 
    rotationPriority: 0
    centerPointAngle: 1000
    connectedRoad: {fileID: 0}
    connectedMarker: -1
    connectedRoadGO: {fileID: 0}
    includeLeftSidewalk: 1
    includeRightSidewalk: 1
    roadMaterial: {fileID: 2100000, guid: c6a03ff679a561c46a80405576b314c7, type: 2}
    roadMaterials:
    - {fileID: 2100000, guid: c6a03ff679a561c46a80405576b314c7, type: 2}
    centerPointPercentage: 0.5
    leftIndent: -1
    rightIndent: -1
    leftSurrounding: -1
    rightSurrounding: -1
    leftIndentV3: {x: 0, y: 0, z: 0}
    leftSurroundingV3: {x: 0, y: 0, z: 0}
    rightIndentV3: {x: 0, y: 0, z: 0}
    rightSurroundingV3: {x: 0, y: 0, z: 0}
    leftCornerInt: -1
    rightCornerInt: -1
    leftIndentInt: 7
    rightIndentInt: 6
    leftInt: 0
    rightInt: 0
    leftIntFull: 0
    rightIntFull: 0
    alignmentHandleVec: {x: 0, y: 0, z: 0}
    additionalIndentDistance: 0
    connectionAngle: 0
    alignmentHandleVecRotationGizmo: {x: 0, y: 0, z: 0}
    roadType: 0
  sidewalkControlElements: []
  meshVecs:
  - {x: 3.4314, y: 0, z: 8.1856}
  - {x: 2.6863, y: 0, z: 7.7354}
  - {x: 2.6863, y: 0, z: 8.1802}
  - {x: 3.4314, y: 0, z: 7.7407}
  - {x: -3.1841, y: 0.0065, z: 7.7676}
  - {x: -3.1841, y: 0.0065, z: 8.1687}
  - {x: -3.4509, y: 0.0789, z: 7.7665}
  - {x: -3.1948, y: 0.0082, z: 10.9129}
  - {x: -3.4542, y: 0.0832, z: 12.1427}
  - {x: -3.7408, y: 0.0844, z: 7.7469}
  - {x: -3.6918, y: 0.0832, z: 12.1425}
  - {x: -6.6264, y: 0.0799, z: 7.7581}
  - {x: -6.59, y: 0.0832, z: 12.1409}
  - {x: -3.1948, y: 0.0082, z: 12.1453}
  - {x: 6.7009, y: 0.0082, z: 10.9336}
  - {x: 6.7009, y: 0.0082, z: 8.2312}
  - {x: 6.9752, y: 0.0974, z: 7.7141}
  - {x: 6.9609, y: 0.0832, z: 12.1488}
  - {x: 7.1987, y: 0.0832, z: 12.149}
  - {x: 7.1896, y: 0.0974, z: 7.7133}
  - {x: 10.0999, y: 0.0974, z: 7.7164}
  - {x: 10.0967, y: 0.0832, z: 12.1507}
  - {x: 6.6995, y: 0.0082, z: 12.151}
  - {x: 6.7278, y: 0.0012, z: 7.711}
  - {x: 3.2658, y: 0.0082, z: 11.2003}
  - {x: 3.265, y: 0.0082, z: 12.1511}
  - {x: 3.2118, y: 0.0082, z: 11.093}
  - {x: 3.1328, y: 0.0082, z: 11.0698}
  - {x: 3.0436, y: 0.0082, z: 11.0949}
  - {x: 2.9926, y: 0.0082, z: 11.2058}
  - {x: 2.9919, y: 0.0082, z: 12.1516}
  - {x: 5.8937, y: 0.0025, z: 7.7137}
  - {x: 3.0536, y: 0.0624, z: 11.202}
  - {x: 3.054, y: 0.063, z: 12.1506}
  - {x: 3.1335, y: 0.0749, z: 11.2007}
  - {x: 3.1328, y: 0.0749, z: 12.1511}
  - {x: 3.2081, y: 0.0624, z: 11.2}
  - {x: 3.2073, y: 0.0629, z: 12.1517}
  - {x: 3.132, y: 0.0544, z: 11.1168}
  - {x: 5.7839, y: 0, z: -6.4302}
  - {x: 6.1158, y: 0, z: -4.8475}
  - {x: 6.077, y: 0, z: -6.4467}
  - {x: 5.8548, y: 0, z: -4.8423}
  - {x: 6.299, y: 0, z: -3.1721}
  - {x: 5.9667, y: 0, z: -3.0879}
  - {x: 6.5988, y: 0, z: -1.9998}
  - {x: 6.0872, y: 0, z: -0.3202}
  - {x: 6.8906, y: 0, z: -1.2364}
  - {x: 7.3809, y: 0, z: -0.3094}
  - {x: 2.7079, y: 0, z: 4.0784}
  - {x: 3.4734, y: 0, z: 4.0669}
  - {x: 3.3179, y: 0, z: -0.339}
  - {x: 2.713, y: 0, z: -0.1523}
  - {x: -0.4575, y: 0.0082, z: -9.6906}
  - {x: 2.9553, y: 0.0082, z: -8.7734}
  - {x: 2.9542, y: 0.0082, z: -9.7242}
  - {x: 2.7321, y: 0, z: -8.4687}
  - {x: 3.0096, y: 0.0082, z: -8.6661}
  - {x: 3.0884, y: 0.0082, z: -8.6431}
  - {x: 3.4387, y: 0, z: -8.4697}
  - {x: 3.1789, y: 0.0041, z: -8.668}
  - {x: 3.2285, y: 0.0082, z: -8.7795}
  - {x: 9.4204, y: 0.0082, z: -8.4252}
  - {x: 3.2272, y: 0.0082, z: -9.7252}
  - {x: 9.4204, y: 0.0082, z: -9.7273}
  - {x: 0.2819, y: 0.0082, z: -8.6868}
  - {x: -0.4542, y: 0.0082, z: -8.7779}
  - {x: 0.2991, y: 0, z: 6.705}
  - {x: 0.1048, y: 0, z: 5.1345}
  - {x: 0.0681, y: 0, z: 6.6999}
  - {x: 0.3344, y: 0, z: 5.14}
  - {x: 0.176, y: 0, z: 4.0009}
  - {x: 0.3916, y: 0, z: 4.033}
  - {x: 0.2591, y: 0, z: 2.3765}
  - {x: 0.4677, y: 0, z: 2.4298}
  - {x: 0.3531, y: 0, z: 1.4756}
  - {x: 0.5588, y: 0, z: 1.5069}
  - {x: 0.8065, y: 0, z: 0.713}
  - {x: 0.5438, y: 0, z: 0.4737}
  - {x: 1.024, y: 0, z: -1.0204}
  - {x: 1.2429, y: 0, z: -0.9119}
  - {x: 1.5003, y: 0, z: -2.3391}
  - {x: 1.7411, y: 0, z: -2.2608}
  - {x: 1.9899, y: 0, z: -3.5835}
  - {x: 2.2346, y: 0, z: -3.5075}
  - {x: 2.4137, y: 0, z: -5.014}
  - {x: 2.6543, y: 0, z: -4.9771}
  - {x: 2.67, y: 0, z: -6.3636}
  - {x: 2.954, y: 0, z: -6.3703}
  - {x: 1.0115, y: 0, z: 0.8857}
  - {x: 1.3807, y: 0, z: 0.1822}
  - {x: 1.5388, y: 0, z: 0.4161}
  - {x: 2.1147, y: 0, z: 0.0915}
  - {x: 2.0466, y: 0, z: -0.201}
  - {x: 2.9988, y: 0, z: -0.6222}
  - {x: 2.7314, y: 0, z: -7.7131}
  - {x: 3.4357, y: 0, z: -7.7072}
  - {x: 3.155, y: 0, z: -6.3703}
  - {x: 3.3179, y: 0, z: -3.4215}
  - {x: 3.0496, y: 0, z: -3.4121}
  - {x: 18.1852, y: 0.005, z: 2.9386}
  - {x: 13.831, y: 0.0021, z: -0.8216}
  - {x: 13.8296, y: 0.0021, z: 2.9274}
  - {x: 18.1647, y: 0.0047, z: -0.8025}
  - {x: 3.1675, y: 0.0624, z: -8.7755}
  - {x: 3.1653, y: 0.063, z: -9.7241}
  - {x: 3.0876, y: 0.0749, z: -8.774}
  - {x: 3.0865, y: 0.0749, z: -9.7245}
  - {x: 3.0129, y: 0.0624, z: -8.7731}
  - {x: 3.0118, y: 0.0629, z: -9.7249}
  - {x: 3.0892, y: 0.0544, z: -8.6902}
  - {x: 6.7282, y: 0, z: 6.2976}
  - {x: 5.9886, y: 0, z: 6.2976}
  - {x: 6.0021, y: 0, z: 5.7079}
  - {x: 6.7282, y: 0, z: 5.7079}
  - {x: 6.0317, y: 0, z: 4.8595}
  - {x: 6.7282, y: 0, z: 4.9276}
  - {x: 6.1885, y: 0, z: 3.8381}
  - {x: 6.8804, y: 0, z: 4.1622}
  - {x: 6.6543, y: 0, z: 3.1076}
  - {x: 7.314, y: 0, z: 3.5134}
  - {x: 6.2158, y: 0, z: 2.9203}
  - {x: 8.7004, y: 0, z: -4.1919}
  - {x: 9.4599, y: 0, z: -4.1919}
  - {x: 9.4576, y: 0.0015, z: -5.1909}
  - {x: 9.4599, y: 0, z: -3.6023}
  - {x: 8.7004, y: 0, z: -3.6023}
  - {x: 9.4599, y: 0, z: -2.8219}
  - {x: 8.7625, y: 0, z: -2.7216}
  - {x: 9.6121, y: 0, z: -2.0566}
  - {x: 9.0093, y: 0, z: -1.809}
  - {x: 10.0457, y: 0, z: -1.4077}
  - {x: 9.5114, y: 0, z: -1.067}
  - {x: 9.4205, y: 0.0082, z: -7.1461}
  - {x: -3.1776, y: 0.0082, z: 6.468}
  - {x: -3.1133, y: 0.0082, z: 5.1389}
  - {x: -3.0304, y: 0.0082, z: 3.8913}
  - {x: -2.9526, y: 0.0082, z: 3.3115}
  - {x: -2.7408, y: 0.0082, z: 2.0383}
  - {x: -2.5396, y: 0.0082, z: 0.881}
  - {x: -2.28, y: 0.0082, z: -0.2453}
  - {x: -2.0063, y: 0.0082, z: -1.3515}
  - {x: -1.7292, y: 0.0082, z: -2.4286}
  - {x: -1.4573, y: 0.0082, z: -3.4636}
  - {x: -1.194, y: 0.0082, z: -4.4411}
  - {x: -0.9564, y: 0.0082, z: -5.3372}
  - {x: -0.7296, y: 0.0082, z: -6.2901}
  - {x: -0.52, y: 0.0082, z: -7.5266}
  - {x: 6.9752, y: 0.101, z: 6.2976}
  - {x: 6.9752, y: 0.101, z: 5.7079}
  - {x: 6.974, y: 0.101, z: 4.9518}
  - {x: 7.1087, y: 0.101, z: 4.2567}
  - {x: 7.4369, y: 0.101, z: 3.6938}
  - {x: 7.1912, y: 0.101, z: 6.2976}
  - {x: 7.1912, y: 0.101, z: 5.7079}
  - {x: 7.189, y: 0.101, z: 4.9729}
  - {x: 7.3082, y: 0.101, z: 4.3394}
  - {x: 7.5574, y: 0.101, z: 3.8338}
  - {x: 10.0988, y: 0.101, z: 6.2976}
  - {x: 10.0982, y: 0.101, z: 3.1746}
  - {x: 13.8268, y: 0.0868, z: 3.1733}
  - {x: 10.0982, y: 0, z: 2.9276}
  - {x: 9.5086, y: 0.101, z: 3.1746}
  - {x: 9.5086, y: 0, z: 2.9276}
  - {x: 8.7524, y: 0.101, z: 3.1734}
  - {x: 8.7282, y: 0, z: 2.9276}
  - {x: 8.0574, y: 0.101, z: 3.308}
  - {x: 7.9628, y: 0, z: 3.0798}
  - {x: 10.0982, y: 0.101, z: 3.3906}
  - {x: 13.8268, y: 0.0877, z: 3.4057}
  - {x: 9.5086, y: 0.101, z: 3.3906}
  - {x: 8.7736, y: 0.101, z: 3.3883}
  - {x: 8.14, y: 0.101, z: 3.5076}
  - {x: 13.8271, y: 0.0921, z: 6.3098}
  - {x: -0.9522, y: 0.0832, z: -8.7856}
  - {x: -0.9556, y: 0.0832, z: -9.6866}
  - {x: -3.8537, y: 0.0832, z: -9.6889}
  - {x: -3.8448, y: 0.0832, z: -9.0719}
  - {x: -0.7145, y: 0.0832, z: -8.782}
  - {x: -0.718, y: 0.0832, z: -9.6885}
  - {x: -3.8788, y: 0.0832, z: -8.1485}
  - {x: -1.0125, y: 0.0832, z: -7.6049}
  - {x: -0.7775, y: 0.0832, z: -7.5675}
  - {x: -1.216, y: 0.0832, z: -6.3905}
  - {x: -4.0475, y: 0.0832, z: -6.9742}
  - {x: -0.9838, y: 0.0832, z: -6.3426}
  - {x: -1.4385, y: 0.0832, z: -5.4518}
  - {x: -4.2426, y: 0.0832, z: -6.1179}
  - {x: -1.2086, y: 0.0832, z: -5.3971}
  - {x: -1.6747, y: 0.0832, z: -4.5628}
  - {x: -4.4672, y: 0.0832, z: -5.2703}
  - {x: -1.4454, y: 0.0832, z: -4.5047}
  - {x: -1.9387, y: 0.0832, z: -3.5883}
  - {x: -4.7343, y: 0.0832, z: -4.313}
  - {x: -1.709, y: 0.0832, z: -3.5288}
  - {x: -2.2115, y: 0.0832, z: -2.5536}
  - {x: -5.0157, y: 0.0832, z: -3.2797}
  - {x: -1.9814, y: 0.0832, z: -2.494}
  - {x: -2.4894, y: 0.0832, z: -1.4735}
  - {x: -5.2994, y: 0.0832, z: -2.1826}
  - {x: -2.259, y: 0.0832, z: -1.4153}
  - {x: -2.7645, y: 0.0832, z: -0.3611}
  - {x: -5.5831, y: 0.0832, z: -1.0349}
  - {x: -2.5334, y: 0.0832, z: -0.3059}
  - {x: -3.0263, y: 0.0832, z: 0.7746}
  - {x: -5.8574, y: 0.0832, z: 0.1557}
  - {x: -2.7939, y: 0.0832, z: 0.8253}
  - {x: -3.2306, y: 0.0832, z: 1.9471}
  - {x: -6.1165, y: 0.0832, z: 1.4168}
  - {x: -2.9969, y: 0.0832, z: 1.9906}
  - {x: -3.4446, y: 0.0832, z: 3.2322}
  - {x: -6.3057, y: 0.0832, z: 2.7713}
  - {x: -3.2098, y: 0.0832, z: 3.27}
  - {x: -3.5258, y: 0.0832, z: 3.8382}
  - {x: -6.4071, y: 0.0832, z: 3.529}
  - {x: -3.2894, y: 0.0832, z: 3.8635}
  - {x: -3.61, y: 0.0832, z: 5.1}
  - {x: -6.4991, y: 0.0832, z: 4.8737}
  - {x: -3.373, y: 0.0832, z: 5.1186}
  - {x: -3.6754, y: 0.0832, z: 6.4469}
  - {x: -6.5707, y: 0.0832, z: 6.3243}
  - {x: -3.4378, y: 0.0832, z: 6.457}
  - {x: 9.7069, y: 0.101, z: -4.1919}
  - {x: 9.7023, y: 0.0974, z: -5.1905}
  - {x: 9.9229, y: 0.101, z: -4.1919}
  - {x: 9.9178, y: 0.0962, z: -5.1909}
  - {x: 12.8269, y: 0.0974, z: -5.1892}
  - {x: 12.8299, y: 0.101, z: -4.1909}
  - {x: 9.6876, y: 0.0832, z: -7.1528}
  - {x: 9.9252, y: 0.0832, z: -7.1529}
  - {x: 9.9241, y: 0.0832, z: -9.7214}
  - {x: 9.6865, y: 0.0832, z: -9.7212}
  - {x: 12.8223, y: 0.0832, z: -9.7226}
  - {x: 12.8234, y: 0.0832, z: -7.1542}
  - {x: 9.7069, y: 0.101, z: -3.6023}
  - {x: 9.7057, y: 0.101, z: -2.8462}
  - {x: 9.8404, y: 0.101, z: -2.1511}
  - {x: 10.2034, y: 0.101, z: -1.5526}
  - {x: 9.9229, y: 0.101, z: -3.6023}
  - {x: 9.9207, y: 0.101, z: -2.8673}
  - {x: 10.0399, y: 0.101, z: -2.2338}
  - {x: 10.3643, y: 0.101, z: -1.6843}
  - {x: 12.8299, y: 0, z: -0.8219}
  - {x: 13.8321, y: 0.0921, z: -1.0692}
  - {x: 12.8299, y: 0.101, z: -1.0689}
  - {x: 13.8322, y: 0.0921, z: -1.2834}
  - {x: 12.8299, y: 0.101, z: -1.2849}
  - {x: 13.8305, y: 0.0921, z: -4.1922}
  - {x: 12.2403, y: 0.101, z: -1.0689}
  - {x: 12.2403, y: 0, z: -0.8219}
  - {x: 11.4841, y: 0.101, z: -1.0678}
  - {x: 11.4599, y: 0, z: -0.8219}
  - {x: 12.2403, y: 0.101, z: -1.2849}
  - {x: 11.5053, y: 0.101, z: -1.2827}
  - {x: 10.7891, y: 0.101, z: -1.2024}
  - {x: 10.6945, y: 0, z: -0.9742}
  - {x: 10.8717, y: 0.101, z: -1.4019}
  - {x: 18.1861, y: 0.0938, z: 3.4}
  - {x: 18.1844, y: 0.0938, z: 3.1872}
  - {x: 18.1799, y: 0.0938, z: 6.31}
  - {x: 18.1619, y: 0.0745, z: -1.066}
  - {x: 18.1623, y: 0.0857, z: -1.3163}
  - {x: 18.1642, y: 0.0766, z: -4.1901}
  - {x: 10.0982, y: 0, z: 2.3123}
  - {x: 9.5086, y: 0, z: 2.3123}
  - {x: 8.6792, y: 0, z: 2.3147}
  - {x: 7.6042, y: 0, z: 2.4619}
  - {x: 9.5659, y: 0, z: 1.1688}
  - {x: 8.7203, y: 0, z: 1.159}
  - {x: 7.8126, y: 0, z: 1.1811}
  - {x: 6.8915, y: 0, z: 0.98}
  - {x: 11.4109, y: 0, z: 1.1785}
  - {x: 12.2403, y: 0, z: -0.1383}
  - {x: 11.4109, y: 0, z: -0.162}
  - {x: 12.8299, y: 0, z: -0.1383}
  - {x: 10.4067, y: 0, z: -0.3835}
  - {x: 10.5032, y: 0, z: 1.1785}
  fullMeshVecs:
  - {x: 3.4314, y: 0, z: 8.1856}
  - {x: 2.6863, y: 0, z: 7.7354}
  - {x: 2.6863, y: 0, z: 8.1802}
  - {x: 3.4314, y: 0, z: 7.7407}
  - {x: 2.6863, y: 0, z: 7.7354}
  - {x: -3.1841, y: 0.0065, z: 7.7676}
  - {x: 2.6863, y: 0, z: 8.1802}
  - {x: -3.1841, y: 0.0065, z: 8.1687}
  - {x: -3.4509, y: 0.0789, z: 7.7665}
  - {x: -3.1948, y: 0.0082, z: 10.9129}
  - {x: -3.4542, y: 0.0832, z: 12.1427}
  - {x: -3.7408, y: 0.0844, z: 7.7469}
  - {x: -3.6918, y: 0.0832, z: 12.1425}
  - {x: -6.6264, y: 0.0799, z: 7.7581}
  - {x: -6.59, y: 0.0832, z: 12.1409}
  - {x: -3.1948, y: 0.0082, z: 12.1453}
  - {x: 6.7009, y: 0.0082, z: 10.9336}
  - {x: 3.4314, y: 0, z: 8.1856}
  - {x: 6.7009, y: 0.0082, z: 8.2312}
  - {x: 6.9752, y: 0.0974, z: 7.7141}
  - {x: 6.9609, y: 0.0832, z: 12.1488}
  - {x: 7.1987, y: 0.0832, z: 12.149}
  - {x: 7.1896, y: 0.0974, z: 7.7133}
  - {x: 10.0999, y: 0.0974, z: 7.7164}
  - {x: 10.0967, y: 0.0832, z: 12.1507}
  - {x: 6.6995, y: 0.0082, z: 12.151}
  - {x: 6.7278, y: 0.0012, z: 7.711}
  - {x: 3.4314, y: 0, z: 7.7407}
  - {x: 3.2658, y: 0.0082, z: 11.2003}
  - {x: 3.265, y: 0.0082, z: 12.1511}
  - {x: 3.2118, y: 0.0082, z: 11.093}
  - {x: 3.1328, y: 0.0082, z: 11.0698}
  - {x: 3.0436, y: 0.0082, z: 11.0949}
  - {x: 2.9926, y: 0.0082, z: 11.2058}
  - {x: 2.9919, y: 0.0082, z: 12.1516}
  - {x: 5.8937, y: 0.0025, z: 7.7137}
  - {x: 3.0536, y: 0.0624, z: 11.202}
  - {x: 2.9926, y: 0.0082, z: 11.2058}
  - {x: 3.054, y: 0.063, z: 12.1506}
  - {x: 2.9919, y: 0.0082, z: 12.1516}
  - {x: 3.1335, y: 0.0749, z: 11.2007}
  - {x: 3.1328, y: 0.0749, z: 12.1511}
  - {x: 3.2081, y: 0.0624, z: 11.2}
  - {x: 3.2073, y: 0.0629, z: 12.1517}
  - {x: 3.265, y: 0.0082, z: 12.1511}
  - {x: 3.2658, y: 0.0082, z: 11.2003}
  - {x: 3.0436, y: 0.0082, z: 11.0949}
  - {x: 3.2118, y: 0.0082, z: 11.093}
  - {x: 3.132, y: 0.0544, z: 11.1168}
  - {x: 3.1328, y: 0.0082, z: 11.0698}
  - {x: 5.7839, y: 0, z: -6.4302}
  - {x: 6.1158, y: 0, z: -4.8475}
  - {x: 6.077, y: 0, z: -6.4467}
  - {x: 5.8548, y: 0, z: -4.8423}
  - {x: 6.299, y: 0, z: -3.1721}
  - {x: 5.9667, y: 0, z: -3.0879}
  - {x: 6.5988, y: 0, z: -1.9998}
  - {x: 6.0872, y: 0, z: -0.3202}
  - {x: 6.8906, y: 0, z: -1.2364}
  - {x: 7.3809, y: 0, z: -0.3094}
  - {x: 2.6863, y: 0, z: 7.7354}
  - {x: 3.4314, y: 0, z: 7.7407}
  - {x: 2.7079, y: 0, z: 4.0784}
  - {x: 3.4734, y: 0, z: 4.0669}
  - {x: 2.7079, y: 0, z: 4.0784}
  - {x: 3.3179, y: 0, z: -0.339}
  - {x: 2.713, y: 0, z: -0.1523}
  - {x: 3.4734, y: 0, z: 4.0669}
  - {x: -0.4575, y: 0.0082, z: -9.6906}
  - {x: 2.9553, y: 0.0082, z: -8.7734}
  - {x: 2.9542, y: 0.0082, z: -9.7242}
  - {x: 2.7321, y: 0, z: -8.4687}
  - {x: 3.0096, y: 0.0082, z: -8.6661}
  - {x: 3.0884, y: 0.0082, z: -8.6431}
  - {x: 3.4387, y: 0, z: -8.4697}
  - {x: 3.1789, y: 0.0041, z: -8.668}
  - {x: 3.2285, y: 0.0082, z: -8.7795}
  - {x: 9.4204, y: 0.0082, z: -8.4252}
  - {x: 3.2272, y: 0.0082, z: -9.7252}
  - {x: 9.4204, y: 0.0082, z: -9.7273}
  - {x: 0.2819, y: 0.0082, z: -8.6868}
  - {x: -0.4542, y: 0.0082, z: -8.7779}
  - {x: 0.2991, y: 0, z: 6.705}
  - {x: 0.1048, y: 0, z: 5.1345}
  - {x: 0.0681, y: 0, z: 6.6999}
  - {x: 0.3344, y: 0, z: 5.14}
  - {x: 0.176, y: 0, z: 4.0009}
  - {x: 0.3916, y: 0, z: 4.033}
  - {x: 0.2591, y: 0, z: 2.3765}
  - {x: 0.4677, y: 0, z: 2.4298}
  - {x: 0.3531, y: 0, z: 1.4756}
  - {x: 0.5588, y: 0, z: 1.5069}
  - {x: 0.8065, y: 0, z: 0.713}
  - {x: 0.5438, y: 0, z: 0.4737}
  - {x: 1.024, y: 0, z: -1.0204}
  - {x: 1.2429, y: 0, z: -0.9119}
  - {x: 1.5003, y: 0, z: -2.3391}
  - {x: 1.7411, y: 0, z: -2.2608}
  - {x: 1.9899, y: 0, z: -3.5835}
  - {x: 2.2346, y: 0, z: -3.5075}
  - {x: 2.4137, y: 0, z: -5.014}
  - {x: 2.6543, y: 0, z: -4.9771}
  - {x: 2.67, y: 0, z: -6.3636}
  - {x: 2.954, y: 0, z: -6.3703}
  - {x: 0.8065, y: 0, z: 0.713}
  - {x: 0.5588, y: 0, z: 1.5069}
  - {x: 1.0115, y: 0, z: 0.8857}
  - {x: 1.3807, y: 0, z: 0.1822}
  - {x: 1.5388, y: 0, z: 0.4161}
  - {x: 2.1147, y: 0, z: 0.0915}
  - {x: 2.0466, y: 0, z: -0.201}
  - {x: 2.713, y: 0, z: -0.1523}
  - {x: 2.9988, y: 0, z: -0.6222}
  - {x: 3.3179, y: 0, z: -0.339}
  - {x: 2.954, y: 0, z: -6.3703}
  - {x: 2.7314, y: 0, z: -7.7131}
  - {x: 2.67, y: 0, z: -6.3636}
  - {x: 3.4357, y: 0, z: -7.7072}
  - {x: 3.4387, y: 0, z: -8.4697}
  - {x: 2.7321, y: 0, z: -8.4687}
  - {x: 3.155, y: 0, z: -6.3703}
  - {x: 3.3179, y: 0, z: -3.4215}
  - {x: 2.9988, y: 0, z: -0.6222}
  - {x: 3.3179, y: 0, z: -0.339}
  - {x: 3.0496, y: 0, z: -3.4121}
  - {x: 3.155, y: 0, z: -6.3703}
  - {x: 3.4357, y: 0, z: -7.7072}
  - {x: 1.3807, y: 0, z: 0.1822}
  - {x: 1.2429, y: 0, z: -0.9119}
  - {x: 0.8065, y: 0, z: 0.713}
  - {x: 2.0466, y: 0, z: -0.201}
  - {x: 1.7411, y: 0, z: -2.2608}
  - {x: 2.9988, y: 0, z: -0.6222}
  - {x: 2.2346, y: 0, z: -3.5075}
  - {x: 3.0496, y: 0, z: -3.4121}
  - {x: 2.6543, y: 0, z: -4.9771}
  - {x: 2.954, y: 0, z: -6.3703}
  - {x: 3.155, y: 0, z: -6.3703}
  - {x: 18.1852, y: 0.005, z: 2.9386}
  - {x: 13.831, y: 0.0021, z: -0.8216}
  - {x: 13.8296, y: 0.0021, z: 2.9274}
  - {x: 18.1647, y: 0.0047, z: -0.8025}
  - {x: 3.1675, y: 0.0624, z: -8.7755}
  - {x: 3.2285, y: 0.0082, z: -8.7795}
  - {x: 3.1653, y: 0.063, z: -9.7241}
  - {x: 3.2272, y: 0.0082, z: -9.7252}
  - {x: 3.0876, y: 0.0749, z: -8.774}
  - {x: 3.0865, y: 0.0749, z: -9.7245}
  - {x: 3.0129, y: 0.0624, z: -8.7731}
  - {x: 3.0118, y: 0.0629, z: -9.7249}
  - {x: 2.9542, y: 0.0082, z: -9.7242}
  - {x: 2.9553, y: 0.0082, z: -8.7734}
  - {x: 3.1789, y: 0.0041, z: -8.668}
  - {x: 3.0096, y: 0.0082, z: -8.6661}
  - {x: 3.0892, y: 0.0544, z: -8.6902}
  - {x: 3.0884, y: 0.0082, z: -8.6431}
  - {x: 6.7282, y: 0, z: 6.2976}
  - {x: 5.9886, y: 0, z: 6.2976}
  - {x: 6.7278, y: 0.0012, z: 7.711}
  - {x: 6.0021, y: 0, z: 5.7079}
  - {x: 6.7282, y: 0, z: 5.7079}
  - {x: 6.0317, y: 0, z: 4.8595}
  - {x: 6.7282, y: 0, z: 4.9276}
  - {x: 6.1885, y: 0, z: 3.8381}
  - {x: 6.8804, y: 0, z: 4.1622}
  - {x: 6.6543, y: 0, z: 3.1076}
  - {x: 7.314, y: 0, z: 3.5134}
  - {x: 3.4314, y: 0, z: 7.7407}
  - {x: 3.4734, y: 0, z: 4.0669}
  - {x: 6.2158, y: 0, z: 2.9203}
  - {x: 5.8937, y: 0.0025, z: 7.7137}
  - {x: 8.7004, y: 0, z: -4.1919}
  - {x: 9.4599, y: 0, z: -4.1919}
  - {x: 9.4576, y: 0.0015, z: -5.1909}
  - {x: 9.4599, y: 0, z: -3.6023}
  - {x: 8.7004, y: 0, z: -3.6023}
  - {x: 9.4599, y: 0, z: -2.8219}
  - {x: 8.7625, y: 0, z: -2.7216}
  - {x: 9.6121, y: 0, z: -2.0566}
  - {x: 9.0093, y: 0, z: -1.809}
  - {x: 10.0457, y: 0, z: -1.4077}
  - {x: 9.5114, y: 0, z: -1.067}
  - {x: 7.3809, y: 0, z: -0.3094}
  - {x: 6.8906, y: 0, z: -1.2364}
  - {x: 6.5988, y: 0, z: -1.9998}
  - {x: 6.299, y: 0, z: -3.1721}
  - {x: 6.1158, y: 0, z: -4.8475}
  - {x: 6.077, y: 0, z: -6.4467}
  - {x: 9.4205, y: 0.0082, z: -7.1461}
  - {x: 3.4357, y: 0, z: -7.7072}
  - {x: 3.4387, y: 0, z: -8.4697}
  - {x: 5.7839, y: 0, z: -6.4302}
  - {x: 3.3179, y: 0, z: -3.4215}
  - {x: 5.8548, y: 0, z: -4.8423}
  - {x: 5.9667, y: 0, z: -3.0879}
  - {x: 6.0872, y: 0, z: -0.3202}
  - {x: 3.3179, y: 0, z: -0.339}
  - {x: 6.2158, y: 0, z: 2.9203}
  - {x: 3.4734, y: 0, z: 4.0669}
  - {x: 9.4204, y: 0.0082, z: -8.4252}
  - {x: 2.6863, y: 0, z: 7.7354}
  - {x: 0.0681, y: 0, z: 6.6999}
  - {x: -3.1841, y: 0.0065, z: 7.7676}
  - {x: -3.1776, y: 0.0082, z: 6.468}
  - {x: -3.1133, y: 0.0082, z: 5.1389}
  - {x: 0.1048, y: 0, z: 5.1345}
  - {x: -3.0304, y: 0.0082, z: 3.8913}
  - {x: 0.2991, y: 0, z: 6.705}
  - {x: 0.3344, y: 0, z: 5.14}
  - {x: 2.7079, y: 0, z: 4.0784}
  - {x: 0.3916, y: 0, z: 4.033}
  - {x: 0.4677, y: 0, z: 2.4298}
  - {x: 0.5588, y: 0, z: 1.5069}
  - {x: 1.0115, y: 0, z: 0.8857}
  - {x: 1.5388, y: 0, z: 0.4161}
  - {x: 2.1147, y: 0, z: 0.0915}
  - {x: 2.713, y: 0, z: -0.1523}
  - {x: 0.176, y: 0, z: 4.0009}
  - {x: -2.9526, y: 0.0082, z: 3.3115}
  - {x: -2.7408, y: 0.0082, z: 2.0383}
  - {x: 0.2591, y: 0, z: 2.3765}
  - {x: -2.5396, y: 0.0082, z: 0.881}
  - {x: 0.3531, y: 0, z: 1.4756}
  - {x: -2.28, y: 0.0082, z: -0.2453}
  - {x: 0.5438, y: 0, z: 0.4737}
  - {x: -2.0063, y: 0.0082, z: -1.3515}
  - {x: 1.024, y: 0, z: -1.0204}
  - {x: -1.7292, y: 0.0082, z: -2.4286}
  - {x: -1.4573, y: 0.0082, z: -3.4636}
  - {x: 1.5003, y: 0, z: -2.3391}
  - {x: -1.4573, y: 0.0082, z: -3.4636}
  - {x: -1.194, y: 0.0082, z: -4.4411}
  - {x: 1.9899, y: 0, z: -3.5835}
  - {x: -0.9564, y: 0.0082, z: -5.3372}
  - {x: 2.4137, y: 0, z: -5.014}
  - {x: -0.7296, y: 0.0082, z: -6.2901}
  - {x: 2.67, y: 0, z: -6.3636}
  - {x: -0.52, y: 0.0082, z: -7.5266}
  - {x: 2.7314, y: 0, z: -7.7131}
  - {x: 0.2819, y: 0.0082, z: -8.6868}
  - {x: 2.7321, y: 0, z: -8.4687}
  - {x: -0.4542, y: 0.0082, z: -8.7779}
  - {x: 6.7282, y: 0, z: 6.2976}
  - {x: 6.7278, y: 0.0012, z: 7.711}
  - {x: 6.9752, y: 0.0974, z: 7.7141}
  - {x: 6.9752, y: 0.101, z: 6.2976}
  - {x: 6.7282, y: 0, z: 5.7079}
  - {x: 6.9752, y: 0.101, z: 5.7079}
  - {x: 6.7282, y: 0, z: 4.9276}
  - {x: 6.974, y: 0.101, z: 4.9518}
  - {x: 6.8804, y: 0, z: 4.1622}
  - {x: 7.1087, y: 0.101, z: 4.2567}
  - {x: 7.314, y: 0, z: 3.5134}
  - {x: 7.4369, y: 0.101, z: 3.6938}
  - {x: 7.1896, y: 0.0974, z: 7.7133}
  - {x: 7.1912, y: 0.101, z: 6.2976}
  - {x: 7.1912, y: 0.101, z: 5.7079}
  - {x: 7.189, y: 0.101, z: 4.9729}
  - {x: 7.3082, y: 0.101, z: 4.3394}
  - {x: 7.5574, y: 0.101, z: 3.8338}
  - {x: 10.0999, y: 0.0974, z: 7.7164}
  - {x: 10.0988, y: 0.101, z: 6.2976}
  - {x: 10.0982, y: 0.101, z: 3.1746}
  - {x: 13.8268, y: 0.0868, z: 3.1733}
  - {x: 13.8296, y: 0.0021, z: 2.9274}
  - {x: 10.0982, y: 0, z: 2.9276}
  - {x: 9.5086, y: 0.101, z: 3.1746}
  - {x: 9.5086, y: 0, z: 2.9276}
  - {x: 8.7524, y: 0.101, z: 3.1734}
  - {x: 8.7282, y: 0, z: 2.9276}
  - {x: 8.0574, y: 0.101, z: 3.308}
  - {x: 7.9628, y: 0, z: 3.0798}
  - {x: 7.4369, y: 0.101, z: 3.6938}
  - {x: 7.314, y: 0, z: 3.5134}
  - {x: 10.0982, y: 0.101, z: 3.3906}
  - {x: 13.8268, y: 0.0877, z: 3.4057}
  - {x: 9.5086, y: 0.101, z: 3.3906}
  - {x: 8.7736, y: 0.101, z: 3.3883}
  - {x: 8.14, y: 0.101, z: 3.5076}
  - {x: 7.5574, y: 0.101, z: 3.8338}
  - {x: 10.0988, y: 0.101, z: 6.2976}
  - {x: 13.8271, y: 0.0921, z: 6.3098}
  - {x: -0.9522, y: 0.0832, z: -8.7856}
  - {x: -0.9556, y: 0.0832, z: -9.6866}
  - {x: -3.8537, y: 0.0832, z: -9.6889}
  - {x: -3.8448, y: 0.0832, z: -9.0719}
  - {x: -0.7145, y: 0.0832, z: -8.782}
  - {x: -0.718, y: 0.0832, z: -9.6885}
  - {x: -0.4542, y: 0.0082, z: -8.7779}
  - {x: -0.4575, y: 0.0082, z: -9.6906}
  - {x: -3.8788, y: 0.0832, z: -8.1485}
  - {x: -1.0125, y: 0.0832, z: -7.6049}
  - {x: -0.7775, y: 0.0832, z: -7.5675}
  - {x: -0.52, y: 0.0082, z: -7.5266}
  - {x: -1.216, y: 0.0832, z: -6.3905}
  - {x: -4.0475, y: 0.0832, z: -6.9742}
  - {x: -0.9838, y: 0.0832, z: -6.3426}
  - {x: -0.7296, y: 0.0082, z: -6.2901}
  - {x: -1.4385, y: 0.0832, z: -5.4518}
  - {x: -4.2426, y: 0.0832, z: -6.1179}
  - {x: -1.2086, y: 0.0832, z: -5.3971}
  - {x: -0.9564, y: 0.0082, z: -5.3372}
  - {x: -1.6747, y: 0.0832, z: -4.5628}
  - {x: -4.4672, y: 0.0832, z: -5.2703}
  - {x: -1.4454, y: 0.0832, z: -4.5047}
  - {x: -1.194, y: 0.0082, z: -4.4411}
  - {x: -1.9387, y: 0.0832, z: -3.5883}
  - {x: -4.7343, y: 0.0832, z: -4.313}
  - {x: -1.709, y: 0.0832, z: -3.5288}
  - {x: -1.4573, y: 0.0082, z: -3.4636}
  - {x: -2.2115, y: 0.0832, z: -2.5536}
  - {x: -5.0157, y: 0.0832, z: -3.2797}
  - {x: -1.9814, y: 0.0832, z: -2.494}
  - {x: -1.7292, y: 0.0082, z: -2.4286}
  - {x: -2.4894, y: 0.0832, z: -1.4735}
  - {x: -5.2994, y: 0.0832, z: -2.1826}
  - {x: -2.259, y: 0.0832, z: -1.4153}
  - {x: -2.0063, y: 0.0082, z: -1.3515}
  - {x: -2.7645, y: 0.0832, z: -0.3611}
  - {x: -5.5831, y: 0.0832, z: -1.0349}
  - {x: -2.5334, y: 0.0832, z: -0.3059}
  - {x: -2.28, y: 0.0082, z: -0.2453}
  - {x: -3.0263, y: 0.0832, z: 0.7746}
  - {x: -5.8574, y: 0.0832, z: 0.1557}
  - {x: -2.7939, y: 0.0832, z: 0.8253}
  - {x: -2.5396, y: 0.0082, z: 0.881}
  - {x: -3.2306, y: 0.0832, z: 1.9471}
  - {x: -6.1165, y: 0.0832, z: 1.4168}
  - {x: -2.9969, y: 0.0832, z: 1.9906}
  - {x: -2.7408, y: 0.0082, z: 2.0383}
  - {x: -3.4446, y: 0.0832, z: 3.2322}
  - {x: -6.3057, y: 0.0832, z: 2.7713}
  - {x: -3.2098, y: 0.0832, z: 3.27}
  - {x: -2.9526, y: 0.0082, z: 3.3115}
  - {x: -3.5258, y: 0.0832, z: 3.8382}
  - {x: -6.4071, y: 0.0832, z: 3.529}
  - {x: -3.2894, y: 0.0832, z: 3.8635}
  - {x: -3.0304, y: 0.0082, z: 3.8913}
  - {x: -3.61, y: 0.0832, z: 5.1}
  - {x: -6.4991, y: 0.0832, z: 4.8737}
  - {x: -3.373, y: 0.0832, z: 5.1186}
  - {x: -3.1133, y: 0.0082, z: 5.1389}
  - {x: -3.6754, y: 0.0832, z: 6.4469}
  - {x: -6.5707, y: 0.0832, z: 6.3243}
  - {x: -3.4378, y: 0.0832, z: 6.457}
  - {x: -3.1776, y: 0.0082, z: 6.468}
  - {x: -3.7408, y: 0.0844, z: 7.7469}
  - {x: -6.6264, y: 0.0799, z: 7.7581}
  - {x: -3.4509, y: 0.0789, z: 7.7665}
  - {x: -3.1841, y: 0.0065, z: 7.7676}
  - {x: 9.7069, y: 0.101, z: -4.1919}
  - {x: 9.7023, y: 0.0974, z: -5.1905}
  - {x: 9.4576, y: 0.0015, z: -5.1909}
  - {x: 9.4599, y: 0, z: -4.1919}
  - {x: 9.9229, y: 0.101, z: -4.1919}
  - {x: 9.9178, y: 0.0962, z: -5.1909}
  - {x: 12.8269, y: 0.0974, z: -5.1892}
  - {x: 12.8299, y: 0.101, z: -4.1909}
  - {x: 9.6876, y: 0.0832, z: -7.1528}
  - {x: 9.9252, y: 0.0832, z: -7.1529}
  - {x: 9.9241, y: 0.0832, z: -9.7214}
  - {x: 9.6865, y: 0.0832, z: -9.7212}
  - {x: 9.4205, y: 0.0082, z: -7.1461}
  - {x: 12.8223, y: 0.0832, z: -9.7226}
  - {x: 12.8234, y: 0.0832, z: -7.1542}
  - {x: 9.4204, y: 0.0082, z: -8.4252}
  - {x: 9.4204, y: 0.0082, z: -9.7273}
  - {x: 9.7069, y: 0.101, z: -3.6023}
  - {x: 9.7069, y: 0.101, z: -4.1919}
  - {x: 9.4599, y: 0, z: -4.1919}
  - {x: 9.4599, y: 0, z: -3.6023}
  - {x: 9.7057, y: 0.101, z: -2.8462}
  - {x: 9.4599, y: 0, z: -2.8219}
  - {x: 9.8404, y: 0.101, z: -2.1511}
  - {x: 9.6121, y: 0, z: -2.0566}
  - {x: 10.2034, y: 0.101, z: -1.5526}
  - {x: 9.9229, y: 0.101, z: -3.6023}
  - {x: 9.9229, y: 0.101, z: -4.1919}
  - {x: 9.9207, y: 0.101, z: -2.8673}
  - {x: 10.0399, y: 0.101, z: -2.2338}
  - {x: 10.3643, y: 0.101, z: -1.6843}
  - {x: 10.2034, y: 0.101, z: -1.5526}
  - {x: 10.0457, y: 0, z: -1.4077}
  - {x: 12.8299, y: 0, z: -0.8219}
  - {x: 13.831, y: 0.0021, z: -0.8216}
  - {x: 13.8321, y: 0.0921, z: -1.0692}
  - {x: 12.8299, y: 0.101, z: -1.0689}
  - {x: 13.8322, y: 0.0921, z: -1.2834}
  - {x: 12.8299, y: 0.101, z: -1.2849}
  - {x: 13.8305, y: 0.0921, z: -4.1922}
  - {x: 12.8299, y: 0.101, z: -4.1909}
  - {x: 12.8299, y: 0.101, z: -1.0689}
  - {x: 12.2403, y: 0.101, z: -1.0689}
  - {x: 12.2403, y: 0, z: -0.8219}
  - {x: 12.8299, y: 0.101, z: -1.0689}
  - {x: 12.2403, y: 0.101, z: -1.0689}
  - {x: 11.4841, y: 0.101, z: -1.0678}
  - {x: 11.4599, y: 0, z: -0.8219}
  - {x: 12.8299, y: 0.101, z: -1.2849}
  - {x: 12.2403, y: 0.101, z: -1.2849}
  - {x: 11.5053, y: 0.101, z: -1.2827}
  - {x: 11.4841, y: 0.101, z: -1.0678}
  - {x: 10.7891, y: 0.101, z: -1.2024}
  - {x: 11.4841, y: 0.101, z: -1.0678}
  - {x: 10.6945, y: 0, z: -0.9742}
  - {x: 11.4599, y: 0, z: -0.8219}
  - {x: 10.0457, y: 0, z: -1.4077}
  - {x: 10.8717, y: 0.101, z: -1.4019}
  - {x: 10.2034, y: 0.101, z: -1.5526}
  - {x: 10.0457, y: 0, z: -1.4077}
  - {x: 10.2034, y: 0.101, z: -1.5526}
  - {x: 10.3643, y: 0.101, z: -1.6843}
  - {x: 10.0988, y: 0.101, z: 6.2976}
  - {x: 10.0982, y: 0.101, z: 3.3906}
  - {x: 9.5086, y: 0.101, z: 3.3906}
  - {x: 8.7736, y: 0.101, z: 3.3883}
  - {x: 8.14, y: 0.101, z: 3.5076}
  - {x: 7.5574, y: 0.101, z: 3.8338}
  - {x: 7.3082, y: 0.101, z: 4.3394}
  - {x: 7.189, y: 0.101, z: 4.9729}
  - {x: 7.1912, y: 0.101, z: 5.7079}
  - {x: 7.1912, y: 0.101, z: 6.2976}
  - {x: 12.8299, y: 0.101, z: -4.1909}
  - {x: 12.2403, y: 0.101, z: -1.2849}
  - {x: 12.8299, y: 0.101, z: -1.2849}
  - {x: 11.5053, y: 0.101, z: -1.2827}
  - {x: 10.8717, y: 0.101, z: -1.4019}
  - {x: 10.3643, y: 0.101, z: -1.6843}
  - {x: 10.0399, y: 0.101, z: -2.2338}
  - {x: 9.9207, y: 0.101, z: -2.8673}
  - {x: 9.9229, y: 0.101, z: -3.6023}
  - {x: 9.9229, y: 0.101, z: -4.1919}
  - {x: 13.8268, y: 0.0877, z: 3.4057}
  - {x: 18.1861, y: 0.0938, z: 3.4}
  - {x: 13.8268, y: 0.0868, z: 3.1733}
  - {x: 18.1844, y: 0.0938, z: 3.1872}
  - {x: 18.1799, y: 0.0938, z: 6.31}
  - {x: 13.8271, y: 0.0921, z: 6.3098}
  - {x: 18.1844, y: 0.0938, z: 3.1872}
  - {x: 13.8296, y: 0.0021, z: 2.9274}
  - {x: 18.1852, y: 0.005, z: 2.9386}
  - {x: 13.831, y: 0.0021, z: -0.8216}
  - {x: 18.1647, y: 0.0047, z: -0.8025}
  - {x: 13.8321, y: 0.0921, z: -1.0692}
  - {x: 18.1619, y: 0.0745, z: -1.066}
  - {x: 13.8322, y: 0.0921, z: -1.2834}
  - {x: 18.1623, y: 0.0857, z: -1.3163}
  - {x: 13.8305, y: 0.0921, z: -4.1922}
  - {x: 18.1642, y: 0.0766, z: -4.1901}
  - {x: 10.0982, y: 0, z: 2.3123}
  - {x: 10.0982, y: 0, z: 2.9276}
  - {x: 13.8296, y: 0.0021, z: 2.9274}
  - {x: 9.5086, y: 0, z: 2.9276}
  - {x: 9.5086, y: 0, z: 2.3123}
  - {x: 8.7282, y: 0, z: 2.9276}
  - {x: 8.6792, y: 0, z: 2.3147}
  - {x: 7.9628, y: 0, z: 3.0798}
  - {x: 7.6042, y: 0, z: 2.4619}
  - {x: 7.314, y: 0, z: 3.5134}
  - {x: 9.5659, y: 0, z: 1.1688}
  - {x: 8.7203, y: 0, z: 1.159}
  - {x: 7.6042, y: 0, z: 2.4619}
  - {x: 7.8126, y: 0, z: 1.1811}
  - {x: 6.6543, y: 0, z: 3.1076}
  - {x: 6.8915, y: 0, z: 0.98}
  - {x: 11.4109, y: 0, z: 1.1785}
  - {x: 12.2403, y: 0, z: -0.1383}
  - {x: 11.4109, y: 0, z: -0.162}
  - {x: 12.2403, y: 0, z: -0.8219}
  - {x: 12.8299, y: 0, z: -0.8219}
  - {x: 12.8299, y: 0, z: -0.1383}
  - {x: 13.831, y: 0.0021, z: -0.8216}
  - {x: 11.4599, y: 0, z: -0.8219}
  - {x: 10.4067, y: 0, z: -0.3835}
  - {x: 10.6945, y: 0, z: -0.9742}
  - {x: 9.5114, y: 0, z: -1.067}
  - {x: 10.0457, y: 0, z: -1.4077}
  - {x: 10.5032, y: 0, z: 1.1785}
  - {x: 7.3809, y: 0, z: -0.3094}
  - {x: 6.0872, y: 0, z: -0.3202}
  - {x: 6.2158, y: 0, z: 2.9203}
  - {x: 6.6543, y: 0, z: 3.1076}
  - {x: 7.6042, y: 0, z: 2.4619}
  - {x: 6.6543, y: 0, z: 3.1076}
  tmpMeshVecs:
  - {x: 3.4314, y: 0, z: 8.1856}
  - {x: 2.6863, y: 0, z: 7.7354}
  - {x: 2.6863, y: 0, z: 8.1802}
  - {x: 3.4314, y: 0, z: 7.7407}
  - {x: -3.1841, y: 0.0065, z: 7.7676}
  - {x: -3.1841, y: 0.0065, z: 8.1687}
  - {x: -3.4509, y: 0.0789, z: 7.7665}
  - {x: -3.1948, y: 0.0082, z: 10.9129}
  - {x: -3.4542, y: 0.0832, z: 12.1427}
  - {x: -3.7408, y: 0.0844, z: 7.7469}
  - {x: -3.6918, y: 0.0832, z: 12.1425}
  - {x: -6.6264, y: 0.0799, z: 7.7581}
  - {x: -6.59, y: 0.0832, z: 12.1409}
  - {x: -3.1948, y: 0.0082, z: 12.1453}
  - {x: 6.7009, y: 0.0082, z: 10.9336}
  - {x: 6.7009, y: 0.0082, z: 8.2312}
  - {x: 6.9752, y: 0.0974, z: 7.7141}
  - {x: 6.9609, y: 0.0832, z: 12.1488}
  - {x: 7.1987, y: 0.0832, z: 12.149}
  - {x: 7.1896, y: 0.0974, z: 7.7133}
  - {x: 10.0999, y: 0.0974, z: 7.7164}
  - {x: 10.0967, y: 0.0832, z: 12.1507}
  - {x: 6.6995, y: 0.0082, z: 12.151}
  - {x: 6.7278, y: 0.0012, z: 7.711}
  - {x: 3.2658, y: 0.0082, z: 11.2003}
  - {x: 3.265, y: 0.0082, z: 12.1511}
  - {x: 3.2118, y: 0.0082, z: 11.093}
  - {x: 3.1328, y: 0.0082, z: 11.0698}
  - {x: 3.0436, y: 0.0082, z: 11.0949}
  - {x: 2.9926, y: 0.0082, z: 11.2058}
  - {x: 2.9919, y: 0.0082, z: 12.1516}
  - {x: 5.8937, y: 0.0025, z: 7.7137}
  - {x: 3.0536, y: 0.0624, z: 11.202}
  - {x: 3.054, y: 0.063, z: 12.1506}
  - {x: 3.1335, y: 0.0749, z: 11.2007}
  - {x: 3.1328, y: 0.0749, z: 12.1511}
  - {x: 3.2081, y: 0.0624, z: 11.2}
  - {x: 3.2073, y: 0.0629, z: 12.1517}
  - {x: 3.132, y: 0.0544, z: 11.1168}
  - {x: 5.7839, y: 0, z: -6.4302}
  - {x: 6.1158, y: 0, z: -4.8475}
  - {x: 6.077, y: 0, z: -6.4467}
  - {x: 5.8548, y: 0, z: -4.8423}
  - {x: 6.299, y: 0, z: -3.1721}
  - {x: 5.9667, y: 0, z: -3.0879}
  - {x: 6.5988, y: 0, z: -1.9998}
  - {x: 6.0872, y: 0, z: -0.3202}
  - {x: 6.8906, y: 0, z: -1.2364}
  - {x: 7.3809, y: 0, z: -0.3094}
  - {x: 2.7079, y: 0, z: 4.0784}
  - {x: 3.4734, y: 0, z: 4.0669}
  - {x: 3.3179, y: 0, z: -0.339}
  - {x: 2.713, y: 0, z: -0.1523}
  - {x: -0.4575, y: 0.0082, z: -9.6906}
  - {x: 2.9553, y: 0.0082, z: -8.7734}
  - {x: 2.9542, y: 0.0082, z: -9.7242}
  - {x: 2.7321, y: 0, z: -8.4687}
  - {x: 3.0096, y: 0.0082, z: -8.6661}
  - {x: 3.0884, y: 0.0082, z: -8.6431}
  - {x: 3.4387, y: 0, z: -8.4697}
  - {x: 3.1789, y: 0.0041, z: -8.668}
  - {x: 3.2285, y: 0.0082, z: -8.7795}
  - {x: 9.4204, y: 0.0082, z: -8.4252}
  - {x: 3.2272, y: 0.0082, z: -9.7252}
  - {x: 9.4204, y: 0.0082, z: -9.7273}
  - {x: 0.2819, y: 0.0082, z: -8.6868}
  - {x: -0.4542, y: 0.0082, z: -8.7779}
  - {x: 0.2991, y: 0, z: 6.705}
  - {x: 0.1048, y: 0, z: 5.1345}
  - {x: 0.0681, y: 0, z: 6.6999}
  - {x: 0.3344, y: 0, z: 5.14}
  - {x: 0.176, y: 0, z: 4.0009}
  - {x: 0.3916, y: 0, z: 4.033}
  - {x: 0.2591, y: 0, z: 2.3765}
  - {x: 0.4677, y: 0, z: 2.4298}
  - {x: 0.3531, y: 0, z: 1.4756}
  - {x: 0.5588, y: 0, z: 1.5069}
  - {x: 0.8065, y: 0, z: 0.713}
  - {x: 0.5438, y: 0, z: 0.4737}
  - {x: 1.024, y: 0, z: -1.0204}
  - {x: 1.2429, y: 0, z: -0.9119}
  - {x: 1.5003, y: 0, z: -2.3391}
  - {x: 1.7411, y: 0, z: -2.2608}
  - {x: 1.9899, y: 0, z: -3.5835}
  - {x: 2.2346, y: 0, z: -3.5075}
  - {x: 2.4137, y: 0, z: -5.014}
  - {x: 2.6543, y: 0, z: -4.9771}
  - {x: 2.67, y: 0, z: -6.3636}
  - {x: 2.954, y: 0, z: -6.3703}
  - {x: 1.0115, y: 0, z: 0.8857}
  - {x: 1.3807, y: 0, z: 0.1822}
  - {x: 1.5388, y: 0, z: 0.4161}
  - {x: 2.1147, y: 0, z: 0.0915}
  - {x: 2.0466, y: 0, z: -0.201}
  - {x: 2.9988, y: 0, z: -0.6222}
  - {x: 2.7314, y: 0, z: -7.7131}
  - {x: 3.4357, y: 0, z: -7.7072}
  - {x: 3.155, y: 0, z: -6.3703}
  - {x: 3.3179, y: 0, z: -3.4215}
  - {x: 3.0496, y: 0, z: -3.4121}
  - {x: 18.1852, y: 0.005, z: 2.9386}
  - {x: 13.831, y: 0.0021, z: -0.8216}
  - {x: 13.8296, y: 0.0021, z: 2.9274}
  - {x: 18.1647, y: 0.0047, z: -0.8025}
  - {x: 3.1675, y: 0.0624, z: -8.7755}
  - {x: 3.1653, y: 0.063, z: -9.7241}
  - {x: 3.0876, y: 0.0749, z: -8.774}
  - {x: 3.0865, y: 0.0749, z: -9.7245}
  - {x: 3.0129, y: 0.0624, z: -8.7731}
  - {x: 3.0118, y: 0.0629, z: -9.7249}
  - {x: 3.0892, y: 0.0544, z: -8.6902}
  - {x: 6.7282, y: 0, z: 6.2976}
  - {x: 5.9886, y: 0, z: 6.2976}
  - {x: 6.0021, y: 0, z: 5.7079}
  - {x: 6.7282, y: 0, z: 5.7079}
  - {x: 6.0317, y: 0, z: 4.8595}
  - {x: 6.7282, y: 0, z: 4.9276}
  - {x: 6.1885, y: 0, z: 3.8381}
  - {x: 6.8804, y: 0, z: 4.1622}
  - {x: 6.6543, y: 0, z: 3.1076}
  - {x: 7.314, y: 0, z: 3.5134}
  - {x: 6.2158, y: 0, z: 2.9203}
  - {x: 8.7004, y: 0, z: -4.1919}
  - {x: 9.4599, y: 0, z: -4.1919}
  - {x: 9.4576, y: 0.0015, z: -5.1909}
  - {x: 9.4599, y: 0, z: -3.6023}
  - {x: 8.7004, y: 0, z: -3.6023}
  - {x: 9.4599, y: 0, z: -2.8219}
  - {x: 8.7625, y: 0, z: -2.7216}
  - {x: 9.6121, y: 0, z: -2.0566}
  - {x: 9.0093, y: 0, z: -1.809}
  - {x: 10.0457, y: 0, z: -1.4077}
  - {x: 9.5114, y: 0, z: -1.067}
  - {x: 9.4205, y: 0.0082, z: -7.1461}
  - {x: -3.1776, y: 0.0082, z: 6.468}
  - {x: -3.1133, y: 0.0082, z: 5.1389}
  - {x: -3.0304, y: 0.0082, z: 3.8913}
  - {x: -2.9526, y: 0.0082, z: 3.3115}
  - {x: -2.7408, y: 0.0082, z: 2.0383}
  - {x: -2.5396, y: 0.0082, z: 0.881}
  - {x: -2.28, y: 0.0082, z: -0.2453}
  - {x: -2.0063, y: 0.0082, z: -1.3515}
  - {x: -1.7292, y: 0.0082, z: -2.4286}
  - {x: -1.4573, y: 0.0082, z: -3.4636}
  - {x: -1.194, y: 0.0082, z: -4.4411}
  - {x: -0.9564, y: 0.0082, z: -5.3372}
  - {x: -0.7296, y: 0.0082, z: -6.2901}
  - {x: -0.52, y: 0.0082, z: -7.5266}
  - {x: 6.9752, y: 0.101, z: 6.2976}
  - {x: 6.9752, y: 0.101, z: 5.7079}
  - {x: 6.974, y: 0.101, z: 4.9518}
  - {x: 7.1087, y: 0.101, z: 4.2567}
  - {x: 7.4369, y: 0.101, z: 3.6938}
  - {x: 7.1912, y: 0.101, z: 6.2976}
  - {x: 7.1912, y: 0.101, z: 5.7079}
  - {x: 7.189, y: 0.101, z: 4.9729}
  - {x: 7.3082, y: 0.101, z: 4.3394}
  - {x: 7.5574, y: 0.101, z: 3.8338}
  - {x: 10.0988, y: 0.101, z: 6.2976}
  - {x: 10.0982, y: 0.101, z: 3.1746}
  - {x: 13.8268, y: 0.0868, z: 3.1733}
  - {x: 10.0982, y: 0, z: 2.9276}
  - {x: 9.5086, y: 0.101, z: 3.1746}
  - {x: 9.5086, y: 0, z: 2.9276}
  - {x: 8.7524, y: 0.101, z: 3.1734}
  - {x: 8.7282, y: 0, z: 2.9276}
  - {x: 8.0574, y: 0.101, z: 3.308}
  - {x: 7.9628, y: 0, z: 3.0798}
  - {x: 10.0982, y: 0.101, z: 3.3906}
  - {x: 13.8268, y: 0.0877, z: 3.4057}
  - {x: 9.5086, y: 0.101, z: 3.3906}
  - {x: 8.7736, y: 0.101, z: 3.3883}
  - {x: 8.14, y: 0.101, z: 3.5076}
  - {x: 13.8271, y: 0.0921, z: 6.3098}
  - {x: -0.9522, y: 0.0832, z: -8.7856}
  - {x: -0.9556, y: 0.0832, z: -9.6866}
  - {x: -3.8537, y: 0.0832, z: -9.6889}
  - {x: -3.8448, y: 0.0832, z: -9.0719}
  - {x: -0.7145, y: 0.0832, z: -8.782}
  - {x: -0.718, y: 0.0832, z: -9.6885}
  - {x: -3.8788, y: 0.0832, z: -8.1485}
  - {x: -1.0125, y: 0.0832, z: -7.6049}
  - {x: -0.7775, y: 0.0832, z: -7.5675}
  - {x: -1.216, y: 0.0832, z: -6.3905}
  - {x: -4.0475, y: 0.0832, z: -6.9742}
  - {x: -0.9838, y: 0.0832, z: -6.3426}
  - {x: -1.4385, y: 0.0832, z: -5.4518}
  - {x: -4.2426, y: 0.0832, z: -6.1179}
  - {x: -1.2086, y: 0.0832, z: -5.3971}
  - {x: -1.6747, y: 0.0832, z: -4.5628}
  - {x: -4.4672, y: 0.0832, z: -5.2703}
  - {x: -1.4454, y: 0.0832, z: -4.5047}
  - {x: -1.9387, y: 0.0832, z: -3.5883}
  - {x: -4.7343, y: 0.0832, z: -4.313}
  - {x: -1.709, y: 0.0832, z: -3.5288}
  - {x: -2.2115, y: 0.0832, z: -2.5536}
  - {x: -5.0157, y: 0.0832, z: -3.2797}
  - {x: -1.9814, y: 0.0832, z: -2.494}
  - {x: -2.4894, y: 0.0832, z: -1.4735}
  - {x: -5.2994, y: 0.0832, z: -2.1826}
  - {x: -2.259, y: 0.0832, z: -1.4153}
  - {x: -2.7645, y: 0.0832, z: -0.3611}
  - {x: -5.5831, y: 0.0832, z: -1.0349}
  - {x: -2.5334, y: 0.0832, z: -0.3059}
  - {x: -3.0263, y: 0.0832, z: 0.7746}
  - {x: -5.8574, y: 0.0832, z: 0.1557}
  - {x: -2.7939, y: 0.0832, z: 0.8253}
  - {x: -3.2306, y: 0.0832, z: 1.9471}
  - {x: -6.1165, y: 0.0832, z: 1.4168}
  - {x: -2.9969, y: 0.0832, z: 1.9906}
  - {x: -3.4446, y: 0.0832, z: 3.2322}
  - {x: -6.3057, y: 0.0832, z: 2.7713}
  - {x: -3.2098, y: 0.0832, z: 3.27}
  - {x: -3.5258, y: 0.0832, z: 3.8382}
  - {x: -6.4071, y: 0.0832, z: 3.529}
  - {x: -3.2894, y: 0.0832, z: 3.8635}
  - {x: -3.61, y: 0.0832, z: 5.1}
  - {x: -6.4991, y: 0.0832, z: 4.8737}
  - {x: -3.373, y: 0.0832, z: 5.1186}
  - {x: -3.6754, y: 0.0832, z: 6.4469}
  - {x: -6.5707, y: 0.0832, z: 6.3243}
  - {x: -3.4378, y: 0.0832, z: 6.457}
  - {x: 9.7069, y: 0.101, z: -4.1919}
  - {x: 9.7023, y: 0.0974, z: -5.1905}
  - {x: 9.9229, y: 0.101, z: -4.1919}
  - {x: 9.9178, y: 0.0962, z: -5.1909}
  - {x: 12.8269, y: 0.0974, z: -5.1892}
  - {x: 12.8299, y: 0.101, z: -4.1909}
  - {x: 9.6876, y: 0.0832, z: -7.1528}
  - {x: 9.9252, y: 0.0832, z: -7.1529}
  - {x: 9.9241, y: 0.0832, z: -9.7214}
  - {x: 9.6865, y: 0.0832, z: -9.7212}
  - {x: 12.8223, y: 0.0832, z: -9.7226}
  - {x: 12.8234, y: 0.0832, z: -7.1542}
  - {x: 9.7069, y: 0.101, z: -3.6023}
  - {x: 9.7057, y: 0.101, z: -2.8462}
  - {x: 9.8404, y: 0.101, z: -2.1511}
  - {x: 10.2034, y: 0.101, z: -1.5526}
  - {x: 9.9229, y: 0.101, z: -3.6023}
  - {x: 9.9207, y: 0.101, z: -2.8673}
  - {x: 10.0399, y: 0.101, z: -2.2338}
  - {x: 10.3643, y: 0.101, z: -1.6843}
  - {x: 12.8299, y: 0, z: -0.8219}
  - {x: 13.8321, y: 0.0921, z: -1.0692}
  - {x: 12.8299, y: 0.101, z: -1.0689}
  - {x: 13.8322, y: 0.0921, z: -1.2834}
  - {x: 12.8299, y: 0.101, z: -1.2849}
  - {x: 13.8305, y: 0.0921, z: -4.1922}
  - {x: 12.2403, y: 0.101, z: -1.0689}
  - {x: 12.2403, y: 0, z: -0.8219}
  - {x: 11.4841, y: 0.101, z: -1.0678}
  - {x: 11.4599, y: 0, z: -0.8219}
  - {x: 12.2403, y: 0.101, z: -1.2849}
  - {x: 11.5053, y: 0.101, z: -1.2827}
  - {x: 10.7891, y: 0.101, z: -1.2024}
  - {x: 10.6945, y: 0, z: -0.9742}
  - {x: 10.8717, y: 0.101, z: -1.4019}
  - {x: 18.1861, y: 0.0938, z: 3.4}
  - {x: 18.1844, y: 0.0938, z: 3.1872}
  - {x: 18.1799, y: 0.0938, z: 6.31}
  - {x: 18.1619, y: 0.0745, z: -1.066}
  - {x: 18.1623, y: 0.0857, z: -1.3163}
  - {x: 18.1642, y: 0.0766, z: -4.1901}
  - {x: 10.0982, y: 0, z: 2.3123}
  - {x: 9.5086, y: 0, z: 2.3123}
  - {x: 8.6792, y: 0, z: 2.3147}
  - {x: 7.6042, y: 0, z: 2.4619}
  - {x: 9.5659, y: 0, z: 1.1688}
  - {x: 8.7203, y: 0, z: 1.159}
  - {x: 7.8126, y: 0, z: 1.1811}
  - {x: 6.8915, y: 0, z: 0.98}
  - {x: 11.4109, y: 0, z: 1.1785}
  - {x: 12.2403, y: 0, z: -0.1383}
  - {x: 11.4109, y: 0, z: -0.162}
  - {x: 12.8299, y: 0, z: -0.1383}
  - {x: 10.4067, y: 0, z: -0.3835}
  - {x: 10.5032, y: 0, z: 1.1785}
  tmpFullMeshVecs:
  - {x: 3.4314, y: 0, z: 8.1856}
  - {x: 2.6863, y: 0, z: 7.7354}
  - {x: 2.6863, y: 0, z: 8.1802}
  - {x: 3.4314, y: 0, z: 7.7407}
  - {x: 2.6863, y: 0, z: 7.7354}
  - {x: -3.1841, y: 0.0065, z: 7.7676}
  - {x: 2.6863, y: 0, z: 8.1802}
  - {x: -3.1841, y: 0.0065, z: 8.1687}
  - {x: -3.4509, y: 0.0789, z: 7.7665}
  - {x: -3.1948, y: 0.0082, z: 10.9129}
  - {x: -3.4542, y: 0.0832, z: 12.1427}
  - {x: -3.7408, y: 0.0844, z: 7.7469}
  - {x: -3.6918, y: 0.0832, z: 12.1425}
  - {x: -6.6264, y: 0.0799, z: 7.7581}
  - {x: -6.59, y: 0.0832, z: 12.1409}
  - {x: -3.1948, y: 0.0082, z: 12.1453}
  - {x: 6.7009, y: 0.0082, z: 10.9336}
  - {x: 3.4314, y: 0, z: 8.1856}
  - {x: 6.7009, y: 0.0082, z: 8.2312}
  - {x: 6.9752, y: 0.0974, z: 7.7141}
  - {x: 6.9609, y: 0.0832, z: 12.1488}
  - {x: 7.1987, y: 0.0832, z: 12.149}
  - {x: 7.1896, y: 0.0974, z: 7.7133}
  - {x: 10.0999, y: 0.0974, z: 7.7164}
  - {x: 10.0967, y: 0.0832, z: 12.1507}
  - {x: 6.6995, y: 0.0082, z: 12.151}
  - {x: 6.7278, y: 0.0012, z: 7.711}
  - {x: 3.4314, y: 0, z: 7.7407}
  - {x: 3.2658, y: 0.0082, z: 11.2003}
  - {x: 3.265, y: 0.0082, z: 12.1511}
  - {x: 3.2118, y: 0.0082, z: 11.093}
  - {x: 3.1328, y: 0.0082, z: 11.0698}
  - {x: 3.0436, y: 0.0082, z: 11.0949}
  - {x: 2.9926, y: 0.0082, z: 11.2058}
  - {x: 2.9919, y: 0.0082, z: 12.1516}
  - {x: 5.8937, y: 0.0025, z: 7.7137}
  - {x: 3.0536, y: 0.0624, z: 11.202}
  - {x: 2.9926, y: 0.0082, z: 11.2058}
  - {x: 3.054, y: 0.063, z: 12.1506}
  - {x: 2.9919, y: 0.0082, z: 12.1516}
  - {x: 3.1335, y: 0.0749, z: 11.2007}
  - {x: 3.1328, y: 0.0749, z: 12.1511}
  - {x: 3.2081, y: 0.0624, z: 11.2}
  - {x: 3.2073, y: 0.0629, z: 12.1517}
  - {x: 3.265, y: 0.0082, z: 12.1511}
  - {x: 3.2658, y: 0.0082, z: 11.2003}
  - {x: 3.0436, y: 0.0082, z: 11.0949}
  - {x: 3.2118, y: 0.0082, z: 11.093}
  - {x: 3.132, y: 0.0544, z: 11.1168}
  - {x: 3.1328, y: 0.0082, z: 11.0698}
  - {x: 5.7839, y: 0, z: -6.4302}
  - {x: 6.1158, y: 0, z: -4.8475}
  - {x: 6.077, y: 0, z: -6.4467}
  - {x: 5.8548, y: 0, z: -4.8423}
  - {x: 6.299, y: 0, z: -3.1721}
  - {x: 5.9667, y: 0, z: -3.0879}
  - {x: 6.5988, y: 0, z: -1.9998}
  - {x: 6.0872, y: 0, z: -0.3202}
  - {x: 6.8906, y: 0, z: -1.2364}
  - {x: 7.3809, y: 0, z: -0.3094}
  - {x: 2.6863, y: 0, z: 7.7354}
  - {x: 3.4314, y: 0, z: 7.7407}
  - {x: 2.7079, y: 0, z: 4.0784}
  - {x: 3.4734, y: 0, z: 4.0669}
  - {x: 2.7079, y: 0, z: 4.0784}
  - {x: 3.3179, y: 0, z: -0.339}
  - {x: 2.713, y: 0, z: -0.1523}
  - {x: 3.4734, y: 0, z: 4.0669}
  - {x: -0.4575, y: 0.0082, z: -9.6906}
  - {x: 2.9553, y: 0.0082, z: -8.7734}
  - {x: 2.9542, y: 0.0082, z: -9.7242}
  - {x: 2.7321, y: 0, z: -8.4687}
  - {x: 3.0096, y: 0.0082, z: -8.6661}
  - {x: 3.0884, y: 0.0082, z: -8.6431}
  - {x: 3.4387, y: 0, z: -8.4697}
  - {x: 3.1789, y: 0.0041, z: -8.668}
  - {x: 3.2285, y: 0.0082, z: -8.7795}
  - {x: 9.4204, y: 0.0082, z: -8.4252}
  - {x: 3.2272, y: 0.0082, z: -9.7252}
  - {x: 9.4204, y: 0.0082, z: -9.7273}
  - {x: 0.2819, y: 0.0082, z: -8.6868}
  - {x: -0.4542, y: 0.0082, z: -8.7779}
  - {x: 0.2991, y: 0, z: 6.705}
  - {x: 0.1048, y: 0, z: 5.1345}
  - {x: 0.0681, y: 0, z: 6.6999}
  - {x: 0.3344, y: 0, z: 5.14}
  - {x: 0.176, y: 0, z: 4.0009}
  - {x: 0.3916, y: 0, z: 4.033}
  - {x: 0.2591, y: 0, z: 2.3765}
  - {x: 0.4677, y: 0, z: 2.4298}
  - {x: 0.3531, y: 0, z: 1.4756}
  - {x: 0.5588, y: 0, z: 1.5069}
  - {x: 0.8065, y: 0, z: 0.713}
  - {x: 0.5438, y: 0, z: 0.4737}
  - {x: 1.024, y: 0, z: -1.0204}
  - {x: 1.2429, y: 0, z: -0.9119}
  - {x: 1.5003, y: 0, z: -2.3391}
  - {x: 1.7411, y: 0, z: -2.2608}
  - {x: 1.9899, y: 0, z: -3.5835}
  - {x: 2.2346, y: 0, z: -3.5075}
  - {x: 2.4137, y: 0, z: -5.014}
  - {x: 2.6543, y: 0, z: -4.9771}
  - {x: 2.67, y: 0, z: -6.3636}
  - {x: 2.954, y: 0, z: -6.3703}
  - {x: 0.8065, y: 0, z: 0.713}
  - {x: 0.5588, y: 0, z: 1.5069}
  - {x: 1.0115, y: 0, z: 0.8857}
  - {x: 1.3807, y: 0, z: 0.1822}
  - {x: 1.5388, y: 0, z: 0.4161}
  - {x: 2.1147, y: 0, z: 0.0915}
  - {x: 2.0466, y: 0, z: -0.201}
  - {x: 2.713, y: 0, z: -0.1523}
  - {x: 2.9988, y: 0, z: -0.6222}
  - {x: 3.3179, y: 0, z: -0.339}
  - {x: 2.954, y: 0, z: -6.3703}
  - {x: 2.7314, y: 0, z: -7.7131}
  - {x: 2.67, y: 0, z: -6.3636}
  - {x: 3.4357, y: 0, z: -7.7072}
  - {x: 3.4387, y: 0, z: -8.4697}
  - {x: 2.7321, y: 0, z: -8.4687}
  - {x: 3.155, y: 0, z: -6.3703}
  - {x: 3.3179, y: 0, z: -3.4215}
  - {x: 2.9988, y: 0, z: -0.6222}
  - {x: 3.3179, y: 0, z: -0.339}
  - {x: 3.0496, y: 0, z: -3.4121}
  - {x: 3.155, y: 0, z: -6.3703}
  - {x: 3.4357, y: 0, z: -7.7072}
  - {x: 1.3807, y: 0, z: 0.1822}
  - {x: 1.2429, y: 0, z: -0.9119}
  - {x: 0.8065, y: 0, z: 0.713}
  - {x: 2.0466, y: 0, z: -0.201}
  - {x: 1.7411, y: 0, z: -2.2608}
  - {x: 2.9988, y: 0, z: -0.6222}
  - {x: 2.2346, y: 0, z: -3.5075}
  - {x: 3.0496, y: 0, z: -3.4121}
  - {x: 2.6543, y: 0, z: -4.9771}
  - {x: 2.954, y: 0, z: -6.3703}
  - {x: 3.155, y: 0, z: -6.3703}
  - {x: 18.1852, y: 0.005, z: 2.9386}
  - {x: 13.831, y: 0.0021, z: -0.8216}
  - {x: 13.8296, y: 0.0021, z: 2.9274}
  - {x: 18.1647, y: 0.0047, z: -0.8025}
  - {x: 3.1675, y: 0.0624, z: -8.7755}
  - {x: 3.2285, y: 0.0082, z: -8.7795}
  - {x: 3.1653, y: 0.063, z: -9.7241}
  - {x: 3.2272, y: 0.0082, z: -9.7252}
  - {x: 3.0876, y: 0.0749, z: -8.774}
  - {x: 3.0865, y: 0.0749, z: -9.7245}
  - {x: 3.0129, y: 0.0624, z: -8.7731}
  - {x: 3.0118, y: 0.0629, z: -9.7249}
  - {x: 2.9542, y: 0.0082, z: -9.7242}
  - {x: 2.9553, y: 0.0082, z: -8.7734}
  - {x: 3.1789, y: 0.0041, z: -8.668}
  - {x: 3.0096, y: 0.0082, z: -8.6661}
  - {x: 3.0892, y: 0.0544, z: -8.6902}
  - {x: 3.0884, y: 0.0082, z: -8.6431}
  - {x: 6.7282, y: 0, z: 6.2976}
  - {x: 5.9886, y: 0, z: 6.2976}
  - {x: 6.7278, y: 0.0012, z: 7.711}
  - {x: 6.0021, y: 0, z: 5.7079}
  - {x: 6.7282, y: 0, z: 5.7079}
  - {x: 6.0317, y: 0, z: 4.8595}
  - {x: 6.7282, y: 0, z: 4.9276}
  - {x: 6.1885, y: 0, z: 3.8381}
  - {x: 6.8804, y: 0, z: 4.1622}
  - {x: 6.6543, y: 0, z: 3.1076}
  - {x: 7.314, y: 0, z: 3.5134}
  - {x: 3.4314, y: 0, z: 7.7407}
  - {x: 3.4734, y: 0, z: 4.0669}
  - {x: 6.2158, y: 0, z: 2.9203}
  - {x: 5.8937, y: 0.0025, z: 7.7137}
  - {x: 8.7004, y: 0, z: -4.1919}
  - {x: 9.4599, y: 0, z: -4.1919}
  - {x: 9.4576, y: 0.0015, z: -5.1909}
  - {x: 9.4599, y: 0, z: -3.6023}
  - {x: 8.7004, y: 0, z: -3.6023}
  - {x: 9.4599, y: 0, z: -2.8219}
  - {x: 8.7625, y: 0, z: -2.7216}
  - {x: 9.6121, y: 0, z: -2.0566}
  - {x: 9.0093, y: 0, z: -1.809}
  - {x: 10.0457, y: 0, z: -1.4077}
  - {x: 9.5114, y: 0, z: -1.067}
  - {x: 7.3809, y: 0, z: -0.3094}
  - {x: 6.8906, y: 0, z: -1.2364}
  - {x: 6.5988, y: 0, z: -1.9998}
  - {x: 6.299, y: 0, z: -3.1721}
  - {x: 6.1158, y: 0, z: -4.8475}
  - {x: 6.077, y: 0, z: -6.4467}
  - {x: 9.4205, y: 0.0082, z: -7.1461}
  - {x: 3.4357, y: 0, z: -7.7072}
  - {x: 3.4387, y: 0, z: -8.4697}
  - {x: 5.7839, y: 0, z: -6.4302}
  - {x: 3.3179, y: 0, z: -3.4215}
  - {x: 5.8548, y: 0, z: -4.8423}
  - {x: 5.9667, y: 0, z: -3.0879}
  - {x: 6.0872, y: 0, z: -0.3202}
  - {x: 3.3179, y: 0, z: -0.339}
  - {x: 6.2158, y: 0, z: 2.9203}
  - {x: 3.4734, y: 0, z: 4.0669}
  - {x: 9.4204, y: 0.0082, z: -8.4252}
  - {x: 2.6863, y: 0, z: 7.7354}
  - {x: 0.0681, y: 0, z: 6.6999}
  - {x: -3.1841, y: 0.0065, z: 7.7676}
  - {x: -3.1776, y: 0.0082, z: 6.468}
  - {x: -3.1133, y: 0.0082, z: 5.1389}
  - {x: 0.1048, y: 0, z: 5.1345}
  - {x: -3.0304, y: 0.0082, z: 3.8913}
  - {x: 0.2991, y: 0, z: 6.705}
  - {x: 0.3344, y: 0, z: 5.14}
  - {x: 2.7079, y: 0, z: 4.0784}
  - {x: 0.3916, y: 0, z: 4.033}
  - {x: 0.4677, y: 0, z: 2.4298}
  - {x: 0.5588, y: 0, z: 1.5069}
  - {x: 1.0115, y: 0, z: 0.8857}
  - {x: 1.5388, y: 0, z: 0.4161}
  - {x: 2.1147, y: 0, z: 0.0915}
  - {x: 2.713, y: 0, z: -0.1523}
  - {x: 0.176, y: 0, z: 4.0009}
  - {x: -2.9526, y: 0.0082, z: 3.3115}
  - {x: -2.7408, y: 0.0082, z: 2.0383}
  - {x: 0.2591, y: 0, z: 2.3765}
  - {x: -2.5396, y: 0.0082, z: 0.881}
  - {x: 0.3531, y: 0, z: 1.4756}
  - {x: -2.28, y: 0.0082, z: -0.2453}
  - {x: 0.5438, y: 0, z: 0.4737}
  - {x: -2.0063, y: 0.0082, z: -1.3515}
  - {x: 1.024, y: 0, z: -1.0204}
  - {x: -1.7292, y: 0.0082, z: -2.4286}
  - {x: -1.4573, y: 0.0082, z: -3.4636}
  - {x: 1.5003, y: 0, z: -2.3391}
  - {x: -1.4573, y: 0.0082, z: -3.4636}
  - {x: -1.194, y: 0.0082, z: -4.4411}
  - {x: 1.9899, y: 0, z: -3.5835}
  - {x: -0.9564, y: 0.0082, z: -5.3372}
  - {x: 2.4137, y: 0, z: -5.014}
  - {x: -0.7296, y: 0.0082, z: -6.2901}
  - {x: 2.67, y: 0, z: -6.3636}
  - {x: -0.52, y: 0.0082, z: -7.5266}
  - {x: 2.7314, y: 0, z: -7.7131}
  - {x: 0.2819, y: 0.0082, z: -8.6868}
  - {x: 2.7321, y: 0, z: -8.4687}
  - {x: -0.4542, y: 0.0082, z: -8.7779}
  - {x: 6.7282, y: 0, z: 6.2976}
  - {x: 6.7278, y: 0.0012, z: 7.711}
  - {x: 6.9752, y: 0.0974, z: 7.7141}
  - {x: 6.9752, y: 0.101, z: 6.2976}
  - {x: 6.7282, y: 0, z: 5.7079}
  - {x: 6.9752, y: 0.101, z: 5.7079}
  - {x: 6.7282, y: 0, z: 4.9276}
  - {x: 6.974, y: 0.101, z: 4.9518}
  - {x: 6.8804, y: 0, z: 4.1622}
  - {x: 7.1087, y: 0.101, z: 4.2567}
  - {x: 7.314, y: 0, z: 3.5134}
  - {x: 7.4369, y: 0.101, z: 3.6938}
  - {x: 7.1896, y: 0.0974, z: 7.7133}
  - {x: 7.1912, y: 0.101, z: 6.2976}
  - {x: 7.1912, y: 0.101, z: 5.7079}
  - {x: 7.189, y: 0.101, z: 4.9729}
  - {x: 7.3082, y: 0.101, z: 4.3394}
  - {x: 7.5574, y: 0.101, z: 3.8338}
  - {x: 10.0999, y: 0.0974, z: 7.7164}
  - {x: 10.0988, y: 0.101, z: 6.2976}
  - {x: 10.0982, y: 0.101, z: 3.1746}
  - {x: 13.8268, y: 0.0868, z: 3.1733}
  - {x: 13.8296, y: 0.0021, z: 2.9274}
  - {x: 10.0982, y: 0, z: 2.9276}
  - {x: 9.5086, y: 0.101, z: 3.1746}
  - {x: 9.5086, y: 0, z: 2.9276}
  - {x: 8.7524, y: 0.101, z: 3.1734}
  - {x: 8.7282, y: 0, z: 2.9276}
  - {x: 8.0574, y: 0.101, z: 3.308}
  - {x: 7.9628, y: 0, z: 3.0798}
  - {x: 7.4369, y: 0.101, z: 3.6938}
  - {x: 7.314, y: 0, z: 3.5134}
  - {x: 10.0982, y: 0.101, z: 3.3906}
  - {x: 13.8268, y: 0.0877, z: 3.4057}
  - {x: 9.5086, y: 0.101, z: 3.3906}
  - {x: 8.7736, y: 0.101, z: 3.3883}
  - {x: 8.14, y: 0.101, z: 3.5076}
  - {x: 7.5574, y: 0.101, z: 3.8338}
  - {x: 10.0988, y: 0.101, z: 6.2976}
  - {x: 13.8271, y: 0.0921, z: 6.3098}
  - {x: -0.9522, y: 0.0832, z: -8.7856}
  - {x: -0.9556, y: 0.0832, z: -9.6866}
  - {x: -3.8537, y: 0.0832, z: -9.6889}
  - {x: -3.8448, y: 0.0832, z: -9.0719}
  - {x: -0.7145, y: 0.0832, z: -8.782}
  - {x: -0.718, y: 0.0832, z: -9.6885}
  - {x: -0.4542, y: 0.0082, z: -8.7779}
  - {x: -0.4575, y: 0.0082, z: -9.6906}
  - {x: -3.8788, y: 0.0832, z: -8.1485}
  - {x: -1.0125, y: 0.0832, z: -7.6049}
  - {x: -0.7775, y: 0.0832, z: -7.5675}
  - {x: -0.52, y: 0.0082, z: -7.5266}
  - {x: -1.216, y: 0.0832, z: -6.3905}
  - {x: -4.0475, y: 0.0832, z: -6.9742}
  - {x: -0.9838, y: 0.0832, z: -6.3426}
  - {x: -0.7296, y: 0.0082, z: -6.2901}
  - {x: -1.4385, y: 0.0832, z: -5.4518}
  - {x: -4.2426, y: 0.0832, z: -6.1179}
  - {x: -1.2086, y: 0.0832, z: -5.3971}
  - {x: -0.9564, y: 0.0082, z: -5.3372}
  - {x: -1.6747, y: 0.0832, z: -4.5628}
  - {x: -4.4672, y: 0.0832, z: -5.2703}
  - {x: -1.4454, y: 0.0832, z: -4.5047}
  - {x: -1.194, y: 0.0082, z: -4.4411}
  - {x: -1.9387, y: 0.0832, z: -3.5883}
  - {x: -4.7343, y: 0.0832, z: -4.313}
  - {x: -1.709, y: 0.0832, z: -3.5288}
  - {x: -1.4573, y: 0.0082, z: -3.4636}
  - {x: -2.2115, y: 0.0832, z: -2.5536}
  - {x: -5.0157, y: 0.0832, z: -3.2797}
  - {x: -1.9814, y: 0.0832, z: -2.494}
  - {x: -1.7292, y: 0.0082, z: -2.4286}
  - {x: -2.4894, y: 0.0832, z: -1.4735}
  - {x: -5.2994, y: 0.0832, z: -2.1826}
  - {x: -2.259, y: 0.0832, z: -1.4153}
  - {x: -2.0063, y: 0.0082, z: -1.3515}
  - {x: -2.7645, y: 0.0832, z: -0.3611}
  - {x: -5.5831, y: 0.0832, z: -1.0349}
  - {x: -2.5334, y: 0.0832, z: -0.3059}
  - {x: -2.28, y: 0.0082, z: -0.2453}
  - {x: -3.0263, y: 0.0832, z: 0.7746}
  - {x: -5.8574, y: 0.0832, z: 0.1557}
  - {x: -2.7939, y: 0.0832, z: 0.8253}
  - {x: -2.5396, y: 0.0082, z: 0.881}
  - {x: -3.2306, y: 0.0832, z: 1.9471}
  - {x: -6.1165, y: 0.0832, z: 1.4168}
  - {x: -2.9969, y: 0.0832, z: 1.9906}
  - {x: -2.7408, y: 0.0082, z: 2.0383}
  - {x: -3.4446, y: 0.0832, z: 3.2322}
  - {x: -6.3057, y: 0.0832, z: 2.7713}
  - {x: -3.2098, y: 0.0832, z: 3.27}
  - {x: -2.9526, y: 0.0082, z: 3.3115}
  - {x: -3.5258, y: 0.0832, z: 3.8382}
  - {x: -6.4071, y: 0.0832, z: 3.529}
  - {x: -3.2894, y: 0.0832, z: 3.8635}
  - {x: -3.0304, y: 0.0082, z: 3.8913}
  - {x: -3.61, y: 0.0832, z: 5.1}
  - {x: -6.4991, y: 0.0832, z: 4.8737}
  - {x: -3.373, y: 0.0832, z: 5.1186}
  - {x: -3.1133, y: 0.0082, z: 5.1389}
  - {x: -3.6754, y: 0.0832, z: 6.4469}
  - {x: -6.5707, y: 0.0832, z: 6.3243}
  - {x: -3.4378, y: 0.0832, z: 6.457}
  - {x: -3.1776, y: 0.0082, z: 6.468}
  - {x: -3.7408, y: 0.0844, z: 7.7469}
  - {x: -6.6264, y: 0.0799, z: 7.7581}
  - {x: -3.4509, y: 0.0789, z: 7.7665}
  - {x: -3.1841, y: 0.0065, z: 7.7676}
  - {x: 9.7069, y: 0.101, z: -4.1919}
  - {x: 9.7023, y: 0.0974, z: -5.1905}
  - {x: 9.4576, y: 0.0015, z: -5.1909}
  - {x: 9.4599, y: 0, z: -4.1919}
  - {x: 9.9229, y: 0.101, z: -4.1919}
  - {x: 9.9178, y: 0.0962, z: -5.1909}
  - {x: 12.8269, y: 0.0974, z: -5.1892}
  - {x: 12.8299, y: 0.101, z: -4.1909}
  - {x: 9.6876, y: 0.0832, z: -7.1528}
  - {x: 9.9252, y: 0.0832, z: -7.1529}
  - {x: 9.9241, y: 0.0832, z: -9.7214}
  - {x: 9.6865, y: 0.0832, z: -9.7212}
  - {x: 9.4205, y: 0.0082, z: -7.1461}
  - {x: 12.8223, y: 0.0832, z: -9.7226}
  - {x: 12.8234, y: 0.0832, z: -7.1542}
  - {x: 9.4204, y: 0.0082, z: -8.4252}
  - {x: 9.4204, y: 0.0082, z: -9.7273}
  - {x: 9.7069, y: 0.101, z: -3.6023}
  - {x: 9.7069, y: 0.101, z: -4.1919}
  - {x: 9.4599, y: 0, z: -4.1919}
  - {x: 9.4599, y: 0, z: -3.6023}
  - {x: 9.7057, y: 0.101, z: -2.8462}
  - {x: 9.4599, y: 0, z: -2.8219}
  - {x: 9.8404, y: 0.101, z: -2.1511}
  - {x: 9.6121, y: 0, z: -2.0566}
  - {x: 10.2034, y: 0.101, z: -1.5526}
  - {x: 9.9229, y: 0.101, z: -3.6023}
  - {x: 9.9229, y: 0.101, z: -4.1919}
  - {x: 9.9207, y: 0.101, z: -2.8673}
  - {x: 10.0399, y: 0.101, z: -2.2338}
  - {x: 10.3643, y: 0.101, z: -1.6843}
  - {x: 10.2034, y: 0.101, z: -1.5526}
  - {x: 10.0457, y: 0, z: -1.4077}
  - {x: 12.8299, y: 0, z: -0.8219}
  - {x: 13.831, y: 0.0021, z: -0.8216}
  - {x: 13.8321, y: 0.0921, z: -1.0692}
  - {x: 12.8299, y: 0.101, z: -1.0689}
  - {x: 13.8322, y: 0.0921, z: -1.2834}
  - {x: 12.8299, y: 0.101, z: -1.2849}
  - {x: 13.8305, y: 0.0921, z: -4.1922}
  - {x: 12.8299, y: 0.101, z: -4.1909}
  - {x: 12.8299, y: 0.101, z: -1.0689}
  - {x: 12.2403, y: 0.101, z: -1.0689}
  - {x: 12.2403, y: 0, z: -0.8219}
  - {x: 12.8299, y: 0.101, z: -1.0689}
  - {x: 12.2403, y: 0.101, z: -1.0689}
  - {x: 11.4841, y: 0.101, z: -1.0678}
  - {x: 11.4599, y: 0, z: -0.8219}
  - {x: 12.8299, y: 0.101, z: -1.2849}
  - {x: 12.2403, y: 0.101, z: -1.2849}
  - {x: 11.5053, y: 0.101, z: -1.2827}
  - {x: 11.4841, y: 0.101, z: -1.0678}
  - {x: 10.7891, y: 0.101, z: -1.2024}
  - {x: 11.4841, y: 0.101, z: -1.0678}
  - {x: 10.6945, y: 0, z: -0.9742}
  - {x: 11.4599, y: 0, z: -0.8219}
  - {x: 10.0457, y: 0, z: -1.4077}
  - {x: 10.8717, y: 0.101, z: -1.4019}
  - {x: 10.2034, y: 0.101, z: -1.5526}
  - {x: 10.0457, y: 0, z: -1.4077}
  - {x: 10.2034, y: 0.101, z: -1.5526}
  - {x: 10.3643, y: 0.101, z: -1.6843}
  - {x: 10.0988, y: 0.101, z: 6.2976}
  - {x: 10.0982, y: 0.101, z: 3.3906}
  - {x: 9.5086, y: 0.101, z: 3.3906}
  - {x: 8.7736, y: 0.101, z: 3.3883}
  - {x: 8.14, y: 0.101, z: 3.5076}
  - {x: 7.5574, y: 0.101, z: 3.8338}
  - {x: 7.3082, y: 0.101, z: 4.3394}
  - {x: 7.189, y: 0.101, z: 4.9729}
  - {x: 7.1912, y: 0.101, z: 5.7079}
  - {x: 7.1912, y: 0.101, z: 6.2976}
  - {x: 12.8299, y: 0.101, z: -4.1909}
  - {x: 12.2403, y: 0.101, z: -1.2849}
  - {x: 12.8299, y: 0.101, z: -1.2849}
  - {x: 11.5053, y: 0.101, z: -1.2827}
  - {x: 10.8717, y: 0.101, z: -1.4019}
  - {x: 10.3643, y: 0.101, z: -1.6843}
  - {x: 10.0399, y: 0.101, z: -2.2338}
  - {x: 9.9207, y: 0.101, z: -2.8673}
  - {x: 9.9229, y: 0.101, z: -3.6023}
  - {x: 9.9229, y: 0.101, z: -4.1919}
  - {x: 13.8268, y: 0.0877, z: 3.4057}
  - {x: 18.1861, y: 0.0938, z: 3.4}
  - {x: 13.8268, y: 0.0868, z: 3.1733}
  - {x: 18.1844, y: 0.0938, z: 3.1872}
  - {x: 18.1799, y: 0.0938, z: 6.31}
  - {x: 13.8271, y: 0.0921, z: 6.3098}
  - {x: 18.1844, y: 0.0938, z: 3.1872}
  - {x: 13.8296, y: 0.0021, z: 2.9274}
  - {x: 18.1852, y: 0.005, z: 2.9386}
  - {x: 13.831, y: 0.0021, z: -0.8216}
  - {x: 18.1647, y: 0.0047, z: -0.8025}
  - {x: 13.8321, y: 0.0921, z: -1.0692}
  - {x: 18.1619, y: 0.0745, z: -1.066}
  - {x: 13.8322, y: 0.0921, z: -1.2834}
  - {x: 18.1623, y: 0.0857, z: -1.3163}
  - {x: 13.8305, y: 0.0921, z: -4.1922}
  - {x: 18.1642, y: 0.0766, z: -4.1901}
  - {x: 10.0982, y: 0, z: 2.3123}
  - {x: 10.0982, y: 0, z: 2.9276}
  - {x: 13.8296, y: 0.0021, z: 2.9274}
  - {x: 9.5086, y: 0, z: 2.9276}
  - {x: 9.5086, y: 0, z: 2.3123}
  - {x: 8.7282, y: 0, z: 2.9276}
  - {x: 8.6792, y: 0, z: 2.3147}
  - {x: 7.9628, y: 0, z: 3.0798}
  - {x: 7.6042, y: 0, z: 2.4619}
  - {x: 7.314, y: 0, z: 3.5134}
  - {x: 9.5659, y: 0, z: 1.1688}
  - {x: 8.7203, y: 0, z: 1.159}
  - {x: 7.6042, y: 0, z: 2.4619}
  - {x: 7.8126, y: 0, z: 1.1811}
  - {x: 6.6543, y: 0, z: 3.1076}
  - {x: 6.8915, y: 0, z: 0.98}
  - {x: 11.4109, y: 0, z: 1.1785}
  - {x: 12.2403, y: 0, z: -0.1383}
  - {x: 11.4109, y: 0, z: -0.162}
  - {x: 12.2403, y: 0, z: -0.8219}
  - {x: 12.8299, y: 0, z: -0.8219}
  - {x: 12.8299, y: 0, z: -0.1383}
  - {x: 13.831, y: 0.0021, z: -0.8216}
  - {x: 11.4599, y: 0, z: -0.8219}
  - {x: 10.4067, y: 0, z: -0.3835}
  - {x: 10.6945, y: 0, z: -0.9742}
  - {x: 9.5114, y: 0, z: -1.067}
  - {x: 10.0457, y: 0, z: -1.4077}
  - {x: 10.5032, y: 0, z: 1.1785}
  - {x: 7.3809, y: 0, z: -0.3094}
  - {x: 6.0872, y: 0, z: -0.3202}
  - {x: 6.2158, y: 0, z: 2.9203}
  - {x: 6.6543, y: 0, z: 3.1076}
  - {x: 7.6042, y: 0, z: 2.4619}
  - {x: 6.6543, y: 0, z: 3.1076}
  tCrossingTmpFullMeshVecs: []
  outerVecInts: 
  surfaceVecs:
  - {x: -6.6264, y: 0, z: 7.7581}
  - {x: -6.59, y: 0, z: 12.1409}
  - {x: 10.0967, y: 0, z: 12.1507}
  - {x: 10.0999, y: 0, z: 7.7164}
  - {x: 10.0988, y: 0, z: 6.2976}
  - {x: 13.8271, y: 0, z: 6.3098}
  - {x: 18.1799, y: 0, z: 6.31}
  - {x: 18.1642, y: 0, z: -4.1901}
  - {x: 13.8305, y: 0, z: -4.1922}
  - {x: 12.8299, y: 0, z: -4.1909}
  - {x: 12.8269, y: 0, z: -5.1892}
  - {x: 12.8234, y: 0, z: -7.1542}
  - {x: 12.8223, y: 0, z: -9.7226}
  - {x: -3.8537, y: 0, z: -9.6889}
  - {x: -3.8448, y: 0, z: -9.0719}
  - {x: -3.8788, y: 0, z: -8.1485}
  - {x: -4.0475, y: 0, z: -6.9742}
  - {x: -4.2426, y: 0, z: -6.1179}
  - {x: -4.4672, y: 0, z: -5.2703}
  - {x: -4.7343, y: 0, z: -4.313}
  - {x: -5.0157, y: 0, z: -3.2797}
  - {x: -5.2994, y: 0, z: -2.1826}
  - {x: -5.5831, y: 0, z: -1.0349}
  - {x: -5.8574, y: 0, z: 0.1557}
  - {x: -6.1165, y: 0, z: 1.4168}
  - {x: -6.3057, y: 0, z: 2.7713}
  - {x: -6.4071, y: 0, z: 3.529}
  - {x: -6.4991, y: 0, z: 4.8737}
  - {x: -6.5707, y: 0, z: 6.3243}
  surfaceVecType: 0000000002000000010000000000000000000000000000000200000001000000000000000000000000000000000000000200000001000000000000000000000000000000000000000000000000000000000000000000000000000000000000000000000000000000000000000000000000000000
  surfaceConnectionInt: 0100000001000000010000000100000001000000010000000200000002000000020000000200000002000000020000000000000000000000000000000000000000000000000000000000000000000000000000000000000000000000000000000000000000000000000000000000000000000000
  tCrossingBlendData: []
  indentVecs: []
  sourcePrefab: {fileID: 0}
  prefabId: 6
  prioritySegments: 
  minNodeDistance: 3
  nodeWithinRange: -1
  sourceObject: {fileID: 100010, guid: 38b508cc00d02b5498daba04af929ebf, type: 2}
  meshInstance: 0
  selectedConnection: -1
  QDOOOQOOQQQQD: []
  deformTerrain: 1
  isRoundabout: 0
  roundaboutScript: {fileID: 0}
  crossingsScript: {fileID: 0}
  isCustomPrefab: 1
  customPrefabVersion: 0
  recalculateNormals: 0
  planarUVs: 0
  planarTiling: 1
  lastVecRoadIndex: 0
  isSceneObject: 1
  surfaceObject: {fileID: 0}
  surfaceMeshVecs: []
  tmpSurfaceMeshVecs: []
  tmpSurfaceVecsTCrossings: []
  surfaceInts: 
  leftBottomCorner: {x: 0, y: 0, z: 0}
  leftTopCorner: {x: 0, y: 0, z: 0}
  rightBottomCorner: {x: 0, y: 0, z: 0}
  rightTopCorner: {x: 0, y: 0, z: 0}
  tCrossing: 0
  tStraightBending: 1
  tCrossingLeftRight: 1
  tMainRoadWidth: 0
  tConnectionRoadWidth: 0
  bottomLeftSidewalkWidth: 0
  bottomLeftSidewalkOuterOffset: 0
  bottomLeftSidewalkCurbDepth: 0
  bottomRightSidewalkWidth: 0
  bottomRightSidewalkOuterOffset: 0
  bottomRightSidewalkCurbDepth: 0
  topLeftSidewalkWidth: 0
  topLeftSidewalkOuterOffset: 0
  topLeftSidewalkCurbDepth: 0
  topRightSidewalkWidth: 0
  topRightSidewalkOuterOffset: 0
  topRightSidewalkCurbDepth: 0
  testVec: {x: 0, y: 0, z: 0}
  surfaceSurroundingInts: 
  rotationPriorityElement: -1
  cornerPos: {x: 0, y: 0, z: 0}
  mainCorner: {x: 0, y: 0, z: 0}
  connectedCorner: {x: 0, y: 0, z: 0}
  mainVecOuter: {x: 0, y: 0, z: 0}
  connectionVecOuter: {x: 0, y: 0, z: 0}
  indentTopVec: {x: 0, y: 0, z: 0}
  indentRightVec: {x: 0, y: 0, z: 0}
  mainIndent: {x: 0, y: 0, z: 0}
  connectionIndent: {x: 0, y: 0, z: 0}
  selectedRotationConnection: 0
  bottomVec: {x: 0, y: 0, z: 0}
  rightVec: {x: 0, y: 0, z: 0}
  bottomIndent: {x: 0, y: 0, z: 0}
  rightIndent: {x: 0, y: 0, z: 0}
  sAngle: 90
  baseScript: {fileID: 0}
  QDQDQOOQQDQOQQ: 0
  tp1: {x: 0, y: 0, z: 0}
  tp2: {x: 0, y: 0, z: 0}
  doTerrainDeformation: 1
  includeOuterVertices: 1
  surroundingDistance: 0
  surfaceMesh: {fileID: 0}
  debugVecs1: []
  debugVecs2: []
  lightmapAdjusted: 0
--- !u!1001 &100100000
Prefab:
  m_ObjectHideFlags: 1
  serializedVersion: 2
  m_Modification:
    m_TransformParent: {fileID: 0}
    m_Modifications:
    - target: {fileID: 0}
      propertyPath: prefabId
      value: 6
      objectReference: {fileID: 0}
    m_RemovedComponents: []
  m_ParentPrefab: {fileID: 0}
  m_RootGameObject: {fileID: 119766}
  m_IsPrefabParent: 1
