%YAML 1.1
%TAG !u! tag:unity3d.com,2011:
--- !u!1 &100000
GameObject:
  m_ObjectHideFlags: 0
  m_PrefabParentObject: {fileID: 0}
  m_PrefabInternal: {fileID: 100100000}
  serializedVersion: 4
  m_Component:
  - 4: {fileID: 400000}
  - 114: {fileID: 11400000}
  m_Layer: 0
  m_Name: ERProRoad
  m_TagString: Untagged
  m_Icon: {fileID: 0}
  m_NavMeshLayer: 0
  m_StaticEditorFlags: 0
  m_IsActive: 1
--- !u!4 &400000
Transform:
  m_ObjectHideFlags: 1
  m_PrefabParentObject: {fileID: 0}
  m_PrefabInternal: {fileID: 100100000}
  m_GameObject: {fileID: 100000}
  m_LocalRotation: {x: 0, y: 0, z: 0, w: 1}
  m_LocalPosition: {x: 0, y: 0, z: 0}
  m_LocalScale: {x: 1, y: 1, z: 1}
  m_Children: []
  m_Father: {fileID: 0}
  m_RootOrder: 0
--- !u!114 &11400000
MonoBehaviour:
  m_ObjectHideFlags: 1
  m_PrefabParentObject: {fileID: 0}
  m_PrefabInternal: {fileID: 100100000}
  m_GameObject: {fileID: 100000}
  m_Enabled: 1
  m_EditorHideFlags: 0
  m_Script: {fileID: -216737829, guid: f56d46228aee4734f9114056c53bb57e, type: 3}
  m_Name: 
  m_EditorClassIdentifier: 
  baseScript: {fileID: 0}
  roadName: 
  markers: []
  tmpMarkers: []
  roadWidth: 5
  faceDistance: 2
  closedTrack: 0
  minNodeDistance: 5
  nodeWithinRange: -1
  vertsStats: 0
  trisStats: 0
  indent: 2
  surrounding: 5
  followTerrainContours: 0
  terrainContoursOffset: 5
  roadShape: []
  roadShapeString: 
  roadShapeReversedString: 
  geoReversed: -1
  nodeDistance: []
  roadShapeUVs: []
  roadShapeMaterialInts: 
  subMeshCount: 1
  roadShapeMaterialIntCounts: 
  controlPoints: []
  splinePoints: []
  distances: []
  markerInts: 
  insertSplinePoints: []
  soSplinePoints: []
  soSplinePointsLeft: []
  soSplinePointsRight: []
  meshVecs: []
  meshUVs: []
  surfaceMeshVecs: []
  treeVecs: []
  detailVecs: []
  vegetationTris: 
  totalDistance: 0
  nodeSplinePoint: 
  totalDistanceString: 
  startPrefabScript: {fileID: 0}
  endPrefabScript: {fileID: 0}
  startConnectionSegment: 0
  endConnectionSegment: 0
  roadMaterial: {fileID: 0}
  roadMaterials: []
  startDir: {x: 0, y: 0, z: 0}
  endDir: {x: 0, y: 0, z: 0}
  startAngle: 0
  endAngle: 0
  startbendLeftRight: 0
  endbendLeftRight: 0
  pivotp: {x: 0, y: 0, z: 0}
  p1: {x: 0, y: 0, z: 0}
  p2: {x: 0, y: 0, z: 0}
  p3: {x: 0, y: 0, z: 0}
  p4: {x: 0, y: 0, z: 0}
  segPoints: []
  testPoints: []
  testPoints2: []
  ODCDDOCOQO: {x: 0, y: 0, z: 0}
  OODOOCCCDD: {x: 0, y: 0, z: 0}
  endLeft: {x: 0, y: 0, z: 0}
  endRight: {x: 0, y: 0, z: 0}
  testmesh: {fileID: 0}
  surfaceMesh: {fileID: 0}
  sv1: {x: 0, y: 0, z: 0}
  sv2: {x: 0, y: 0, z: 0}
  criticicalVecs: []
  prefabIndentLeft: {x: 0, y: 0, z: 0}
  prefabIndentRight: {x: 0, y: 0, z: 0}
  roadIndent1: {x: 0, y: 0, z: 0}
  tmpPerpCP: {x: 0, y: 0, z: 0}
  tmpCP: {x: 0, y: 0, z: 0}
  splinePos: 0
  camHeight: 5
  flyOverPoints: []
  splinePosV3: {x: 0, y: 0, z: 0}
  markerDistances: []
  osmRoadType: 
  soData: []
  sideObjectNames: []
  selectedSO: 0
  rebuildSos: 0
  sosCleared: 0
  isSideObject: 0
  leftToCenterPerc: 0
  layer: 0
  doSurroundingSurfaces: 0
  snapToTerrain: 0
  isUpdated: 0
--- !u!1001 &100100000
Prefab:
  m_ObjectHideFlags: 1
  serializedVersion: 2
  m_Modification:
    m_TransformParent: {fileID: 0}
    m_Modifications: []
    m_RemovedComponents: []
  m_ParentPrefab: {fileID: 0}
  m_RootGameObject: {fileID: 100000}
  m_IsPrefabParent: 1
