%YAML 1.1
%TAG !u! tag:unity3d.com,2011:
--- !u!74 &7400000
AnimationClip:
  m_ObjectHideFlags: 0
  m_PrefabParentObject: {fileID: 0}
  m_PrefabInternal: {fileID: 0}
  m_Name: Demo2_Cam1
  serializedVersion: 6
  m_Legacy: 1
  m_Compressed: 0
  m_UseHighQualityCurve: 1
  m_RotationCurves:
  - curve:
      serializedVersion: 2
      m_Curve:
      - time: 0
        value: {x: 0.22707261, y: 0.7643722, z: -0.35643265, w: 0.48695877}
        inSlope: {x: -0.0010603666, y: 0.0014483928, z: -0.0006759166, w: -0.002274513}
        outSlope: {x: -0.0010603666, y: 0.0014483928, z: -0.0006759166, w: -0.002274513}
        tangentMode: -559038737
      - time: 0.8333332
        value: {x: 0.22639965, y: 0.7652897, z: -0.3568605, w: 0.48551556}
        inSlope: {x: -0.00059634505, y: 0.000811816, z: -0.00037819182, w: -0.0012785208}
        outSlope: {x: -0.00059634505, y: 0.000811816, z: -0.00037819182, w: -0.0012785208}
        tangentMode: -559038737
      - time: 1.6666658
        value: {x: 0.22600421, y: 0.76582706, z: -0.35711104, w: 0.48466757}
        inSlope: {x: -0.0004005436, y: 0.0005435949, z: -0.00025391602, w: -0.00085920177}
        outSlope: {x: -0.0004005436, y: 0.0005435949, z: -0.00025391602, w: -0.00085920177}
        tangentMode: -559038737
      - time: 2.4999983
        value: {x: 0.2256549, y: 0.7663007, z: -0.35733187, w: 0.48391846}
        inSlope: {x: -0.00048369216, y: 0.0006562478, z: -0.00030577212, w: -0.0010380158}
        outSlope: {x: -0.00048369216, y: 0.0006562478, z: -0.00030577212, w: -0.0010380158}
        tangentMode: -559038737
      - time: 3.3333309
        value: {x: 0.22511959, y: 0.7670244, z: -0.35766938, w: 0.48277047}
        inSlope: {x: -0.00084623776, y: 0.0011444102, z: -0.0005337601, w: -0.0018149632}
        outSlope: {x: -0.00084623776, y: 0.0011444102, z: -0.0005337601, w: -0.0018149632}
        tangentMode: -559038737
      - time: 4.1499987
        value: {x: 0.22418988, y: 0.7682757, z: -0.35825285, w: 0.4807767}
        inSlope: {x: -0.0014756423, y: 0.0019812318, z: -0.00092356163, w: -0.0031649643}
        outSlope: {x: -0.0014756423, y: 0.0019812318, z: -0.00092356163, w: -0.0031649643}
        tangentMode: -559038737
      - time: 4.966676
        value: {x: 0.22263618, y: 0.7703507, z: -0.35922045, w: 0.4774448}
        inSlope: {x: -0.0023764055, y: 0.003157812, z: -0.0014734071, w: -0.005096129}
        outSlope: {x: -0.0023764055, y: 0.003157812, z: -0.0014734071, w: -0.005096129}
        tangentMode: -559038737
      - time: 5.783354
        value: {x: 0.2202671, y: 0.77347636, z: -0.36067796, w: 0.4723643}
        inSlope: {x: -0.0033111428, y: 0.00433618, z: -0.0020223586, w: -0.0071015004}
        outSlope: {x: -0.0033111428, y: 0.00433618, z: -0.0020223586, w: -0.0071015004}
        tangentMode: -559038737
      - time: 6.6000314
        value: {x: 0.21734421, y: 0.77726966, z: -0.3624468, w: 0.46609613}
        inSlope: {x: -0.003839084, y: 0.0049387747, z: -0.0023030927, w: -0.008232484}
        outSlope: {x: -0.003839084, y: 0.0049387747, z: -0.0023030927, w: -0.008232484}
        tangentMode: -559038737
      - time: 7.416709
        value: {x: 0.21400842, y: 0.7815149, z: -0.3644264, w: 0.4589425}
        inSlope: {x: -0.004320087, y: 0.0054412354, z: -0.0025373357, w: -0.009264226}
        outSlope: {x: -0.004320087, y: 0.0054412354, z: -0.0025373357, w: -0.009264226}
        tangentMode: -559038737
      - time: 8.233379
        value: {x: 0.21030007, y: 0.7861309, z: -0.36657888, w: 0.45098993}
        inSlope: {x: -0.004752947, y: 0.005845517, z: -0.0027260599, w: -0.01019255}
        outSlope: {x: -0.004752947, y: 0.005845517, z: -0.0027260599, w: -0.01019255}
        tangentMode: -559038737
      - time: 9.0667
        value: {x: 0.20617452, y: 0.7911407, z: -0.368915, w: 0.4421427}
        inSlope: {x: -0.005140085, y: 0.0061620222, z: -0.0028726896, w: -0.011024048}
        outSlope: {x: -0.005140085, y: 0.0061620222, z: -0.0028726896, w: -0.011024048}
        tangentMode: -559038737
      - time: 9.900021
        value: {x: 0.20174813, y: 0.79637146, z: -0.37135413, w: 0.43265027}
        inSlope: {x: -0.005474472, y: 0.0063783904, z: -0.0029737211, w: -0.011739314}
        outSlope: {x: -0.005474472, y: 0.0063783904, z: -0.0029737211, w: -0.011739314}
        tangentMode: -559038737
      - time: 10.733341
        value: {x: 0.19706644, y: 0.8017445, z: -0.3738596, w: 0.4226103}
        inSlope: {x: -0.005752085, y: 0.006501774, z: -0.0030318366, w: -0.012334773}
        outSlope: {x: -0.005752085, y: 0.006501774, z: -0.0030318366, w: -0.012334773}
        tangentMode: -559038737
      - time: 11.566662
        value: {x: 0.19217637, y: 0.80718523, z: -0.37639666, w: 0.41212356}
        inSlope: {x: -0.005974265, y: 0.0065411134, z: -0.0030497182, w: -0.012812214}
        outSlope: {x: -0.005974265, y: 0.0065411134, z: -0.0030497182, w: -0.012812214}
        tangentMode: -559038737
      - time: 12.399982
        value: {x: 0.18712634, y: 0.8126236, z: -0.37893265, w: 0.4012937}
        inSlope: {x: -0.0061360938, y: 0.0064981976, z: -0.0030300485, w: -0.013159119}
        outSlope: {x: -0.0061360938, y: 0.0064981976, z: -0.0030300485, w: -0.013159119}
        tangentMode: -559038737
      - time: 13.233303
        value: {x: 0.18196593, y: 0.81799537, z: -0.38143754, w: 0.39022717}
        inSlope: {x: -0.006238466, y: 0.0063819666, z: -0.0029755093, w: -0.013378168}
        outSlope: {x: -0.006238466, y: 0.0063819666, z: -0.0029755093, w: -0.013378168}
        tangentMode: -559038737
      - time: 14.066624
        value: {x: 0.17674644, y: 0.8232418, z: -0.38388395, w: 0.37903392}
        inSlope: {x: -0.0062787, y: 0.0061995736, z: -0.0028905713, w: -0.013464001}
        outSlope: {x: -0.0062787, y: 0.0061995736, z: -0.0028905713, w: -0.013464001}
        tangentMode: -559038737
      - time: 14.899944
        value: {x: 0.17152034, y: 0.82830995, z: -0.3862473, w: 0.36782655}
        inSlope: {x: -0.00625456, y: 0.005956383, z: -0.0027770228, w: -0.013413038}
        outSlope: {x: -0.00625456, y: 0.005956383, z: -0.0027770228, w: -0.013413038}
        tangentMode: -559038737
      - time: 15.733265
        value: {x: 0.16634148, y: 0.83315325, z: -0.38850576, w: 0.35672045}
        inSlope: {x: -0.0061647044, y: 0.0056595476, z: -0.002640228, w: -0.01322081}
        outSlope: {x: -0.0061647044, y: 0.0056595476, z: -0.002640228, w: -0.01322081}
        tangentMode: -559038737
      - time: 16.566586
        value: {x: 0.16126479, y: 0.8377308, z: -0.39064032, w: 0.34583345}
        inSlope: {x: -0.006009134, y: 0.0053197956, z: -0.0024801872, w: -0.012886423}
        outSlope: {x: -0.006009134, y: 0.0053197956, z: -0.0024801872, w: -0.012886423}
        tangentMode: -559038737
      - time: 17.399906
        value: {x: 0.15634623, y: 0.84200794, z: -0.39263478, w: 0.33528554}
        inSlope: {x: -0.0057851663, y: 0.0049424926, z: -0.0023040527, w: -0.0124063}
        outSlope: {x: -0.0057851663, y: 0.0049424926, z: -0.0023040527, w: -0.0124063}
        tangentMode: -559038737
      - time: 18.233227
        value: {x: 0.15164247, y: 0.845955, z: -0.3944753, w: 0.32519832}
        inSlope: {x: -0.0054910127, y: 0.0045258496, z: -0.0021109306, w: -0.011774183}
        outSlope: {x: -0.0054910127, y: 0.0045258496, z: -0.0021109306, w: -0.011774183}
        tangentMode: -559038737
      - time: 19.066547
        value: {x: 0.14721109, y: 0.8495471, z: -0.39615035, w: 0.31569517}
        inSlope: {x: -0.005132932, y: 0.004089537, z: -0.0019079738, w: -0.011007059}
        outSlope: {x: -0.005132932, y: 0.004089537, z: -0.0019079738, w: -0.011007059}
        tangentMode: -559038737
      - time: 19.899868
        value: {x: 0.14314602, y: 0.8527359, z: -0.39763728, w: 0.30697763}
        inSlope: {x: -0.004465052, y: 0.0034457971, z: -0.0016075617, w: -0.009575632}
        outSlope: {x: -0.004465052, y: 0.0034457971, z: -0.0016075617, w: -0.009575632}
        tangentMode: -559038737
      - time: 20.733189
        value: {x: 0.13984546, y: 0.85525084, z: -0.39881003, w: 0.29989955}
        inSlope: {x: -0.003488713, y: 0.0026232405, z: -0.0012231059, w: -0.0074816896}
        outSlope: {x: -0.003488713, y: 0.0026232405, z: -0.0012231059, w: -0.0074816896}
        tangentMode: -559038737
      - time: 21.56651
        value: {x: 0.13727498, y: 0.8571639, z: -0.3997021, w: 0.29438713}
        inSlope: {x: -0.002713543, y: 0.0019973821, z: -0.0009316348, w: -0.005818694}
        outSlope: {x: -0.002713543, y: 0.0019973821, z: -0.0009316348, w: -0.005818694}
        tangentMode: -559038737
      - time: 22.39983
        value: {x: 0.13526733, y: 0.8586305, z: -0.400386, w: 0.2900817}
        inSlope: {x: -0.0021404354, y: 0.0015503406, z: -0.0007233134, w: -0.0045911176}
        outSlope: {x: -0.0021404354, y: 0.0015503406, z: -0.0007233134, w: -0.0045911176}
        tangentMode: -559038737
      - time: 23.23315
        value: {x: 0.13365288, y: 0.8597924, z: -0.4009278, w: 0.2866195}
        inSlope: {x: -0.0017698379, y: 0.0012642338, z: -0.00059009495, w: -0.0037944894}
        outSlope: {x: -0.0017698379, y: 0.0012642338, z: -0.00059009495, w: -0.0037944894}
        tangentMode: -559038737
      - time: 24.066471
        value: {x: 0.1322604, y: 0.86078215, z: -0.40138933, w: 0.28363332}
        inSlope: {x: -0.0016062206, y: 0.0011372741, z: -0.0005292973, w: -0.003444009}
        outSlope: {x: -0.0016062206, y: 0.0011372741, z: -0.0005292973, w: -0.003444009}
        tangentMode: -559038737
      - time: 24.899792
        value: {x: 0.13091777, y: 0.8617255, z: -0.40182924, w: 0.28075406}
        inSlope: {x: -0.0016509248, y: 0.0011533675, z: -0.0005373441, w: -0.003541464}
        outSlope: {x: -0.0016509248, y: 0.0011533675, z: -0.0005373441, w: -0.003541464}
        tangentMode: -559038737
      - time: 25.733112
        value: {x: 0.12945202, y: 0.8627433, z: -0.40230384, w: 0.27761075}
        inSlope: {x: -0.0019017153, y: 0.0013125143, z: -0.00061244704, w: -0.0040797023}
        outSlope: {x: -0.0019017153, y: 0.0013125143, z: -0.00061244704, w: -0.0040797023}
        tangentMode: -559038737
      - time: 26.566433
        value: {x: 0.12768923, y: 0.8639506, z: -0.4028668, w: 0.2738304}
        inSlope: {x: -0.0023644033, y: 0.0016075617, z: -0.00075013586, w: -0.0050703464}
        outSlope: {x: -0.0023644033, y: 0.0016075617, z: -0.00075013586, w: -0.0050703464}
        tangentMode: -559038737
      - time: 27.399754
        value: {x: 0.12545452, y: 0.865455, z: -0.4035683, w: 0.26903808}
        inSlope: {x: -0.0030354126, y: 0.0020224163, z: -0.00094325794, w: -0.006508927}
        outSlope: {x: -0.0030354126, y: 0.0020224163, z: -0.00094325794, w: -0.006508927}
        tangentMode: -559038737
      - time: 28.233074
        value: {x: 0.1225714, y: 0.8673528, z: -0.40445328, w: 0.2628552}
        inSlope: {x: -0.0039198846, y: 0.002546349, z: -0.0011882368, w: -0.008406172}
        outSlope: {x: -0.0039198846, y: 0.002546349, z: -0.0011882368, w: -0.008406172}
        tangentMode: -559038737
      - time: 29.066395
        value: {x: 0.11886121, y: 0.86972433, z: -0.40555915, w: 0.25489867}
        inSlope: {x: -0.0050198305, y: 0.003156114, z: -0.0014716611, w: -0.010764763}
        outSlope: {x: -0.0050198305, y: 0.003156114, z: -0.0014716611, w: -0.010764763}
        tangentMode: -559038737
      - time: 29.899715
        value: {x: 0.11414243, y: 0.8726264, z: -0.4069124, w: 0.24477921}
        inSlope: {x: -0.006340392, y: 0.0038141594, z: -0.0017792259, w: -0.013597218}
        outSlope: {x: -0.006340392, y: 0.0038141594, z: -0.0017792259, w: -0.013597218}
        tangentMode: -559038737
      - time: 30.733036
        value: {x: 0.10822996, y: 0.87608415, z: -0.40852475, w: 0.23209988}
        inSlope: {x: -0.007888051, y: 0.0044811456, z: -0.0020894727, w: -0.016916055}
        outSlope: {x: -0.007888051, y: 0.0044811456, z: -0.0020894727, w: -0.016916055}
        tangentMode: -559038737
      - time: 31.566357
        value: {x: 0.10093432, y: 0.8800803, z: -0.4103882, w: 0.21645433}
        inSlope: {x: -0.009663252, y: 0.005096275, z: -0.0023764735, w: -0.020722616}
        outSlope: {x: -0.009663252, y: 0.005096275, z: -0.0023764735, w: -0.020722616}
        tangentMode: -559038737
      - time: 32.399677
        value: {x: 0.09206192, y: 0.88454294, z: -0.41246918, w: 0.19742742}
        inSlope: {x: -0.011672705, y: 0.0055862325, z: -0.0026053588, w: -0.025032545}
        outSlope: {x: -0.011672705, y: 0.0055862325, z: -0.0026053588, w: -0.025032545}
        tangentMode: -559038737
      - time: 33.232998
        value: {x: 0.08169014, y: 0.88921535, z: -0.41464794, w: 0.17518505}
        inSlope: {x: -0.0131711885, y: 0.0055647744, z: -0.0025955238, w: -0.028245881}
        outSlope: {x: -0.0131711885, y: 0.0055647744, z: -0.0025955238, w: -0.028245881}
        tangentMode: -559038737
      - time: 34.06632
        value: {x: 0.07013788, y: 0.89373946, z: -0.41675758, w: 0.15041116}
        inSlope: {x: -0.014539136, y: 0.005248269, z: -0.002447106, w: -0.031179368}
        outSlope: {x: -0.014539136, y: 0.005248269, z: -0.002447106, w: -0.031179368}
        tangentMode: -559038737
      - time: 34.89964
        value: {x: 0.057484142, y: 0.8978847, z: -0.41869053, w: 0.12327513}
        inSlope: {x: -0.015813876, y: 0.0046563856, z: -0.0021708342, w: -0.033913027}
        outSlope: {x: -0.015813876, y: 0.0046563856, z: -0.0021708342, w: -0.033913027}
        tangentMode: -559038737
      - time: 35.73296
        value: {x: 0.04381255, y: 0.9014244, z: -0.4203411, w: 0.093956314}
        inSlope: {x: -0.016982554, y: 0.0037944894, z: -0.001770285, w: -0.036419142}
        outSlope: {x: -0.016982554, y: 0.0037944894, z: -0.001770285, w: -0.036419142}
        tangentMode: -559038737
      - time: 36.56628
        value: {x: 0.029213153, y: 0.90413994, z: -0.4216074, w: 0.062647805}
        inSlope: {x: -0.018037908, y: 0.0026804619, z: -0.0012499285, w: -0.0386824}
        outSlope: {x: -0.018037908, y: 0.0026804619, z: -0.0012499285, w: -0.0386824}
        tangentMode: -559038737
      - time: 37.3996
        value: {x: 0.013782419, y: 0.9058257, z: -0.42239347, w: 0.02955649}
        inSlope: {x: -0.018974878, y: 0.0013268196, z: -0.00061870564, w: -0.040691745}
        outSlope: {x: -0.018974878, y: 0.0013268196, z: -0.00061870564, w: -0.040691745}
        tangentMode: -559038737
      - time: 38.23292
        value: {x: -0.0023765324, y: 0.90629345, z: -0.4226116, w: -0.00509649}
        inSlope: {x: -0.019784227, y: -0.00023782617, z: 0.00011086633, w: -0.0424274}
        outSlope: {x: -0.019784227, y: -0.00023782617, z: 0.00011086633, w: -0.0424274}
        tangentMode: -559038737
      - time: 39.066242
        value: {x: -0.019154137, y: 0.90537643, z: -0.422184, w: -0.041076176}
        inSlope: {x: -0.020460315, y: -0.0019902294, z: 0.0009280585, w: -0.04387725}
        outSlope: {x: -0.020460315, y: -0.0019902294, z: 0.0009280585, w: -0.04387725}
        tangentMode: -559038737
      - time: 39.899563
        value: {x: -0.03643556, y: 0.9029333, z: -0.42104474, w: -0.07813631}
        inSlope: {x: -0.020992406, y: -0.0038946269, z: 0.0018158832, w: -0.04501821}
        outSlope: {x: -0.020992406, y: -0.0038946269, z: 0.0018158832, w: -0.04501821}
        tangentMode: -559038737
      - time: 40.732883
        value: {x: -0.054101117, y: 0.898851, z: -0.4191411, w: -0.11602022}
        inSlope: {x: -0.021380214, y: -0.0059170434, z: 0.002759141, w: -0.045849934}
        outSlope: {x: -0.021380214, y: -0.0059170434, z: 0.002759141, w: -0.045849934}
        tangentMode: -559038737
      - time: 41.566204
        value: {x: -0.072027914, y: 0.89304787, z: -0.4164351, w: -0.15446435}
        inSlope: {x: -0.021620275, y: -0.008021716, z: 0.0037399505, w: -0.046364926}
        outSlope: {x: -0.021620275, y: -0.008021716, z: 0.0037399505, w: -0.046364926}
        tangentMode: -559038737
      - time: 42.399525
        value: {x: -0.090091065, y: 0.8854757, z: -0.4129041, w: -0.1932009}
        inSlope: {x: -0.021705884, y: -0.010156786, z: 0.0047359597, w: -0.046548214}
        outSlope: {x: -0.021705884, y: -0.010156786, z: 0.0047359597, w: -0.046548214}
        tangentMode: -559038737
      - time: 43.232845
        value: {x: -0.10816551, y: 0.87612075, z: -0.40854183, w: -0.23196167}
        inSlope: {x: -0.021647321, y: -0.012291858, z: 0.005731968, w: -0.04642304}
        outSlope: {x: -0.021647321, y: -0.012291858, z: 0.005731968, w: -0.04642304}
        tangentMode: -559038737
      - time: 44.066166
        value: {x: -0.12612738, y: 0.8650051, z: -0.40335852, w: -0.27048102}
        inSlope: {x: -0.021439224, y: -0.01437686, z: 0.006703837, w: -0.045976445}
        outSlope: {x: -0.021439224, y: -0.01437686, z: 0.006703837, w: -0.045976445}
        tangentMode: -559038737
      - time: 44.899487
        value: {x: -0.14385605, y: 0.8521862, z: -0.39738098, w: -0.3085003}
        inSlope: {x: -0.021088297, y: -0.016370665, z: 0.0076336833, w: -0.04522452}
        outSlope: {x: -0.021088297, y: -0.016370665, z: 0.0076336833, w: -0.04522452}
        tangentMode: -559038737
      - time: 45.732807
        value: {x: -0.16123594, y: 0.8377564, z: -0.39065224, w: -0.34577158}
        inSlope: {x: -0.020603256, y: -0.018233936, z: 0.008502732, w: -0.044182915}
        outSlope: {x: -0.020603256, y: -0.018233936, z: 0.008502732, w: -0.044182915}
        tangentMode: -559038737
      - time: 46.566128
        value: {x: -0.17815782, y: 0.8218415, z: -0.38323098, w: -0.38206065}
        inSlope: {x: -0.01999081, y: -0.019930905, z: 0.009293102, w: -0.042870402}
        outSlope: {x: -0.01999081, y: -0.019930905, z: 0.009293102, w: -0.042870402}
        tangentMode: -559038737
      - time: 47.39945
        value: {x: -0.19452074, y: 0.8045985, z: -0.37519047, w: -0.41715106}
        inSlope: {x: -0.01926079, y: -0.021415085, z: 0.009986017, w: -0.041303966}
        outSlope: {x: -0.01926079, y: -0.021415085, z: 0.009986017, w: -0.041303966}
        tangentMode: -559038737
      - time: 48.23277
        value: {x: -0.21023266, y: 0.7862138, z: -0.36661756, w: -0.4508454}
        inSlope: {x: -0.018429292, y: -0.022661436, z: 0.010568065, w: -0.039521165}
        outSlope: {x: -0.018429292, y: -0.022661436, z: 0.010568065, w: -0.039521165}
        tangentMode: -559038737
      - time: 49.06609
        value: {x: -0.22521226, y: 0.7668993, z: -0.35761103, w: -0.48296922}
        inSlope: {x: -0.017508386, y: -0.023644928, z: 0.011025836, w: -0.03754703}
        outSlope: {x: -0.017508386, y: -0.023644928, z: 0.011025836, w: -0.03754703}
        tangentMode: -559038737
      - time: 49.89941
        value: {x: -0.23938917, y: 0.74688905, z: -0.3482801, w: -0.5133717}
        inSlope: {x: -0.0165088, y: -0.024335159, z: 0.011346811, w: -0.035402123}
        outSlope: {x: -0.0165088, y: -0.024335159, z: 0.011346811, w: -0.035402123}
        tangentMode: -559038737
      - time: 50.083332
        value: {x: -0.24240388, y: 0.7424038, z: -0.3461886, w: -0.5198368}
        inSlope: {x: -0.016288994, y: -0.024442557, z: 0.0113958195, w: -0.034931753}
        outSlope: {x: -0.016288994, y: -0.024442557, z: 0.0113958195, w: -0.034931753}
        tangentMode: -559038737
      m_PreInfinity: 2
      m_PostInfinity: 2
      m_RotationOrder: 4
    path: 
  m_CompressedRotationCurves: []
  m_EulerCurves: []
  m_PositionCurves:
  - curve:
      serializedVersion: 2
      m_Curve:
      - time: 0
        value: {x: 265.05725, y: 31.462317, z: 312.64618}
        inSlope: {x: -0.66633743, y: 0, z: -0.20814653}
        outSlope: {x: -0.66633743, y: 0, z: -0.20814653}
        tangentMode: -559038737
      - time: 5.5
        value: {x: 261.3924, y: 31.462317, z: 311.50137}
        inSlope: {x: -1.8749145, y: 0, z: -0.6294215}
        outSlope: {x: -1.8749145, y: 0, z: -0.6294215}
        tangentMode: -559038737
      - time: 19.6
        value: {x: 217.91516, y: 31.462317, z: 296.68655}
        inSlope: {x: -1.0011127, y: 0, z: -1.4123137}
        outSlope: {x: -1.0011127, y: 0, z: -1.4123137}
        tangentMode: -559038737
      - time: 32.45
        value: {x: 231.80943, y: 31.462317, z: 273.89154}
        inSlope: {x: -1.2001717, y: 0.27825853, z: -0.73958284}
        outSlope: {x: -1.2001717, y: 0.27825853, z: -0.73958284}
        tangentMode: -559038737
      - time: 50.083332
        value: {x: 170.41705, y: 41.275566, z: 279.08923}
        inSlope: {x: -3.4816098, y: 0.55651706, z: 0.29476523}
        outSlope: {x: -3.4816098, y: 0.55651706, z: 0.29476523}
        tangentMode: -559038737
      m_PreInfinity: 2
      m_PostInfinity: 2
      m_RotationOrder: 4
    path: 
  m_ScaleCurves:
  - curve:
      serializedVersion: 2
      m_Curve:
      - time: 0
        value: {x: 1, y: 1, z: 1}
        inSlope: {x: 0, y: 0, z: 0}
        outSlope: {x: 0, y: 0, z: 0}
        tangentMode: -559038737
      - time: 5.5
        value: {x: 1, y: 1, z: 1}
        inSlope: {x: 0, y: 0, z: 0}
        outSlope: {x: 0, y: 0, z: 0}
        tangentMode: -559038737
      - time: 19.6
        value: {x: 1, y: 1, z: 1}
        inSlope: {x: 0, y: 0, z: 0}
        outSlope: {x: 0, y: 0, z: 0}
        tangentMode: -559038737
      - time: 32.45
        value: {x: 1, y: 1, z: 1}
        inSlope: {x: 0, y: 0, z: 0}
        outSlope: {x: 0, y: 0, z: 0}
        tangentMode: -559038737
      - time: 50.083332
        value: {x: 1, y: 1, z: 1}
        inSlope: {x: 0, y: 0, z: 0}
        outSlope: {x: 0, y: 0, z: 0}
        tangentMode: -559038737
      m_PreInfinity: 2
      m_PostInfinity: 2
      m_RotationOrder: 4
    path: 
  m_FloatCurves: []
  m_PPtrCurves: []
  m_SampleRate: 60
  m_WrapMode: 0
  m_Bounds:
    m_Center: {x: 0, y: 0, z: 0}
    m_Extent: {x: 0, y: 0, z: 0}
  m_ClipBindingConstant:
    genericBindings: []
    pptrCurveMapping: []
  m_AnimationClipSettings:
    serializedVersion: 2
    m_AdditiveReferencePoseClip: {fileID: 0}
    m_AdditiveReferencePoseTime: 0
    m_StartTime: 0
    m_StopTime: 1
    m_OrientationOffsetY: 0
    m_Level: 0
    m_CycleOffset: 0
    m_HasAdditiveReferencePose: 0
    m_LoopTime: 0
    m_LoopBlend: 0
    m_LoopBlendOrientation: 0
    m_LoopBlendPositionY: 0
    m_LoopBlendPositionXZ: 0
    m_KeepOriginalOrientation: 0
    m_KeepOriginalPositionY: 1
    m_KeepOriginalPositionXZ: 0
    m_HeightFromFeet: 0
    m_Mirror: 0
  m_EditorCurves:
  - curve:
      serializedVersion: 2
      m_Curve:
      - time: 0
        value: 265.05725
        inSlope: -0.66633743
        outSlope: -0.66633743
        tangentMode: 10
      - time: 5.5
        value: 261.3924
        inSlope: -1.8749145
        outSlope: -1.8749145
        tangentMode: 10
      - time: 19.6
        value: 217.91516
        inSlope: -1.0011127
        outSlope: -1.0011127
        tangentMode: 10
      - time: 32.45
        value: 231.80943
        inSlope: -1.2001717
        outSlope: -1.2001717
        tangentMode: 10
      - time: 50.083332
        value: 170.41705
        inSlope: -3.4816098
        outSlope: -3.4816098
        tangentMode: 10
      m_PreInfinity: 2
      m_PostInfinity: 2
      m_RotationOrder: 4
    attribute: m_LocalPosition.x
    path: 
    classID: 4
    script: {fileID: 0}
  - curve:
      serializedVersion: 2
      m_Curve:
      - time: 0
        value: 31.462317
        inSlope: 0
        outSlope: 0
        tangentMode: 10
      - time: 5.5
        value: 31.462317
        inSlope: 0
        outSlope: 0
        tangentMode: 10
      - time: 19.6
        value: 31.462317
        inSlope: 0
        outSlope: 0
        tangentMode: 10
      - time: 32.45
        value: 31.462317
        inSlope: 0.27825853
        outSlope: 0.27825853
        tangentMode: 10
      - time: 50.083332
        value: 41.275566
        inSlope: 0.55651706
        outSlope: 0.55651706
        tangentMode: 10
      m_PreInfinity: 2
      m_PostInfinity: 2
      m_RotationOrder: 4
    attribute: m_LocalPosition.y
    path: 
    classID: 4
    script: {fileID: 0}
  - curve:
      serializedVersion: 2
      m_Curve:
      - time: 0
        value: 312.64618
        inSlope: -0.20814653
        outSlope: -0.20814653
        tangentMode: 10
      - time: 5.5
        value: 311.50137
        inSlope: -0.6294215
        outSlope: -0.6294215
        tangentMode: 10
      - time: 19.6
        value: 296.68655
        inSlope: -1.4123137
        outSlope: -1.4123137
        tangentMode: 10
      - time: 32.45
        value: 273.89154
        inSlope: -0.73958284
        outSlope: -0.73958284
        tangentMode: 10
      - time: 50.083332
        value: 279.08923
        inSlope: 0.29476523
        outSlope: 0.29476523
        tangentMode: 10
      m_PreInfinity: 2
      m_PostInfinity: 2
      m_RotationOrder: 4
    attribute: m_LocalPosition.z
    path: 
    classID: 4
    script: {fileID: 0}
  - curve:
      serializedVersion: 2
      m_Curve:
      - time: 0
        value: 1
        inSlope: 0
        outSlope: 0
        tangentMode: 10
      - time: 5.5
        value: 1
        inSlope: 0
        outSlope: 0
        tangentMode: 10
      - time: 19.6
        value: 1
        inSlope: 0
        outSlope: 0
        tangentMode: 10
      - time: 32.45
        value: 1
        inSlope: 0
        outSlope: 0
        tangentMode: 10
      - time: 50.083332
        value: 1
        inSlope: 0
        outSlope: 0
        tangentMode: 10
      m_PreInfinity: 2
      m_PostInfinity: 2
      m_RotationOrder: 4
    attribute: m_LocalScale.z
    path: 
    classID: 4
    script: {fileID: 0}
  - curve:
      serializedVersion: 2
      m_Curve:
      - time: 0
        value: 1
        inSlope: 0
        outSlope: 0
        tangentMode: 10
      - time: 5.5
        value: 1
        inSlope: 0
        outSlope: 0
        tangentMode: 10
      - time: 19.6
        value: 1
        inSlope: 0
        outSlope: 0
        tangentMode: 10
      - time: 32.45
        value: 1
        inSlope: 0
        outSlope: 0
        tangentMode: 10
      - time: 50.083332
        value: 1
        inSlope: 0
        outSlope: 0
        tangentMode: 10
      m_PreInfinity: 2
      m_PostInfinity: 2
      m_RotationOrder: 4
    attribute: m_LocalScale.y
    path: 
    classID: 4
    script: {fileID: 0}
  - curve:
      serializedVersion: 2
      m_Curve:
      - time: 0
        value: 1
        inSlope: 0
        outSlope: 0
        tangentMode: 10
      - time: 5.5
        value: 1
        inSlope: 0
        outSlope: 0
        tangentMode: 10
      - time: 19.6
        value: 1
        inSlope: 0
        outSlope: 0
        tangentMode: 10
      - time: 32.45
        value: 1
        inSlope: 0
        outSlope: 0
        tangentMode: 10
      - time: 50.083332
        value: 1
        inSlope: 0
        outSlope: 0
        tangentMode: 10
      m_PreInfinity: 2
      m_PostInfinity: 2
      m_RotationOrder: 4
    attribute: m_LocalScale.x
    path: 
    classID: 4
    script: {fileID: 0}
  - curve:
      serializedVersion: 2
      m_Curve:
      - time: 0
        value: 0.22707261
        inSlope: -0.0010603666
        outSlope: -0.0010603666
        tangentMode: 0
      - time: 0.8333332
        value: 0.22639965
        inSlope: -0.00059634505
        outSlope: -0.00059634505
        tangentMode: 0
      - time: 1.6666658
        value: 0.22600421
        inSlope: -0.0004005436
        outSlope: -0.0004005436
        tangentMode: 0
      - time: 2.4999983
        value: 0.2256549
        inSlope: -0.00048369216
        outSlope: -0.00048369216
        tangentMode: 0
      - time: 3.3333309
        value: 0.22511959
        inSlope: -0.00084623776
        outSlope: -0.00084623776
        tangentMode: 0
      - time: 4.1499987
        value: 0.22418988
        inSlope: -0.0014756423
        outSlope: -0.0014756423
        tangentMode: 0
      - time: 4.966676
        value: 0.22263618
        inSlope: -0.0023764055
        outSlope: -0.0023764055
        tangentMode: 0
      - time: 5.783354
        value: 0.2202671
        inSlope: -0.0033111428
        outSlope: -0.0033111428
        tangentMode: 0
      - time: 6.6000314
        value: 0.21734421
        inSlope: -0.003839084
        outSlope: -0.003839084
        tangentMode: 0
      - time: 7.416709
        value: 0.21400842
        inSlope: -0.004320087
        outSlope: -0.004320087
        tangentMode: 0
      - time: 8.233379
        value: 0.21030007
        inSlope: -0.004752947
        outSlope: -0.004752947
        tangentMode: 0
      - time: 9.0667
        value: 0.20617452
        inSlope: -0.005140085
        outSlope: -0.005140085
        tangentMode: 0
      - time: 9.900021
        value: 0.20174813
        inSlope: -0.005474472
        outSlope: -0.005474472
        tangentMode: 0
      - time: 10.733341
        value: 0.19706644
        inSlope: -0.005752085
        outSlope: -0.005752085
        tangentMode: 0
      - time: 11.566662
        value: 0.19217637
        inSlope: -0.005974265
        outSlope: -0.005974265
        tangentMode: 0
      - time: 12.399982
        value: 0.18712634
        inSlope: -0.0061360938
        outSlope: -0.0061360938
        tangentMode: 0
      - time: 13.233303
        value: 0.18196593
        inSlope: -0.006238466
        outSlope: -0.006238466
        tangentMode: 0
      - time: 14.066624
        value: 0.17674644
        inSlope: -0.0062787
        outSlope: -0.0062787
        tangentMode: 0
      - time: 14.899944
        value: 0.17152034
        inSlope: -0.00625456
        outSlope: -0.00625456
        tangentMode: 0
      - time: 15.733265
        value: 0.16634148
        inSlope: -0.0061647044
        outSlope: -0.0061647044
        tangentMode: 0
      - time: 16.566586
        value: 0.16126479
        inSlope: -0.006009134
        outSlope: -0.006009134
        tangentMode: 0
      - time: 17.399906
        value: 0.15634623
        inSlope: -0.0057851663
        outSlope: -0.0057851663
        tangentMode: 0
      - time: 18.233227
        value: 0.15164247
        inSlope: -0.0054910127
        outSlope: -0.0054910127
        tangentMode: 0
      - time: 19.066547
        value: 0.14721109
        inSlope: -0.005132932
        outSlope: -0.005132932
        tangentMode: 0
      - time: 19.899868
        value: 0.14314602
        inSlope: -0.004465052
        outSlope: -0.004465052
        tangentMode: 0
      - time: 20.733189
        value: 0.13984546
        inSlope: -0.003488713
        outSlope: -0.003488713
        tangentMode: 0
      - time: 21.56651
        value: 0.13727498
        inSlope: -0.002713543
        outSlope: -0.002713543
        tangentMode: 0
      - time: 22.39983
        value: 0.13526733
        inSlope: -0.0021404354
        outSlope: -0.0021404354
        tangentMode: 0
      - time: 23.23315
        value: 0.13365288
        inSlope: -0.0017698379
        outSlope: -0.0017698379
        tangentMode: 0
      - time: 24.066471
        value: 0.1322604
        inSlope: -0.0016062206
        outSlope: -0.0016062206
        tangentMode: 0
      - time: 24.899792
        value: 0.13091777
        inSlope: -0.0016509248
        outSlope: -0.0016509248
        tangentMode: 0
      - time: 25.733112
        value: 0.12945202
        inSlope: -0.0019017153
        outSlope: -0.0019017153
        tangentMode: 0
      - time: 26.566433
        value: 0.12768923
        inSlope: -0.0023644033
        outSlope: -0.0023644033
        tangentMode: 0
      - time: 27.399754
        value: 0.12545452
        inSlope: -0.0030354126
        outSlope: -0.0030354126
        tangentMode: 0
      - time: 28.233074
        value: 0.1225714
        inSlope: -0.0039198846
        outSlope: -0.0039198846
        tangentMode: 0
      - time: 29.066395
        value: 0.11886121
        inSlope: -0.0050198305
        outSlope: -0.0050198305
        tangentMode: 0
      - time: 29.899715
        value: 0.11414243
        inSlope: -0.006340392
        outSlope: -0.006340392
        tangentMode: 0
      - time: 30.733036
        value: 0.10822996
        inSlope: -0.007888051
        outSlope: -0.007888051
        tangentMode: 0
      - time: 31.566357
        value: 0.10093432
        inSlope: -0.009663252
        outSlope: -0.009663252
        tangentMode: 0
      - time: 32.399677
        value: 0.09206192
        inSlope: -0.011672705
        outSlope: -0.011672705
        tangentMode: 0
      - time: 33.232998
        value: 0.08169014
        inSlope: -0.0131711885
        outSlope: -0.0131711885
        tangentMode: 0
      - time: 34.06632
        value: 0.07013788
        inSlope: -0.014539136
        outSlope: -0.014539136
        tangentMode: 0
      - time: 34.89964
        value: 0.057484142
        inSlope: -0.015813876
        outSlope: -0.015813876
        tangentMode: 0
      - time: 35.73296
        value: 0.04381255
        inSlope: -0.016982554
        outSlope: -0.016982554
        tangentMode: 0
      - time: 36.56628
        value: 0.029213153
        inSlope: -0.018037908
        outSlope: -0.018037908
        tangentMode: 0
      - time: 37.3996
        value: 0.013782419
        inSlope: -0.018974878
        outSlope: -0.018974878
        tangentMode: 0
      - time: 38.23292
        value: -0.0023765324
        inSlope: -0.019784227
        outSlope: -0.019784227
        tangentMode: 0
      - time: 39.066242
        value: -0.019154137
        inSlope: -0.020460315
        outSlope: -0.020460315
        tangentMode: 0
      - time: 39.899563
        value: -0.03643556
        inSlope: -0.020992406
        outSlope: -0.020992406
        tangentMode: 0
      - time: 40.732883
        value: -0.054101117
        inSlope: -0.021380214
        outSlope: -0.021380214
        tangentMode: 0
      - time: 41.566204
        value: -0.072027914
        inSlope: -0.021620275
        outSlope: -0.021620275
        tangentMode: 0
      - time: 42.399525
        value: -0.090091065
        inSlope: -0.021705884
        outSlope: -0.021705884
        tangentMode: 0
      - time: 43.232845
        value: -0.10816551
        inSlope: -0.021647321
        outSlope: -0.021647321
        tangentMode: 0
      - time: 44.066166
        value: -0.12612738
        inSlope: -0.021439224
        outSlope: -0.021439224
        tangentMode: 0
      - time: 44.899487
        value: -0.14385605
        inSlope: -0.021088297
        outSlope: -0.021088297
        tangentMode: 0
      - time: 45.732807
        value: -0.16123594
        inSlope: -0.020603256
        outSlope: -0.020603256
        tangentMode: 0
      - time: 46.566128
        value: -0.17815782
        inSlope: -0.01999081
        outSlope: -0.01999081
        tangentMode: 0
      - time: 47.39945
        value: -0.19452074
        inSlope: -0.01926079
        outSlope: -0.01926079
        tangentMode: 0
      - time: 48.23277
        value: -0.21023266
        inSlope: -0.018429292
        outSlope: -0.018429292
        tangentMode: 0
      - time: 49.06609
        value: -0.22521226
        inSlope: -0.017508386
        outSlope: -0.017508386
        tangentMode: 0
      - time: 49.89941
        value: -0.23938917
        inSlope: -0.0165088
        outSlope: -0.0165088
        tangentMode: 0
      - time: 50.083332
        value: -0.24240388
        inSlope: -0.016288994
        outSlope: -0.016288994
        tangentMode: 0
      m_PreInfinity: 2
      m_PostInfinity: 2
      m_RotationOrder: 4
    attribute: m_LocalRotation.x
    path: 
    classID: 4
    script: {fileID: 0}
  - curve:
      serializedVersion: 2
      m_Curve:
      - time: 0
        value: 0.7643722
        inSlope: 0.0014483928
        outSlope: 0.0014483928
        tangentMode: 0
      - time: 0.8333332
        value: 0.7652897
        inSlope: 0.000811816
        outSlope: 0.000811816
        tangentMode: 0
      - time: 1.6666658
        value: 0.76582706
        inSlope: 0.0005435949
        outSlope: 0.0005435949
        tangentMode: 0
      - time: 2.4999983
        value: 0.7663007
        inSlope: 0.0006562478
        outSlope: 0.0006562478
        tangentMode: 0
      - time: 3.3333309
        value: 0.7670244
        inSlope: 0.0011444102
        outSlope: 0.0011444102
        tangentMode: 0
      - time: 4.1499987
        value: 0.7682757
        inSlope: 0.0019812318
        outSlope: 0.0019812318
        tangentMode: 0
      - time: 4.966676
        value: 0.7703507
        inSlope: 0.003157812
        outSlope: 0.003157812
        tangentMode: 0
      - time: 5.783354
        value: 0.77347636
        inSlope: 0.00433618
        outSlope: 0.00433618
        tangentMode: 0
      - time: 6.6000314
        value: 0.77726966
        inSlope: 0.0049387747
        outSlope: 0.0049387747
        tangentMode: 0
      - time: 7.416709
        value: 0.7815149
        inSlope: 0.0054412354
        outSlope: 0.0054412354
        tangentMode: 0
      - time: 8.233379
        value: 0.7861309
        inSlope: 0.005845517
        outSlope: 0.005845517
        tangentMode: 0
      - time: 9.0667
        value: 0.7911407
        inSlope: 0.0061620222
        outSlope: 0.0061620222
        tangentMode: 0
      - time: 9.900021
        value: 0.79637146
        inSlope: 0.0063783904
        outSlope: 0.0063783904
        tangentMode: 0
      - time: 10.733341
        value: 0.8017445
        inSlope: 0.006501774
        outSlope: 0.006501774
        tangentMode: 0
      - time: 11.566662
        value: 0.80718523
        inSlope: 0.0065411134
        outSlope: 0.0065411134
        tangentMode: 0
      - time: 12.399982
        value: 0.8126236
        inSlope: 0.0064981976
        outSlope: 0.0064981976
        tangentMode: 0
      - time: 13.233303
        value: 0.81799537
        inSlope: 0.0063819666
        outSlope: 0.0063819666
        tangentMode: 0
      - time: 14.066624
        value: 0.8232418
        inSlope: 0.0061995736
        outSlope: 0.0061995736
        tangentMode: 0
      - time: 14.899944
        value: 0.82830995
        inSlope: 0.005956383
        outSlope: 0.005956383
        tangentMode: 0
      - time: 15.733265
        value: 0.83315325
        inSlope: 0.0056595476
        outSlope: 0.0056595476
        tangentMode: 0
      - time: 16.566586
        value: 0.8377308
        inSlope: 0.0053197956
        outSlope: 0.0053197956
        tangentMode: 0
      - time: 17.399906
        value: 0.84200794
        inSlope: 0.0049424926
        outSlope: 0.0049424926
        tangentMode: 0
      - time: 18.233227
        value: 0.845955
        inSlope: 0.0045258496
        outSlope: 0.0045258496
        tangentMode: 0
      - time: 19.066547
        value: 0.8495471
        inSlope: 0.004089537
        outSlope: 0.004089537
        tangentMode: 0
      - time: 19.899868
        value: 0.8527359
        inSlope: 0.0034457971
        outSlope: 0.0034457971
        tangentMode: 0
      - time: 20.733189
        value: 0.85525084
        inSlope: 0.0026232405
        outSlope: 0.0026232405
        tangentMode: 0
      - time: 21.56651
        value: 0.8571639
        inSlope: 0.0019973821
        outSlope: 0.0019973821
        tangentMode: 0
      - time: 22.39983
        value: 0.8586305
        inSlope: 0.0015503406
        outSlope: 0.0015503406
        tangentMode: 0
      - time: 23.23315
        value: 0.8597924
        inSlope: 0.0012642338
        outSlope: 0.0012642338
        tangentMode: 0
      - time: 24.066471
        value: 0.86078215
        inSlope: 0.0011372741
        outSlope: 0.0011372741
        tangentMode: 0
      - time: 24.899792
        value: 0.8617255
        inSlope: 0.0011533675
        outSlope: 0.0011533675
        tangentMode: 0
      - time: 25.733112
        value: 0.8627433
        inSlope: 0.0013125143
        outSlope: 0.0013125143
        tangentMode: 0
      - time: 26.566433
        value: 0.8639506
        inSlope: 0.0016075617
        outSlope: 0.0016075617
        tangentMode: 0
      - time: 27.399754
        value: 0.865455
        inSlope: 0.0020224163
        outSlope: 0.0020224163
        tangentMode: 0
      - time: 28.233074
        value: 0.8673528
        inSlope: 0.002546349
        outSlope: 0.002546349
        tangentMode: 0
      - time: 29.066395
        value: 0.86972433
        inSlope: 0.003156114
        outSlope: 0.003156114
        tangentMode: 0
      - time: 29.899715
        value: 0.8726264
        inSlope: 0.0038141594
        outSlope: 0.0038141594
        tangentMode: 0
      - time: 30.733036
        value: 0.87608415
        inSlope: 0.0044811456
        outSlope: 0.0044811456
        tangentMode: 0
      - time: 31.566357
        value: 0.8800803
        inSlope: 0.005096275
        outSlope: 0.005096275
        tangentMode: 0
      - time: 32.399677
        value: 0.88454294
        inSlope: 0.0055862325
        outSlope: 0.0055862325
        tangentMode: 0
      - time: 33.232998
        value: 0.88921535
        inSlope: 0.0055647744
        outSlope: 0.0055647744
        tangentMode: 0
      - time: 34.06632
        value: 0.89373946
        inSlope: 0.005248269
        outSlope: 0.005248269
        tangentMode: 0
      - time: 34.89964
        value: 0.8978847
        inSlope: 0.0046563856
        outSlope: 0.0046563856
        tangentMode: 0
      - time: 35.73296
        value: 0.9014244
        inSlope: 0.0037944894
        outSlope: 0.0037944894
        tangentMode: 0
      - time: 36.56628
        value: 0.90413994
        inSlope: 0.0026804619
        outSlope: 0.0026804619
        tangentMode: 0
      - time: 37.3996
        value: 0.9058257
        inSlope: 0.0013268196
        outSlope: 0.0013268196
        tangentMode: 0
      - time: 38.23292
        value: 0.90629345
        inSlope: -0.00023782617
        outSlope: -0.00023782617
        tangentMode: 0
      - time: 39.066242
        value: 0.90537643
        inSlope: -0.0019902294
        outSlope: -0.0019902294
        tangentMode: 0
      - time: 39.899563
        value: 0.9029333
        inSlope: -0.0038946269
        outSlope: -0.0038946269
        tangentMode: 0
      - time: 40.732883
        value: 0.898851
        inSlope: -0.0059170434
        outSlope: -0.0059170434
        tangentMode: 0
      - time: 41.566204
        value: 0.89304787
        inSlope: -0.008021716
        outSlope: -0.008021716
        tangentMode: 0
      - time: 42.399525
        value: 0.8854757
        inSlope: -0.010156786
        outSlope: -0.010156786
        tangentMode: 0
      - time: 43.232845
        value: 0.87612075
        inSlope: -0.012291858
        outSlope: -0.012291858
        tangentMode: 0
      - time: 44.066166
        value: 0.8650051
        inSlope: -0.01437686
        outSlope: -0.01437686
        tangentMode: 0
      - time: 44.899487
        value: 0.8521862
        inSlope: -0.016370665
        outSlope: -0.016370665
        tangentMode: 0
      - time: 45.732807
        value: 0.8377564
        inSlope: -0.018233936
        outSlope: -0.018233936
        tangentMode: 0
      - time: 46.566128
        value: 0.8218415
        inSlope: -0.019930905
        outSlope: -0.019930905
        tangentMode: 0
      - time: 47.39945
        value: 0.8045985
        inSlope: -0.021415085
        outSlope: -0.021415085
        tangentMode: 0
      - time: 48.23277
        value: 0.7862138
        inSlope: -0.022661436
        outSlope: -0.022661436
        tangentMode: 0
      - time: 49.06609
        value: 0.7668993
        inSlope: -0.023644928
        outSlope: -0.023644928
        tangentMode: 0
      - time: 49.89941
        value: 0.74688905
        inSlope: -0.024335159
        outSlope: -0.024335159
        tangentMode: 0
      - time: 50.083332
        value: 0.7424038
        inSlope: -0.024442557
        outSlope: -0.024442557
        tangentMode: 0
      m_PreInfinity: 2
      m_PostInfinity: 2
      m_RotationOrder: 4
    attribute: m_LocalRotation.y
    path: 
    classID: 4
    script: {fileID: 0}
  - curve:
      serializedVersion: 2
      m_Curve:
      - time: 0
        value: -0.35643265
        inSlope: -0.0006759166
        outSlope: -0.0006759166
        tangentMode: 0
      - time: 0.8333332
        value: -0.3568605
        inSlope: -0.00037819182
        outSlope: -0.00037819182
        tangentMode: 0
      - time: 1.6666658
        value: -0.35711104
        inSlope: -0.00025391602
        outSlope: -0.00025391602
        tangentMode: 0
      - time: 2.4999983
        value: -0.35733187
        inSlope: -0.00030577212
        outSlope: -0.00030577212
        tangentMode: 0
      - time: 3.3333309
        value: -0.35766938
        inSlope: -0.0005337601
        outSlope: -0.0005337601
        tangentMode: 0
      - time: 4.1499987
        value: -0.35825285
        inSlope: -0.00092356163
        outSlope: -0.00092356163
        tangentMode: 0
      - time: 4.966676
        value: -0.35922045
        inSlope: -0.0014734071
        outSlope: -0.0014734071
        tangentMode: 0
      - time: 5.783354
        value: -0.36067796
        inSlope: -0.0020223586
        outSlope: -0.0020223586
        tangentMode: 0
      - time: 6.6000314
        value: -0.3624468
        inSlope: -0.0023030927
        outSlope: -0.0023030927
        tangentMode: 0
      - time: 7.416709
        value: -0.3644264
        inSlope: -0.0025373357
        outSlope: -0.0025373357
        tangentMode: 0
      - time: 8.233379
        value: -0.36657888
        inSlope: -0.0027260599
        outSlope: -0.0027260599
        tangentMode: 0
      - time: 9.0667
        value: -0.368915
        inSlope: -0.0028726896
        outSlope: -0.0028726896
        tangentMode: 0
      - time: 9.900021
        value: -0.37135413
        inSlope: -0.0029737211
        outSlope: -0.0029737211
        tangentMode: 0
      - time: 10.733341
        value: -0.3738596
        inSlope: -0.0030318366
        outSlope: -0.0030318366
        tangentMode: 0
      - time: 11.566662
        value: -0.37639666
        inSlope: -0.0030497182
        outSlope: -0.0030497182
        tangentMode: 0
      - time: 12.399982
        value: -0.37893265
        inSlope: -0.0030300485
        outSlope: -0.0030300485
        tangentMode: 0
      - time: 13.233303
        value: -0.38143754
        inSlope: -0.0029755093
        outSlope: -0.0029755093
        tangentMode: 0
      - time: 14.066624
        value: -0.38388395
        inSlope: -0.0028905713
        outSlope: -0.0028905713
        tangentMode: 0
      - time: 14.899944
        value: -0.3862473
        inSlope: -0.0027770228
        outSlope: -0.0027770228
        tangentMode: 0
      - time: 15.733265
        value: -0.38850576
        inSlope: -0.002640228
        outSlope: -0.002640228
        tangentMode: 0
      - time: 16.566586
        value: -0.39064032
        inSlope: -0.0024801872
        outSlope: -0.0024801872
        tangentMode: 0
      - time: 17.399906
        value: -0.39263478
        inSlope: -0.0023040527
        outSlope: -0.0023040527
        tangentMode: 0
      - time: 18.233227
        value: -0.3944753
        inSlope: -0.0021109306
        outSlope: -0.0021109306
        tangentMode: 0
      - time: 19.066547
        value: -0.39615035
        inSlope: -0.0019079738
        outSlope: -0.0019079738
        tangentMode: 0
      - time: 19.899868
        value: -0.39763728
        inSlope: -0.0016075617
        outSlope: -0.0016075617
        tangentMode: 0
      - time: 20.733189
        value: -0.39881003
        inSlope: -0.0012231059
        outSlope: -0.0012231059
        tangentMode: 0
      - time: 21.56651
        value: -0.3997021
        inSlope: -0.0009316348
        outSlope: -0.0009316348
        tangentMode: 0
      - time: 22.39983
        value: -0.400386
        inSlope: -0.0007233134
        outSlope: -0.0007233134
        tangentMode: 0
      - time: 23.23315
        value: -0.4009278
        inSlope: -0.00059009495
        outSlope: -0.00059009495
        tangentMode: 0
      - time: 24.066471
        value: -0.40138933
        inSlope: -0.0005292973
        outSlope: -0.0005292973
        tangentMode: 0
      - time: 24.899792
        value: -0.40182924
        inSlope: -0.0005373441
        outSlope: -0.0005373441
        tangentMode: 0
      - time: 25.733112
        value: -0.40230384
        inSlope: -0.00061244704
        outSlope: -0.00061244704
        tangentMode: 0
      - time: 26.566433
        value: -0.4028668
        inSlope: -0.00075013586
        outSlope: -0.00075013586
        tangentMode: 0
      - time: 27.399754
        value: -0.4035683
        inSlope: -0.00094325794
        outSlope: -0.00094325794
        tangentMode: 0
      - time: 28.233074
        value: -0.40445328
        inSlope: -0.0011882368
        outSlope: -0.0011882368
        tangentMode: 0
      - time: 29.066395
        value: -0.40555915
        inSlope: -0.0014716611
        outSlope: -0.0014716611
        tangentMode: 0
      - time: 29.899715
        value: -0.4069124
        inSlope: -0.0017792259
        outSlope: -0.0017792259
        tangentMode: 0
      - time: 30.733036
        value: -0.40852475
        inSlope: -0.0020894727
        outSlope: -0.0020894727
        tangentMode: 0
      - time: 31.566357
        value: -0.4103882
        inSlope: -0.0023764735
        outSlope: -0.0023764735
        tangentMode: 0
      - time: 32.399677
        value: -0.41246918
        inSlope: -0.0026053588
        outSlope: -0.0026053588
        tangentMode: 0
      - time: 33.232998
        value: -0.41464794
        inSlope: -0.0025955238
        outSlope: -0.0025955238
        tangentMode: 0
      - time: 34.06632
        value: -0.41675758
        inSlope: -0.002447106
        outSlope: -0.002447106
        tangentMode: 0
      - time: 34.89964
        value: -0.41869053
        inSlope: -0.0021708342
        outSlope: -0.0021708342
        tangentMode: 0
      - time: 35.73296
        value: -0.4203411
        inSlope: -0.001770285
        outSlope: -0.001770285
        tangentMode: 0
      - time: 36.56628
        value: -0.4216074
        inSlope: -0.0012499285
        outSlope: -0.0012499285
        tangentMode: 0
      - time: 37.3996
        value: -0.42239347
        inSlope: -0.00061870564
        outSlope: -0.00061870564
        tangentMode: 0
      - time: 38.23292
        value: -0.4226116
        inSlope: 0.00011086633
        outSlope: 0.00011086633
        tangentMode: 0
      - time: 39.066242
        value: -0.422184
        inSlope: 0.0009280585
        outSlope: 0.0009280585
        tangentMode: 0
      - time: 39.899563
        value: -0.42104474
        inSlope: 0.0018158832
        outSlope: 0.0018158832
        tangentMode: 0
      - time: 40.732883
        value: -0.4191411
        inSlope: 0.002759141
        outSlope: 0.002759141
        tangentMode: 0
      - time: 41.566204
        value: -0.4164351
        inSlope: 0.0037399505
        outSlope: 0.0037399505
        tangentMode: 0
      - time: 42.399525
        value: -0.4129041
        inSlope: 0.0047359597
        outSlope: 0.0047359597
        tangentMode: 0
      - time: 43.232845
        value: -0.40854183
        inSlope: 0.005731968
        outSlope: 0.005731968
        tangentMode: 0
      - time: 44.066166
        value: -0.40335852
        inSlope: 0.006703837
        outSlope: 0.006703837
        tangentMode: 0
      - time: 44.899487
        value: -0.39738098
        inSlope: 0.0076336833
        outSlope: 0.0076336833
        tangentMode: 0
      - time: 45.732807
        value: -0.39065224
        inSlope: 0.008502732
        outSlope: 0.008502732
        tangentMode: 0
      - time: 46.566128
        value: -0.38323098
        inSlope: 0.009293102
        outSlope: 0.009293102
        tangentMode: 0
      - time: 47.39945
        value: -0.37519047
        inSlope: 0.009986017
        outSlope: 0.009986017
        tangentMode: 0
      - time: 48.23277
        value: -0.36661756
        inSlope: 0.010568065
        outSlope: 0.010568065
        tangentMode: 0
      - time: 49.06609
        value: -0.35761103
        inSlope: 0.011025836
        outSlope: 0.011025836
        tangentMode: 0
      - time: 49.89941
        value: -0.3482801
        inSlope: 0.011346811
        outSlope: 0.011346811
        tangentMode: 0
      - time: 50.083332
        value: -0.3461886
        inSlope: 0.0113958195
        outSlope: 0.0113958195
        tangentMode: 0
      m_PreInfinity: 2
      m_PostInfinity: 2
      m_RotationOrder: 4
    attribute: m_LocalRotation.z
    path: 
    classID: 4
    script: {fileID: 0}
  - curve:
      serializedVersion: 2
      m_Curve:
      - time: 0
        value: 0.48695877
        inSlope: -0.002274513
        outSlope: -0.002274513
        tangentMode: 0
      - time: 0.8333332
        value: 0.48551556
        inSlope: -0.0012785208
        outSlope: -0.0012785208
        tangentMode: 0
      - time: 1.6666658
        value: 0.48466757
        inSlope: -0.00085920177
        outSlope: -0.00085920177
        tangentMode: 0
      - time: 2.4999983
        value: 0.48391846
        inSlope: -0.0010380158
        outSlope: -0.0010380158
        tangentMode: 0
      - time: 3.3333309
        value: 0.48277047
        inSlope: -0.0018149632
        outSlope: -0.0018149632
        tangentMode: 0
      - time: 4.1499987
        value: 0.4807767
        inSlope: -0.0031649643
        outSlope: -0.0031649643
        tangentMode: 0
      - time: 4.966676
        value: 0.4774448
        inSlope: -0.005096129
        outSlope: -0.005096129
        tangentMode: 0
      - time: 5.783354
        value: 0.4723643
        inSlope: -0.0071015004
        outSlope: -0.0071015004
        tangentMode: 0
      - time: 6.6000314
        value: 0.46609613
        inSlope: -0.008232484
        outSlope: -0.008232484
        tangentMode: 0
      - time: 7.416709
        value: 0.4589425
        inSlope: -0.009264226
        outSlope: -0.009264226
        tangentMode: 0
      - time: 8.233379
        value: 0.45098993
        inSlope: -0.01019255
        outSlope: -0.01019255
        tangentMode: 0
      - time: 9.0667
        value: 0.4421427
        inSlope: -0.011024048
        outSlope: -0.011024048
        tangentMode: 0
      - time: 9.900021
        value: 0.43265027
        inSlope: -0.011739314
        outSlope: -0.011739314
        tangentMode: 0
      - time: 10.733341
        value: 0.4226103
        inSlope: -0.012334773
        outSlope: -0.012334773
        tangentMode: 0
      - time: 11.566662
        value: 0.41212356
        inSlope: -0.012812214
        outSlope: -0.012812214
        tangentMode: 0
      - time: 12.399982
        value: 0.4012937
        inSlope: -0.013159119
        outSlope: -0.013159119
        tangentMode: 0
      - time: 13.233303
        value: 0.39022717
        inSlope: -0.013378168
        outSlope: -0.013378168
        tangentMode: 0
      - time: 14.066624
        value: 0.37903392
        inSlope: -0.013464001
        outSlope: -0.013464001
        tangentMode: 0
      - time: 14.899944
        value: 0.36782655
        inSlope: -0.013413038
        outSlope: -0.013413038
        tangentMode: 0
      - time: 15.733265
        value: 0.35672045
        inSlope: -0.01322081
        outSlope: -0.01322081
        tangentMode: 0
      - time: 16.566586
        value: 0.34583345
        inSlope: -0.012886423
        outSlope: -0.012886423
        tangentMode: 0
      - time: 17.399906
        value: 0.33528554
        inSlope: -0.0124063
        outSlope: -0.0124063
        tangentMode: 0
      - time: 18.233227
        value: 0.32519832
        inSlope: -0.011774183
        outSlope: -0.011774183
        tangentMode: 0
      - time: 19.066547
        value: 0.31569517
        inSlope: -0.011007059
        outSlope: -0.011007059
        tangentMode: 0
      - time: 19.899868
        value: 0.30697763
        inSlope: -0.009575632
        outSlope: -0.009575632
        tangentMode: 0
      - time: 20.733189
        value: 0.29989955
        inSlope: -0.0074816896
        outSlope: -0.0074816896
        tangentMode: 0
      - time: 21.56651
        value: 0.29438713
        inSlope: -0.005818694
        outSlope: -0.005818694
        tangentMode: 0
      - time: 22.39983
        value: 0.2900817
        inSlope: -0.0045911176
        outSlope: -0.0045911176
        tangentMode: 0
      - time: 23.23315
        value: 0.2866195
        inSlope: -0.0037944894
        outSlope: -0.0037944894
        tangentMode: 0
      - time: 24.066471
        value: 0.28363332
        inSlope: -0.003444009
        outSlope: -0.003444009
        tangentMode: 0
      - time: 24.899792
        value: 0.28075406
        inSlope: -0.003541464
        outSlope: -0.003541464
        tangentMode: 0
      - time: 25.733112
        value: 0.27761075
        inSlope: -0.0040797023
        outSlope: -0.0040797023
        tangentMode: 0
      - time: 26.566433
        value: 0.2738304
        inSlope: -0.0050703464
        outSlope: -0.0050703464
        tangentMode: 0
      - time: 27.399754
        value: 0.26903808
        inSlope: -0.006508927
        outSlope: -0.006508927
        tangentMode: 0
      - time: 28.233074
        value: 0.2628552
        inSlope: -0.008406172
        outSlope: -0.008406172
        tangentMode: 0
      - time: 29.066395
        value: 0.25489867
        inSlope: -0.010764763
        outSlope: -0.010764763
        tangentMode: 0
      - time: 29.899715
        value: 0.24477921
        inSlope: -0.013597218
        outSlope: -0.013597218
        tangentMode: 0
      - time: 30.733036
        value: 0.23209988
        inSlope: -0.016916055
        outSlope: -0.016916055
        tangentMode: 0
      - time: 31.566357
        value: 0.21645433
        inSlope: -0.020722616
        outSlope: -0.020722616
        tangentMode: 0
      - time: 32.399677
        value: 0.19742742
        inSlope: -0.025032545
        outSlope: -0.025032545
        tangentMode: 0
      - time: 33.232998
        value: 0.17518505
        inSlope: -0.028245881
        outSlope: -0.028245881
        tangentMode: 0
      - time: 34.06632
        value: 0.15041116
        inSlope: -0.031179368
        outSlope: -0.031179368
        tangentMode: 0
      - time: 34.89964
        value: 0.12327513
        inSlope: -0.033913027
        outSlope: -0.033913027
        tangentMode: 0
      - time: 35.73296
        value: 0.093956314
        inSlope: -0.036419142
        outSlope: -0.036419142
        tangentMode: 0
      - time: 36.56628
        value: 0.062647805
        inSlope: -0.0386824
        outSlope: -0.0386824
        tangentMode: 0
      - time: 37.3996
        value: 0.02955649
        inSlope: -0.040691745
        outSlope: -0.040691745
        tangentMode: 0
      - time: 38.23292
        value: -0.00509649
        inSlope: -0.0424274
        outSlope: -0.0424274
        tangentMode: 0
      - time: 39.066242
        value: -0.041076176
        inSlope: -0.04387725
        outSlope: -0.04387725
        tangentMode: 0
      - time: 39.899563
        value: -0.07813631
        inSlope: -0.04501821
        outSlope: -0.04501821
        tangentMode: 0
      - time: 40.732883
        value: -0.11602022
        inSlope: -0.045849934
        outSlope: -0.045849934
        tangentMode: 0
      - time: 41.566204
        value: -0.15446435
        inSlope: -0.046364926
        outSlope: -0.046364926
        tangentMode: 0
      - time: 42.399525
        value: -0.1932009
        inSlope: -0.046548214
        outSlope: -0.046548214
        tangentMode: 0
      - time: 43.232845
        value: -0.23196167
        inSlope: -0.04642304
        outSlope: -0.04642304
        tangentMode: 0
      - time: 44.066166
        value: -0.27048102
        inSlope: -0.045976445
        outSlope: -0.045976445
        tangentMode: 0
      - time: 44.899487
        value: -0.3085003
        inSlope: -0.04522452
        outSlope: -0.04522452
        tangentMode: 0
      - time: 45.732807
        value: -0.34577158
        inSlope: -0.044182915
        outSlope: -0.044182915
        tangentMode: 0
      - time: 46.566128
        value: -0.38206065
        inSlope: -0.042870402
        outSlope: -0.042870402
        tangentMode: 0
      - time: 47.39945
        value: -0.41715106
        inSlope: -0.041303966
        outSlope: -0.041303966
        tangentMode: 0
      - time: 48.23277
        value: -0.4508454
        inSlope: -0.039521165
        outSlope: -0.039521165
        tangentMode: 0
      - time: 49.06609
        value: -0.48296922
        inSlope: -0.03754703
        outSlope: -0.03754703
        tangentMode: 0
      - time: 49.89941
        value: -0.5133717
        inSlope: -0.035402123
        outSlope: -0.035402123
        tangentMode: 0
      - time: 50.083332
        value: -0.5198368
        inSlope: -0.034931753
        outSlope: -0.034931753
        tangentMode: 0
      m_PreInfinity: 2
      m_PostInfinity: 2
      m_RotationOrder: 4
    attribute: m_LocalRotation.w
    path: 
    classID: 4
    script: {fileID: 0}
  m_EulerEditorCurves:
  - curve:
      serializedVersion: 2
      m_Curve:
      - time: 0
        value: 50
        inSlope: 0
        outSlope: 0
        tangentMode: 10
      - time: 5.5
        value: 50
        inSlope: 0
        outSlope: 0
        tangentMode: 10
      - time: 19.6
        value: 50
        inSlope: 0
        outSlope: 0
        tangentMode: 10
      - time: 32.45
        value: 50
        inSlope: 0
        outSlope: 0
        tangentMode: 10
      - time: 50.083332
        value: 50
        inSlope: 0
        outSlope: 0
        tangentMode: 10
      m_PreInfinity: 2
      m_PostInfinity: 2
      m_RotationOrder: 4
    attribute: localEulerAnglesBaked.x
    path: 
    classID: 4
    script: {fileID: 0}
  - curve:
      serializedVersion: 2
      m_Curve:
      - time: 0
        value: 115
        inSlope: 0.34281504
        outSlope: 0.34281504
        tangentMode: 10
      - time: 5.5
        value: 116.88548
        inSlope: 0.9910712
        outSlope: 0.9910712
        tangentMode: 10
      - time: 19.6
        value: 140
        inSlope: 1.4033213
        outSlope: 1.4033213
        tangentMode: 10
      - time: 32.45
        value: 155
        inSlope: 3.2774196
        outSlope: 3.2774196
        tangentMode: 10
      - time: 50.083332
        value: 250
        inSlope: 5.387524
        outSlope: 5.387524
        tangentMode: 10
      m_PreInfinity: 2
      m_PostInfinity: 2
      m_RotationOrder: 4
    attribute: localEulerAnglesBaked.y
    path: 
    classID: 4
    script: {fileID: 0}
  - curve:
      serializedVersion: 2
      m_Curve:
      - time: 0
        value: 0
        inSlope: 0
        outSlope: 0
        tangentMode: 10
      - time: 5.5
        value: 0
        inSlope: 0
        outSlope: 0
        tangentMode: 10
      - time: 19.6
        value: 0
        inSlope: 0
        outSlope: 0
        tangentMode: 10
      - time: 32.45
        value: 0
        inSlope: 0
        outSlope: 0
        tangentMode: 10
      - time: 50.083332
        value: 0
        inSlope: 0
        outSlope: 0
        tangentMode: 10
      m_PreInfinity: 2
      m_PostInfinity: 2
      m_RotationOrder: 4
    attribute: localEulerAnglesBaked.z
    path: 
    classID: 4
    script: {fileID: 0}
  m_HasGenericRootTransform: 0
  m_HasMotionFloatCurves: 0
  m_GenerateMotionCurves: 0
  m_Events: []
